2000.1.1 = {

	create_corps_commander = {	
		name = "Anatoly Zaitsev"
		picture = "Anatoly_Zaitsev.dds"		#WIP-GFX
		id = 1
		skill = 5
		attack_skill = 5
		defense_skill = 7
		planning_skill = 2
		logistics_skill = 2
	}
	
}