﻿2000.1.1 = {

	create_corps_commander = {
		name = "Khazaal Hashemi"	
		picture = "Khazaal_Hashemi.dds"		#WIP-GFX
		id = 201
		traits = {  }
		skill = 1
		attack_skill = 1
		defense_skill = 1
		planning_skill = 1
		logistics_skill = 1
	}

}