﻿2000.1.1 = {
	capital = 124
	oob = "SLV_2000"
	set_convoys = 20
	set_cosmetic_tag = SLV
	set_country_flag = dynamic_flag
	set_country_flag = dynamic_rebel_flag
	add_ideas = {

        #GDP
        gdp_7
        #Economic Cycle
        stable_growth
        #Corruption
        medium_corruption
        #Faction 1
        industrial_conglomerates
        #Faction 2
        landowners
        #Faction 3
        small_medium_business_owners

        #Bureacracy
        bureau_02
        #Military Spending
        defence_01
        #Internal Security
        police_03
        #Education budget
        edu_04
        #Health budget
        health_05
        #Social spending
        social_05

        #Trade Law
        export_economy
        #Conscription Law
        volunteer_army
        #Women in the military
        volunteer_women
        #Foreign Intervention Law

        #Officer Training
        officer_military_school

        #Other
		pluralist
		western_country
		large_far_right_movement

	}

	set_country_flag = positive_industrial_conglomerates
	set_country_flag = positive_landowners
	set_country_flag = positive_small_medium_business_owners

	set_technology = {
		legacy_doctrines = 1
		infiltration_assault = 1
		defence_in_depth = 1
		early_tunnel_warfare = 1
		guerilla_specialisation = 1

		infantry_weapons = 1
		infantry_weapons1 = 1
		infantry_weapons2 = 1
		support_weapons = 1
		support_weapons2 = 1
		tandem_charge_warheads = 1
		squad_automatic_weapon = 1

		command_control_equipment = 1

		Anti_tank_0 = 1

		Heavy_Anti_tank_0 = 1

		Anti_Air_0 = 1

		combat_eng_equipment = 1

		Early_APC = 1
		MBT_1 = 1
		MBT_2 = 1

		IFV_1 = 1
		IFV_2 = 1

		APC_1 = 1
		APC_2 = 1
		APC_3 = 1
		APC_4 = 1

		util_vehicle_0 = 1
		util_vehicle_1 = 1

		SP_arty_0 = 1

		artillery_0 = 1
		SP_R_arty_0 = 1

		night_vision_1 = 1

		body_armor_1980 = 1

		basic_computing = 1
		integrated_circuit = 1
		computing1 = 1
		decryption1 = 1
		encryption1 = 1
		microprocessors = 1
		computing2 = 1
		decryption2 = 1
		encryption2 = 1

		radar = 1
		internet1 = 1
		internet2 = 1
		gprs = 1
	}

	#Influence system
	init_influence = yes
	set_variable = { domestic_influence_amount = 80 }
	add_to_array = { influence_array = AUS.id }
	add_to_array = { influence_array_val = 20 }
	add_to_array = { influence_array = ITA.id }
	add_to_array = { influence_array_val = 30 }
	add_to_array = { influence_array = GER.id }
	add_to_array = { influence_array_val = 10 }
	add_to_array = { influence_array = CRO.id }
	add_to_array = { influence_array_val = 9 }
	add_to_array = { influence_array = SER.id }
	add_to_array = { influence_array_val = 5 }
	startup_influence = yes

	### Economy
	set_variable = { var = debt value = 9 }
	set_variable = { var = treasury value = 5 }
	set_variable = { var = tax_rate value = 20 }
	set_variable = { var = int_investments value = 0 }
	#initial_money_setup = yes

	set_popularities = {
		democratic = 82.7
		communism = 9.0
		fascism = 0.0
		neutrality = 3.9
		nationalist = 4.4
	}
	set_politics = {

		ruling_party = democratic
		last_election = "1996.9.14"
		election_frequency = 48
		elections_allowed = yes
	}

	### Election Threshold
	set_variable = { election_threshold = 0.04 }

	start_politics_input = yes

	### Party Popularities
	set_variable = { party_pop_array^0 = 0 } #Western_Autocracy
	set_variable = { party_pop_array^1 = 0.254 } #conservatism
	set_variable = { party_pop_array^2 = 0.422 } #liberalism
	set_variable = { party_pop_array^3 = 0.151 } #socialism
	set_variable = { party_pop_array^4 = 0.02 } #Communist-State
	set_variable = { party_pop_array^5 = 0.06 } #anarchist_communism
	set_variable = { party_pop_array^6 = 0.01 } #Conservative
	set_variable = { party_pop_array^7 = 0 } #Autocracy
	set_variable = { party_pop_array^8 = 0 } #Mod_Vilayat_e_Faqih
	set_variable = { party_pop_array^9 = 0 } #Vilayat_e_Faqih
	set_variable = { party_pop_array^10 = 0 } #Kingdom
	set_variable = { party_pop_array^11 = 0 } #Caliphate
	set_variable = { party_pop_array^12 = 0 } #Neutral_Muslim_Brotherhood
	set_variable = { party_pop_array^13 = 0 } #Neutral_Autocracy
	set_variable = { party_pop_array^14 = 0.01 } #Neutral_conservatism
	set_variable = { party_pop_array^15 = 0 } #oligarchism
	set_variable = { party_pop_array^16 = 0.01 } #Neutral_Libertarian
	set_variable = { party_pop_array^17 = 0.009 } #Neutral_green
	set_variable = { party_pop_array^18 = 0.01 } #neutral_Social
	set_variable = { party_pop_array^19 = 0 } #Neutral_Communism
	set_variable = { party_pop_array^20 = 0.044 } #Nat_Populism
	set_variable = { party_pop_array^21 = 0 } #Nat_Fascism
	set_variable = { party_pop_array^22 = 0 } #Nat_Autocracy
	set_variable = { party_pop_array^23 = 0 } #Monarchist

	### Ruling Party
	add_to_array = { ruling_party = 2 }

	startup_politics = yes

	create_country_leader = {
		name = "Milan Kučan"
		picture = "milan_kucan.dds"
		ideology = liberalism
		traits = {
			western_liberalism
		}
	}

	create_field_marshal = {
		name = "Andrej Osterman"
		picture = "Portrait_Andrej_Osterman.dds"
		traits = { inspirational_leader }
		id = 56700
		skill = 1
		attack_skill = 1
		defense_skill = 1
		planning_skill = 1
		logistics_skill = 1
	}

	create_field_marshal = {
		name = "Alan Geder"
		picture = "Portrait_Alan_Geder.dds"
		traits = { thorough_planner }
		id = 56701
		skill = 1
		attack_skill = 1
		defense_skill = 1
		planning_skill = 1
		logistics_skill = 1
	}

	create_corps_commander = {
		name = "Bojan Pograjc"
		picture = "Portrait_Bojan_Pograjc.dds"
		traits = { trait_engineer }
		id = 56702
		skill = 1
		attack_skill = 1
		defense_skill = 1
		planning_skill = 1
		logistics_skill = 1
	}

	create_corps_commander = {
		name = "Igor Tomašič"
		picture = "Portrait_Igor_Tomasic.dds"
		traits = {  }
		id = 56703
		skill = 1
		attack_skill = 1
		defense_skill = 1
		planning_skill = 1
		logistics_skill = 1
	}

	create_corps_commander = {
		name = "Igor Strojin"
		picture = "Portrait_Igor_Strojin.dds"
		traits = { fortress_buster }
		id = 56704
		skill = 1
		attack_skill = 1
		defense_skill = 1
		planning_skill = 1
		logistics_skill = 1
	}

	create_corps_commander = {
		name = "Roman Urbanč"
		picture = "Portrait_Roman_Urbanc.dds"
		traits = { panzer_leader }
		id = 56705
		skill = 1
		attack_skill = 1
		defense_skill = 1
		planning_skill = 1
		logistics_skill = 1
	}

	create_corps_commander = {
		name = "Matej Jakopič"
		picture = "Portrait_Matej_Jakopic.dds"
		traits = {  }
		id = 56706
		skill = 1
		attack_skill = 1
		defense_skill = 1
		planning_skill = 1
		logistics_skill = 1
	}

	create_corps_commander = {
		name = "Ernest Anželj"
		picture = "Portrait_Ernest_Anzelj.dds"
		traits = { urban_assault_specialist }
		id = 56707
		skill = 1
		attack_skill = 1
		defense_skill = 1
		planning_skill = 1
		logistics_skill = 1
	}

	create_navy_leader = {
		name = "Renato Petrič"
		picture = "Portrait_Renato_Petric.dds"
		traits = { blockade_runner }
		id = 56708
	}

	create_navy_leader = {
		name = "Boris Gersak"
		picture = "Portrait_Boris_Gersak.dds"
		traits = { seawolf }
		id = 56709
	}
}

2017.1.1 = {
	capital = 124
	oob = "SLV_2017"

	set_technology = {

		body_armor_2000 = 1

		land_Drone_equipment = 1

		computing3 = 1
		decryption3 = 1
		encryption3 = 1
		computing4 = 1
		decryption4 = 1
		encryption4 = 1
		neural_networks_revival = 1
		data_mining = 1
		industrial_electrospun_polymeric_nanofibers = 1
		stereolitography = 1
		DNA_fingerprinting = 1
		modern_gmo = 1
		gene_therapy = 1

		wifi = 1
		internet3 = 1	#3G
		edge = 1
		umts = 1
		hsupa = 1
		internet4 = 1	#4G
		lte = 1
	}

	add_ideas = {
		#pop_050
		medium_corruption
		gdp_7
		pluralist
		EU_member
		stable_growth
		defence_01
		edu_04
		health_05
		social_05
		bureau_02
		police_03
		volunteer_army
		volunteer_women
		NATO_member
		western_country
		large_far_right_movement
		industrial_conglomerates
		landowners
		small_medium_business_owners
		#civil_law
		#tax_cost_37
		the_euro
		officer_international_education
	}

	#set_country_flag = gdp_7
	set_country_flag = positive_industrial_conglomerates
	set_country_flag = positive_landowners
	set_country_flag = positive_small_medium_business_owners

	#2000 EU Relations
	add_opinion_modifier = { target = BEL modifier = EU_member_opinion }
	reverse_add_opinion_modifier = { target = BEL modifier = EU_member_opinion }
	add_opinion_modifier = { target = FRA modifier = EU_member_opinion }
	reverse_add_opinion_modifier = { target = FRA modifier = EU_member_opinion }
	add_opinion_modifier = { target = GER modifier = EU_member_opinion }
	reverse_add_opinion_modifier = { target = GER modifier = EU_member_opinion }
	add_opinion_modifier = { target = ITA modifier = EU_member_opinion }
	reverse_add_opinion_modifier = { target = ITA modifier = EU_member_opinion }
	add_opinion_modifier = { target = LUX modifier = EU_member_opinion }
	reverse_add_opinion_modifier = { target = LUX modifier = EU_member_opinion }
	add_opinion_modifier = { target = HOL modifier = EU_member_opinion }
	reverse_add_opinion_modifier = { target = HOL modifier = EU_member_opinion }
	add_opinion_modifier = { target = DEN modifier = EU_member_opinion }
	reverse_add_opinion_modifier = { target = DEN modifier = EU_member_opinion }
	add_opinion_modifier = { target = IRE modifier = EU_member_opinion }
	reverse_add_opinion_modifier = { target = IRE modifier = EU_member_opinion }
	add_opinion_modifier = { target = ENG modifier = EU_member_opinion }
	reverse_add_opinion_modifier = { target = ENG modifier = EU_member_opinion }
	add_opinion_modifier = { target = GRE modifier = EU_member_opinion }
	reverse_add_opinion_modifier = { target = GRE modifier = EU_member_opinion }
	add_opinion_modifier = { target = POR modifier = EU_member_opinion }
	reverse_add_opinion_modifier = { target = POR modifier = EU_member_opinion }
	add_opinion_modifier = { target = SPR modifier = EU_member_opinion }
	reverse_add_opinion_modifier = { target = SPR modifier = EU_member_opinion }
	add_opinion_modifier = { target = AUS modifier = EU_member_opinion }
	reverse_add_opinion_modifier = { target = AUS modifier = EU_member_opinion }
	add_opinion_modifier = { target = SWE modifier = EU_member_opinion }
	reverse_add_opinion_modifier = { target = SWE modifier = EU_member_opinion }
	add_opinion_modifier = { target = FIN modifier = EU_member_opinion }
	reverse_add_opinion_modifier = { target = FIN modifier = EU_member_opinion }
	#2017 EU Relations
	add_opinion_modifier = { target = ROM modifier = EU_member_opinion }
	reverse_add_opinion_modifier = { target = ROM modifier = EU_member_opinion }

	#2000 NATO Relations
	add_opinion_modifier = { target = BEL modifier = NATO_member_modifier }
	reverse_add_opinion_modifier = { target = BEL modifier = NATO_member_modifier }
	add_opinion_modifier = { target = FRA modifier = NATO_member_modifier }
	reverse_add_opinion_modifier = { target = FRA modifier = NATO_member_modifier }
	add_opinion_modifier = { target = GER modifier = NATO_member_modifier }
	reverse_add_opinion_modifier = { target = GER modifier = NATO_member_modifier }
	add_opinion_modifier = { target = ITA modifier = NATO_member_modifier }
	reverse_add_opinion_modifier = { target = ITA modifier = NATO_member_modifier }
	add_opinion_modifier = { target = LUX modifier = NATO_member_modifier }
	reverse_add_opinion_modifier = { target = LUX modifier = NATO_member_modifier }
	add_opinion_modifier = { target = HOL modifier = NATO_member_modifier }
	reverse_add_opinion_modifier = { target = HOL modifier = NATO_member_modifier }
	add_opinion_modifier = { target = DEN modifier = NATO_member_modifier }
	reverse_add_opinion_modifier = { target = DEN modifier = NATO_member_modifier }
	add_opinion_modifier = { target = ENG modifier = NATO_member_modifier }
	reverse_add_opinion_modifier = { target = ENG modifier = NATO_member_modifier }
	add_opinion_modifier = { target = GRE modifier = NATO_member_modifier }
	reverse_add_opinion_modifier = { target = GRE modifier = NATO_member_modifier }
	add_opinion_modifier = { target = POR modifier = NATO_member_modifier }
	reverse_add_opinion_modifier = { target = POR modifier = NATO_member_modifier }
	add_opinion_modifier = { target = SPR modifier = NATO_member_modifier }
	reverse_add_opinion_modifier = { target = SPR modifier = NATO_member_modifier }
	add_opinion_modifier = { target = POL modifier = NATO_member_modifier }
	reverse_add_opinion_modifier = { target = POL modifier = NATO_member_modifier }
	add_opinion_modifier = { target = HUN modifier = NATO_member_modifier }
	reverse_add_opinion_modifier = { target = HUN modifier = NATO_member_modifier }
	add_opinion_modifier = { target = CZE modifier = NATO_member_modifier }
	reverse_add_opinion_modifier = { target = CZE modifier = NATO_member_modifier }
	add_opinion_modifier = { target = NOR modifier = NATO_member_modifier }
	reverse_add_opinion_modifier = { target = NOR modifier = NATO_member_modifier }
	add_opinion_modifier = { target = ICE modifier = NATO_member_modifier }
	reverse_add_opinion_modifier = { target = ICE modifier = NATO_member_modifier }
	add_opinion_modifier = { target = CAN modifier = NATO_member_modifier }
	reverse_add_opinion_modifier = { target = CAN modifier = NATO_member_modifier }
	add_opinion_modifier = { target = USA modifier = NATO_member_modifier }
	reverse_add_opinion_modifier = { target = USA modifier = NATO_member_modifier }
	add_opinion_modifier = { target = TUR modifier = NATO_member_modifier }
	reverse_add_opinion_modifier = { target = TUR modifier = NATO_member_modifier }
	#2017 NATO Relations
	add_opinion_modifier = { target = EST modifier = NATO_member_modifier }
	reverse_add_opinion_modifier = { target = EST modifier = NATO_member_modifier }
	add_opinion_modifier = { target = LAT modifier = NATO_member_modifier }
	reverse_add_opinion_modifier = { target = LAT modifier = NATO_member_modifier }
	add_opinion_modifier = { target = LIT modifier = NATO_member_modifier }
	reverse_add_opinion_modifier = { target = LIT modifier = NATO_member_modifier }
	add_opinion_modifier = { target = SLO modifier = NATO_member_modifier }
	reverse_add_opinion_modifier = { target = SLO modifier = NATO_member_modifier }
	add_opinion_modifier = { target = BUL modifier = NATO_member_modifier }
	reverse_add_opinion_modifier = { target = BUL modifier = NATO_member_modifier }
	add_opinion_modifier = { target = ROM modifier = NATO_member_modifier }
	reverse_add_opinion_modifier = { target = ROM modifier = NATO_member_modifier }
	add_opinion_modifier = { target = CRO modifier = NATO_member_modifier }
	reverse_add_opinion_modifier = { target = CRO modifier = NATO_member_modifier }
	add_opinion_modifier = { target = ALB modifier = NATO_member_modifier }
	reverse_add_opinion_modifier = { target = ALB modifier = NATO_member_modifier }

	add_opinion_modifier = { target = SOV modifier = minor_sanctions }
	set_country_flag = sanctions_against_SOV_flag

	#NATO military access
	diplomatic_relation = {
		country = ALB
		relation = military_access
		active = yes
	}
	diplomatic_relation = {
		country = BEL
		relation = military_access
		active = yes
	}
	diplomatic_relation = {
		country = BUL
		relation = military_access
		active = yes
	}
	diplomatic_relation = {
		country = CAN
		relation = military_access
		active = yes
	}
	diplomatic_relation = {
		country = CRO
		relation = military_access
		active = yes
	}
	diplomatic_relation = {
		country = CZE
		relation = military_access
		active = yes
	}
	diplomatic_relation = {
		country = DEN
		relation = military_access
		active = yes
	}
	diplomatic_relation = {
		country = EST
		relation = military_access
		active = yes
	}
	diplomatic_relation = {
		country = FRA
		relation = military_access
		active = yes
	}
	diplomatic_relation = {
		country = GER
		relation = military_access
		active = yes
	}
	diplomatic_relation = {
		country = GRE
		relation = military_access
		active = yes
	}
	diplomatic_relation = {
		country = HUN
		relation = military_access
		active = yes
	}
	diplomatic_relation = {
		country = ICE
		relation = military_access
		active = yes
	}
	diplomatic_relation = {
		country = ITA
		relation = military_access
		active = yes
	}
	diplomatic_relation = {
		country = LAT
		relation = military_access
		active = yes
	}
	diplomatic_relation = {
		country = LIT
		relation = military_access
		active = yes
	}
	diplomatic_relation = {
		country = LUX
		relation = military_access
		active = yes
	}
	diplomatic_relation = {
		country = HOL
		relation = military_access
		active = yes
	}
	diplomatic_relation = {
		country = NOR
		relation = military_access
		active = yes
	}
	diplomatic_relation = {
		country = POL
		relation = military_access
		active = yes
	}
	diplomatic_relation = {
		country = POR
		relation = military_access
		active = yes
	}
	diplomatic_relation = {
		country = ROM
		relation = military_access
		active = yes
	}
	diplomatic_relation = {
		country = SLO
		relation = military_access
		active = yes
	}
	diplomatic_relation = {
		country = SPR
		relation = military_access
		active = yes
	}
	diplomatic_relation = {
		country = TUR
		relation = military_access
		active = yes
	}
	diplomatic_relation = {
		country = ENG
		relation = military_access
		active = yes
	}
	diplomatic_relation = {
		country = USA
		relation = military_access
		active = yes
	}

	#Nat focus





	### Economy
	set_variable = { var = debt value = 37 }
	set_variable = { var = treasury value = 1 }
	set_variable = { var = int_investments value = 0 }
	set_variable = { var = tax_rate value = 37 }
	#initial_money_setup = yes

	set_popularities = {
		democratic = 61.2
		communism = 25.1
		fascism = 0.0
		neutrality = 6.5
		nationalist = 7.2
	}
	set_politics = {

		ruling_party = democratic
		last_election = "2014.9.18"
		election_frequency = 48
		elections_allowed = yes
	}

	start_politics_input = yes

	### Party Popularities
	set_variable = { party_pop_array^0 = 0 } #Western_Autocracy
	set_variable = { party_pop_array^1 = 0.207 } #conservatism
	set_variable = { party_pop_array^2 = 0.345 } #liberalism
	set_variable = { party_pop_array^3 = 0.06 } #socialism
	set_variable = { party_pop_array^4 = 0.05 } #Communist-State
	set_variable = { party_pop_array^5 = 0.201 } #anarchist_communism
	set_variable = { party_pop_array^6 = 0 } #Conservative
	set_variable = { party_pop_array^7 = 0 } #Autocracy
	set_variable = { party_pop_array^8 = 0 } #Mod_Vilayat_e_Faqih
	set_variable = { party_pop_array^9 = 0 } #Vilayat_e_Faqih
	set_variable = { party_pop_array^10 = 0 } #Kingdom
	set_variable = { party_pop_array^11 = 0 } #Caliphate
	set_variable = { party_pop_array^12 = 0 } #Neutral_Muslim_Brotherhood
	set_variable = { party_pop_array^13 = 0 } #Neutral_Autocracy
	set_variable = { party_pop_array^14 = 0 } #Neutral_conservatism
	set_variable = { party_pop_array^15 = 0 } #oligarchism
	set_variable = { party_pop_array^16 = 0 } #Neutral_Libertarian
	set_variable = { party_pop_array^17 = 0.065 } #Neutral_green
	set_variable = { party_pop_array^18 = 0 } #neutral_Social
	set_variable = { party_pop_array^19 = 0 } #Neutral_Communism
	set_variable = { party_pop_array^20 = 0.072 } #Nat_Populism
	set_variable = { party_pop_array^21 = 0 } #Nat_Fascism
	set_variable = { party_pop_array^22 = 0 } #Nat_Autocracy
	set_variable = { party_pop_array^23 = 0 } #Monarchist

	### Ruling Party
	add_to_array = { ruling_party = 2 }

	startup_politics = yes

	create_country_leader = {
		name = "Mrio Cerar"
		picture = "Miro_Cerar.dds"
		ideology = liberalism
		traits = {
			western_liberalism
		}
	}
}