#Unlisted on_actions by haveabeard
#http://forum.paradoxplaza.com/forum/index.php?threads/list-of-currently-hardcoded-features-mechanics-etc-in-hoi4.957265/page-25#post-22275603
#on_military_access
#on_offer_military_access
#on_improve_relation
#on_guarantee
#on_non_aggression_pact
#on_call_allies
#on_join_allies
#on_declare_war
#on_create_faction
#on_join_faction
#on_offer_join_faction
#on_peace_proposal
#on_add_wargoal
#on_lend_lease
#on_incoming_lend_lease
#on_send_volunteers
#on_send_expeditionary_force
#on_return_expeditionary_forces
#on_request_expeditionary_forces
#on_generate_wargoal
#on_boost_party_popularity
#on_stage_coup
#on_leave_faction
#on_dismantle_faction
#on_ask_for_state_control
#on_give_state_control
#on_reduce_autonomy
#on_increase_autonomy

on_actions = {

	on_startup = {
		effect = {
			FRA = {
				if = {
					limit = {
						has_game_rule = {
							rule = FRA_ai_behavior
							option = RANDOM
						}
					}
					random_list = {
						25 = {  }	#Default
						25 = { set_country_flag = FRA_HISTORICAL_FOCUS_PATH }
						25 = { set_country_flag = FRA_EGALITE_FOCUS_PATH }
						25 = { set_country_flag = FRA_FRATERNITE_FOCUS_PATH }
					}
				}
			}

			CHI = {
				if = {
					limit = {
						has_game_rule = {
							rule = PRC_ai_behavior
							option = RANDOM
						}
					}
					random_list = {
						25 = {  }	#Default
						25 = { set_country_flag = PRC_CHINESE_HEGEMONY_FOCUS_PATH }
						25 = { set_country_flag = PRC_RED_DAWN_FOCUS_PATH }
						25 = { set_country_flag = PRC_A_LONG_PEACE_FOCUS_PATH }
					}
				}
			}

			BRM = {
				if = {
					limit = {
						has_game_rule = {
							rule = BRM_ai_behavior
							option = RANDOM
						}
					}
					random_list = {
						33 = {  }	#Default
						34 = { set_country_flag = BRM_BEACON_OF_DEMOCRACY_FOCUS_PATH }
						33 = { set_country_flag = BRM_AN_IRON_FIST_FOCUS_PATH }
					}
				}
			}

			JAP = {
				if = {
					limit = {
						has_game_rule = {
							rule = JAP_ai_behavior
							option = RANDOM
						}
					}
					random_list = {
						34 = {  }	#Default
						33 = { set_country_flag = JAP_RED_STAR_OVER_TOKYO_FOCUS_PATH }
						33 = { set_country_flag = JAP_RETURN_OF_THE_EMPIRE_FOCUS_PATH }
					}
				}
			}

			SWE = {
				if = {
					limit = {
						has_game_rule = {
							rule = SWE_ai_behavior
							option = RANDOM
						}
					}
					random_list = {
						50 = {  }	#Default
						50 = { set_country_flag = SWE_NORTHERN_AMBITION_FOCUS_PATH }
					}
				}
			}

			SYR = {
				if = {
					limit = {
						has_game_rule = {
							rule = SYR_ai_behavior
							option = RANDOM
						}
					}
					random_list = {
						20 = {  }	#Default
						20 = { set_country_flag = SYR_HISTORICAL_FOCUS_PATH }
						20 = { set_country_flag = SYR_IRON_LADY_FOCUS_PATH }
						20 = { set_country_flag = SYR_SYRIAN_SAVAGE_FOCUS_PATH }
						10 = { set_country_flag = SYR_NEW_ASSAD_FOCUS_PATH }
						10 = { set_country_flag = SYR_DAMASCUS_SPRING_FOCUS_PATH }
					}
				}
			}

			BHR = {
				if = {
					limit = {
						has_game_rule = {
							rule = BHR_ai_behavior
							option = RANDOM
						}
					}
					random_list = {
						50 = {  }	#Default
						50 = { set_country_flag = BHR_DAY_OF_RAGE_FOCUS_PATH }
					}
				}
			}

			SAU = {
				if = {
					limit = {
						has_game_rule = {
							rule = SAU_ai_behavior
							option = RANDOM
						}
					}
					random_list = {
						20 = {  }	#Default
						10 = { set_country_flag = SAU_GLOBAL_JIHAD_FOCUS_PATH }
						10 = { set_country_flag = SAU_GLOBAL_JIHAD_GCC_FIRST_FOCUS_PATH }
						20 = { set_country_flag = SAU_ISLAMIC_AWAKENING_FOCUS_PATH }
						20 = { set_country_flag = SAU_RETURN_OF_THE_BAATH_FOCUS_PATH }
						20 = { set_country_flag = SAU_SHIA_REVIVAL_FOCUS_PATH }
					}
				}
			}

			ENG = {
				if = {
					limit = {
						has_game_rule = {
							rule = ENG_ai_behavior
							option = RANDOM
						}
					}
					random_list = {
						25 = {  }	#Default
						25 = { set_country_flag = RULE_OPTION_EUROPEAN_FUTURE }
						25 = { set_country_flag = RULE_OPTION_RED_REPUBLIC }
						25 = { set_country_flag = RULE_OPTION_RULE_BRITANNIA }
					}
				}
			}
		}
	}
}
