ideas = {
	bureaucracy = {
		law = yes
		use_list_view = yes

		bureau_01 = {
			cost = 200
			removal_cost = -1
			level = 1
			modifier = { }
			on_add = {
				custom_effect_tooltip = bureau_01_TT
				set_variable = { law_attitude = 3 }
				set_variable = { law_change = 1 }
				subtract_from_variable = { law_change = bureaucracy }
				law_attitude_change = yes
				set_variable = { bureaucracy = 1 }
				update_bureaucracy_rate = yes
				ingame_calculate_size_modifier = yes
				log = "[GetDateText]: [Root.GetName]: add idea bureau_01"
				if = {
					limit = {
						has_country_flag = wants_bureau_01
					}
					log = "[GetDateText]: [Root.GetName]: Bureaucracy law desire: bureau_01"
				}
				else_if = {
					limit = {
						has_country_flag = wants_bureau_02
					}
					log = "[GetDateText]: [Root.GetName]: Bureaucracy law desire: bureau_02"
				}
				else_if = {
					limit = {
						has_country_flag = wants_bureau_03
					}
					log = "[GetDateText]: [Root.GetName]: Bureaucracy law desire: bureau_03"
				}
				else_if = {
					limit = {
						has_country_flag = wants_bureau_04
					}
					log = "[GetDateText]: [Root.GetName]: Bureaucracy law desire: bureau_04"
				}
				else_if = {
					limit = {
						has_country_flag = wants_bureau_05
					}
					log = "[GetDateText]: [Root.GetName]: Bureaucracy law desire: bureau_05"
				}
				else = {
					log = "[GetDateText]: [Root.GetName]: Error: No bureaucracy law desire found"
				}
			}

			ai_will_do = {
				factor = 1
				modifier = { # High priority to downsize if major economic problems
					factor = 50
					has_idea = bureau_02
					ai_has_major_economic_problems = yes
				}
				modifier = { # Moderate priority to downsize if moderate economic problems
					factor = 25
					has_idea = bureau_02
					ai_has_moderate_economic_problems = yes
				}
				modifier = { # Low priority to downsize if minor economic problems
					factor = 0.25
					has_idea = bureau_02
					ai_has_minor_economic_problems = yes
				}
				modifier = { ##Totally disregard if have no issues with current spending values
					factor = 0
					has_idea = bureau_02
					ai_has_minor_economic_problems = no
					ai_has_major_economic_problems = no
					ai_has_moderate_economic_problems = no
					ai_has_acceptable_deficit = yes
				}
				modifier = { # Make law more appealing to reduce if is above desired level
					add = 25
					has_idea = bureau_02
					has_country_flag = wants_bureau_01
				}
				modifier = { # Make law more appealing to keep if is at desired level
					factor = 1.0
					OR = {
						has_idea = bureau_01
					}
					has_country_flag = wants_bureau_01
				}
				modifier = {
					factor = 0
					has_bureau_idea_law_desired = yes
				}
			}

			cancel_if_invalid = no
		}
		bureau_02 = {
			cost = 80
			removal_cost = -1
			level = 2
			on_add = {
				custom_effect_tooltip = bureau_02_TT
				set_variable = { law_attitude = 3 }
				set_variable = { law_change = 2 }
				subtract_from_variable = { law_change = bureaucracy }
				law_attitude_change = yes
				set_variable = { bureaucracy = 2 }
				update_bureaucracy_rate = yes
				ingame_calculate_size_modifier = yes
				log = "[GetDateText]: [Root.GetName]: add idea bureau_02"
				if = {
					limit = {
						has_country_flag = wants_bureau_01
					}
					log = "[GetDateText]: [Root.GetName]: Bureaucracy law desire: bureau_01"
				}
				else_if = {
					limit = {
						has_country_flag = wants_bureau_02
					}
					log = "[GetDateText]: [Root.GetName]: Bureaucracy law desire: bureau_02"
				}
				else_if = {
					limit = {
						has_country_flag = wants_bureau_03
					}
					log = "[GetDateText]: [Root.GetName]: Bureaucracy law desire: bureau_03"
				}
				else_if = {
					limit = {
						has_country_flag = wants_bureau_04
					}
					log = "[GetDateText]: [Root.GetName]: Bureaucracy law desire: bureau_04"
				}
				else_if = {
					limit = {
						has_country_flag = wants_bureau_05
					}
					log = "[GetDateText]: [Root.GetName]: Bureaucracy law desire: bureau_05"
				}
				else = {
					log = "[GetDateText]: [Root.GetName]: Error: No bureaucracy law desire found"
				}
			}

			modifier = {
				political_power_gain = 0.12
				production_speed_arms_factory_factor = 0.05
			}

			ai_will_do = {
				factor = 1
				modifier = { #High Priority to Downsize if they have major economic powers
					factor = 50
					has_idea = bureau_03
					ai_has_major_economic_problems = yes
				}
				modifier = {
					factor = 25
					has_idea = bureau_03
					ai_has_moderate_economic_problems = yes
				}
				modifier = { #Should avoid increasing wherever possible
					factor = 0.25
					has_idea = bureau_03
					ai_has_minor_economic_problems = yes
				}
				modifier = {
					factor = 5
					has_idea = bureau_03
					has_country_flag = wants_bureau_02
				}
				modifier = { # Low priority to increase, if has no issues with current spending values
					factor = 0
					has_idea = bureau_01
					ai_has_major_economic_problems = no
					ai_has_moderate_economic_problems = no
					ai_has_minor_economic_problems = no
					ai_has_acceptable_deficit = yes
				}
				modifier = {
					add = 25
					has_idea = bureau_03
					has_country_flag = wants_bureau_02
				}
				modifier = { # High priority to downsize if major economic problems
					add = 8
					AND = {
						has_idea = bureau_03
						ai_has_major_economic_problems = yes
					}
				}
				modifier = { # Moderate priority to downsize if moderate economic problems
					add = 4
					AND = {
						has_idea = bureau_03
						ai_has_moderate_economic_problems = yes
					}
				}
				modifier = { # Low priority to downsize if minor economic problems
					add = 2
					AND = {
						has_idea = bureau_03
						ai_has_minor_economic_problems = yes
					}
				}
				modifier = { # Make law more appealing to raise if is below desired level
					factor = 8
					has_idea = bureau_01
					OR = {
						has_country_flag = wants_bureau_02
						has_country_flag = wants_bureau_03
						has_country_flag = wants_bureau_04
						has_country_flag = wants_bureau_05
					}
				}
				modifier = { # Make law more appealing to reduce if is above desired level
					add = 8
					has_idea = bureau_03
					OR = {
						has_country_flag = wants_bureau_01
						has_country_flag = wants_bureau_02
					}
				}
				modifier = { # Make law more appealing to keep if is at desired level
					add = 4
					OR = {
						has_idea = bureau_02
					}
					has_country_flag = wants_bureau_02
				}
			}

			cancel_if_invalid = no
		}
		bureau_03 = {
			default = yes
			removal_cost = -1
			level = 3
			on_add = {
				custom_effect_tooltip = bureau_03_TT
				set_variable = { law_attitude = 3 }
				set_variable = { law_change = 3 }
				subtract_from_variable = { law_change = bureaucracy }
				law_attitude_change = yes
				set_variable = { bureaucracy = 3 }
				update_bureaucracy_rate = yes
				ingame_calculate_size_modifier = yes
				log = "[GetDateText]: [Root.GetName]: add idea bureau_03"
				if = { #Debugging
					limit = {
						has_country_flag = wants_bureau_01
					}
					log = "[GetDateText]: [Root.GetName]: Bureaucracy law desire: bureau_01"
				}
				else_if = {
					limit = {
						has_country_flag = wants_bureau_02
					}
					log = "[GetDateText]: [Root.GetName]: Bureaucracy law desire: bureau_02"
				}
				else_if = {
					limit = {
						has_country_flag = wants_bureau_03
					}
					log = "[GetDateText]: [Root.GetName]: Bureaucracy law desire: bureau_03"
				}
				else_if = {
					limit = {
						has_country_flag = wants_bureau_04
					}
					log = "[GetDateText]: [Root.GetName]: Bureaucracy law desire: bureau_04"
				}
				else_if = {
					limit = {
						has_country_flag = wants_bureau_05
					}
					log = "[GetDateText]: [Root.GetName]: Bureaucracy law desire: bureau_05"
				}
				else = {
					log = "[GetDateText]: [Root.GetName]: Error: No bureaucracy law desire found"
				}
			}
			modifier = {
				political_power_gain = 0.25
				stability_factor = 0.01
				production_speed_arms_factory_factor = 0.1
			}

			ai_will_do = {
				factor = 1
				modifier = { # Low priority to increase, if no economic issues
					add = 1
					has_idea = bureau_02
					ai_has_major_economic_problems = no
					ai_has_moderate_economic_problems = no
					ai_has_minor_economic_problems = no
					ai_has_acceptable_deficit = yes
				}
				modifier = { # High priority to downsize if major economic problems
					add = 16
					AND = {
						has_idea = bureau_04
						ai_has_major_economic_problems = yes
					}
				}
				modifier = { # Moderate priority to downsize if moderate economic problems
					add = 8
					AND = {
						has_idea = bureau_04
						ai_has_moderate_economic_problems = yes
					}
				}
				modifier = { # Low priority to downsize if minor economic problems
					add = 4
					AND = {
						has_idea = bureau_04
						ai_has_minor_economic_problems = yes
					}
				}
				modifier = { # Make law more appealing to raise if is below desired level
					factor = 8
					has_idea = bureau_02
					OR = {
						has_country_flag = wants_bureau_03
						has_country_flag = wants_bureau_04
						has_country_flag = wants_bureau_05
					}
				}
				modifier = { # Make law more appealing to reduce if is above desired level
					add = 8
					has_idea = bureau_04
					OR = {
						has_country_flag = wants_bureau_01
						has_country_flag = wants_bureau_02
						has_country_flag = wants_bureau_03
					}
				}
				modifier = { # Make law more appealing to keep if is at desired level
					add = 4
					OR = {
						has_idea = bureau_03
					}
					has_country_flag = wants_bureau_03
				}
				modifier = {
					factor = 0
					has_bureau_idea_law_desired = yes
				}
			}

			cancel_if_invalid = no
		}
		bureau_04 = {
			cost = 30
			removal_cost = -1
			level = 4
			on_add = {
				custom_effect_tooltip = bureau_04_TT
				set_variable = { law_attitude = 3 }
				set_variable = { law_change = 4 }
				subtract_from_variable = { law_change = bureaucracy }
				law_attitude_change = yes
				set_variable = { bureaucracy = 4 }
				update_bureaucracy_rate = yes
				ingame_calculate_size_modifier = yes
				if = {
					limit = {
						has_country_flag = wants_bureau_01
					}
					log = "[GetDateText]: [Root.GetName]: Bureaucracy law desire: bureau_01"
				}
				else_if = {
					limit = {
						has_country_flag = wants_bureau_02
					}
					log = "[GetDateText]: [Root.GetName]: Bureaucracy law desire: bureau_02"
				}
				else_if = {
					limit = {
						has_country_flag = wants_bureau_03
					}
					log = "[GetDateText]: [Root.GetName]: Bureaucracy law desire: bureau_03"
				}
				else_if = {
					limit = {
						has_country_flag = wants_bureau_04
					}
					log = "[GetDateText]: [Root.GetName]: Bureaucracy law desire: bureau_04"
				}
				else_if = {
					limit = {
						has_country_flag = wants_bureau_05
					}
					log = "[GetDateText]: [Root.GetName]: Bureaucracy law desire: bureau_05"
				}
				else = {
					log = "[GetDateText]: [Root.GetName]: Error: No bureaucracy law desire found"
				}
			}

			modifier = {
				political_power_gain = 0.36
				stability_factor = 0.01
				production_speed_arms_factory_factor = 0.15
			}

			ai_will_do = {
				factor = 1
				modifier = { # Low priority to increase, if no economic issues
					add = 1
					has_idea = bureau_03
					ai_has_major_economic_problems = no
					ai_has_moderate_economic_problems = no
					ai_has_minor_economic_problems = no
					ai_has_acceptable_deficit = yes
				}
				modifier = { # High priority to downsize if major economic problems
					add = 32
					AND = {
						has_idea = bureau_05
						ai_has_major_economic_problems = yes
					}
				}
				modifier = { # Moderate priority to downsize if moderate economic problems
					add = 16
					AND = {
						has_idea = bureau_05
						ai_has_moderate_economic_problems = yes
					}
				}
				modifier = { # Low priority to downsize if minor economic problems
					add = 8
					AND = {
						has_idea = bureau_05
						ai_has_minor_economic_problems = yes
					}
				}
				modifier = { # Make law more appealing to raise if is below desired level
					factor = 8
					has_idea = bureau_03
					OR = {
						has_country_flag = wants_bureau_04
						has_country_flag = wants_bureau_05
					}
				}
				modifier = { # Make law more appealing to reduce if is above desired level
					add = 8
					has_idea = bureau_05
					OR = {
						has_country_flag = wants_bureau_01
						has_country_flag = wants_bureau_02
						has_country_flag = wants_bureau_03
						has_country_flag = wants_bureau_04
					}
				}
				modifier = { # Make law more appealing to keep if is at desired level
					add = 4
					OR = {
						has_idea = bureau_04
					}
					has_country_flag = wants_bureau_04
				}
				modifier = {
					factor = 0
					has_bureau_idea_law_desired = yes
				}
			}

			cancel_if_invalid = no
		}
		bureau_05 = {
			cost = 10
			removal_cost = -1
			level = 5

			on_add = {
				custom_effect_tooltip = bureau_05_TT
				set_variable = { law_attitude = 3 }
				set_variable = { law_change = 5 }
				subtract_from_variable = { law_change = bureaucracy }
				law_attitude_change = yes
				set_variable = { bureaucracy = 5 }

				update_bureaucracy_rate = yes

				ingame_calculate_size_modifier = yes
				if = {
					limit = {
						has_country_flag = wants_bureau_01
					}
					log = "[GetDateText]: [Root.GetName]: Bureaucracy law desire: bureau_01"
				}
				else_if = {
					limit = {
						has_country_flag = wants_bureau_02
					}
					log = "[GetDateText]: [Root.GetName]: Bureaucracy law desire: bureau_02"
				}
				else_if = {
					limit = {
						has_country_flag = wants_bureau_03
					}
					log = "[GetDateText]: [Root.GetName]: Bureaucracy law desire: bureau_03"
				}
				else_if = {
					limit = {
						has_country_flag = wants_bureau_04
					}
					log = "[GetDateText]: [Root.GetName]: Bureaucracy law desire: bureau_04"
				}
				else_if = {
					limit = {
						has_country_flag = wants_bureau_05
					}
					log = "[GetDateText]: [Root.GetName]: Bureaucracy law desire: bureau_05"
				}
				else = {
					log = "[GetDateText]: [Root.GetName]: Error: No bureaucracy law desire found"
				}
			}

			modifier = {
				political_power_gain = 0.5
				stability_factor = 0.02
				production_speed_arms_factory_factor = 0.2
			}

			ai_will_do = {
				factor = 1
				modifier = { # Low priority to increase, if no economic issues
					add = 1
					has_idea = bureau_04
					ai_has_major_economic_problems = no
					ai_has_moderate_economic_problems = no
					ai_has_minor_economic_problems = no
					ai_has_acceptable_deficit = yes
				}
				modifier = { # Make law more appealing to raise if is below desired level
					factor = 8
					has_idea = bureau_04
					has_country_flag = wants_bureau_05
				}
				modifier = { # Make law more appealing to keep if is at desired level
					add = 4
					OR = {
						has_idea = bureau_05
					}
					has_country_flag = wants_bureau_05
				}
				modifier = {
					factor = 0
					has_bureau_idea_law_desired = yes
				}
			}

			cancel_if_invalid = no
		}
	}
	crime_fighting = {
		law = yes
		use_list_view = yes

		police_01 = {
			removal_cost = -1
			level = 1

			on_add = {
				custom_effect_tooltip = police_01_TT
				set_variable = { law_attitude = 5 }
				set_variable = { law_change = 1 }
				subtract_from_variable = { law_change = crime_fighting }
				law_attitude_change = yes
				set_variable = { crime_fighting = 1 }
				update_police_rate = yes
				ingame_calculate_size_modifier = yes
				log = "[GetDateText]: [Root.GetName]: add idea police_01"
				if = {
					limit = {
						has_country_flag = wants_police_01
					}
					log = "[GetDateText]: [Root.GetName]: Police/security law desire: police_01"
				}
				else_if = {
					limit = {
						has_country_flag = wants_police_02
					}
					log = "[GetDateText]: [Root.GetName]: Police/security law desire: police_02"
				}
				else_if = {
					limit = {
						has_country_flag = wants_police_03
					}
					log = "[GetDateText]: [Root.GetName]: Police/security law desire: police_03"
				}
				else_if = {
					limit = {
						has_country_flag = wants_police_04
					}
					log = "[GetDateText]: [Root.GetName]: Police/security law desire: police_04"
				}
				else_if = {
					limit = {
						has_country_flag = wants_police_05
					}
					log = "[GetDateText]: [Root.GetName]: Police/security law desire: police_05"
				}
				else = {
					log = "[GetDateText]: [Root.GetName]: Error: No Police/security law desire found"
				}
			}

			modifier = {
			}

			ai_will_do = {
				factor = 1
				modifier = {
					factor = 50
					has_idea = police_02
					ai_has_major_economic_problems = yes
				}
				modifier = {
					factor = 25
					has_idea = police_02
					ai_has_moderate_economic_problems = yes
				}
				modifier = {
					factor = 0.25
					has_idea = police_02
					ai_has_minor_economic_problems = yes
				}
				modifier = { ##Totally disregard if have no issues with current spending values
					factor = 0
					has_idea = bureau_02
					ai_has_minor_economic_problems = no
					ai_has_major_economic_problems = no
					ai_has_moderate_economic_problems = no
					ai_has_acceptable_deficit = yes
				}
				modifier = { # Make law more appealing to reduce if is above desired level
					factor = 15
					has_idea = police_02
					has_country_flag = wants_police_01
				}
				modifier = {
					factor = 20
					has_idea = police_01
					has_country_flag = wants_police_01
				}
				modifier = {
					factor = 0
					has_police_idea_law_desired = yes
				}
				modifier = { #Absoultely no reduction in policing in a police state.
					factor = 0
					has_totalitarian_government = yes
				}
			}

			cancel_if_invalid = no
		}
		police_02 = {
			default = yes
			removal_cost = -1
			level = 2

			on_add = {
				custom_effect_tooltip = police_02_TT
				set_variable = { law_attitude = 5 }
				set_variable = { law_change = 2 }
				subtract_from_variable = { law_change = crime_fighting }
				law_attitude_change = yes
				set_variable = { crime_fighting = 2 }
				update_police_rate = yes
				ingame_calculate_size_modifier = yes
				log = "[GetDateText]: [Root.GetName]: add idea police_02"
				if = {
					limit = {
						has_country_flag = wants_police_01
					}
					log = "[GetDateText]: [Root.GetName]: Police/security law desire: police_01"
				}
				else_if = {
					limit = {
						has_country_flag = wants_police_02
					}
					log = "[GetDateText]: [Root.GetName]: Police/security law desire: police_02"
				}
				else_if = {
					limit = {
						has_country_flag = wants_police_03
					}
					log = "[GetDateText]: [Root.GetName]: Police/security law desire: police_03"
				}
				else_if = {
					limit = {
						has_country_flag = wants_police_04
					}
					log = "[GetDateText]: [Root.GetName]: Police/security law desire: police_04"
				}
				else_if = {
					limit = {
						has_country_flag = wants_police_05
					}
					log = "[GetDateText]: [Root.GetName]: Police/security law desire: police_05"
				}
				else = {
					log = "[GetDateText]: [Root.GetName]: Error: No Police/security law desire found"
				}
			}
			modifier = {
				political_power_cost = 0.1
				stability_factor = 0.02
				foreign_subversive_activites = -0.15
				decryption = 1
				planning_speed = 0.10
			}
			ai_will_do = {
				factor = 1
				modifier = {
					factor = 50
					has_idea = police_03
					ai_has_major_economic_problems = yes
				}
				modifier = {
					factor = 25
					has_idea = police_03
					ai_has_moderate_economic_problems = yes
				}
				modifier = {
					factor = 0.25
					has_idea = police_03
					ai_has_minor_economic_problems = yes
				}
				modifier = { ##Totally disregard if have no issues with current spending values
					factor = 0
					has_idea = police_03
					ai_has_minor_economic_problems = no
					ai_has_major_economic_problems = no
					ai_has_moderate_economic_problems = no
					ai_has_acceptable_deficit = yes
				}
				modifier = { # Totalitarian governments less willing to reduce police/security spending
					factor = 0.10
					has_idea = police_03
					has_totalitarian_government = yes
				}
				modifier = { # Make law more appealing to raise if is below desired level
					factor = 15
					has_idea = police_01
					OR = {
						has_country_flag = wants_police_02
						has_country_flag = wants_police_03
						has_country_flag = wants_police_04
						has_country_flag = wants_police_05
					}
				}
				modifier = {
					factor = 15
					has_idea = police_03
					OR = {
						has_country_flag = wants_police_01
						has_country_flag = wants_police_02
					}
				}
				modifier = { # Make law more appealing to keep if is at desired level
					factor = 20
					has_idea = police_02
					has_country_flag = wants_police_02
				}
				modifier = {
					factor = 0
					has_police_idea_law_desired = yes
				}
				modifier = {
					factor = 0
					has_idea = police_01
					has_country_flag = AI_economic_downspiral
				}
			}

			cancel_if_invalid = no
		}
		police_03 = {
			removal_cost = -1
			level = 3

			on_add = {
				custom_effect_tooltip = police_03_TT
				set_variable = { law_attitude = 5 }
				set_variable = { law_change = 3 }
				subtract_from_variable = { law_change = crime_fighting }
				law_attitude_change = yes
				set_variable = { crime_fighting = 3 }
				update_police_rate = yes
				ingame_calculate_size_modifier = yes
				log = "[GetDateText]: [Root.GetName]: add idea police_03"
				if = {
					limit = {
						has_country_flag = wants_police_01
					}
					log = "[GetDateText]: [Root.GetName]: Police/security law desire: police_01"
				}
				else_if = {
					limit = {
						has_country_flag = wants_police_02
					}
					log = "[GetDateText]: [Root.GetName]: Police/security law desire: police_02"
				}
				else_if = {
					limit = {
						has_country_flag = wants_police_03
					}
					log = "[GetDateText]: [Root.GetName]: Police/security law desire: police_03"
				}
				else_if = {
					limit = {
						has_country_flag = wants_police_04
					}
					log = "[GetDateText]: [Root.GetName]: Police/security law desire: police_04"
				}
				else_if = {
					limit = {
						has_country_flag = wants_police_05
					}
					log = "[GetDateText]: [Root.GetName]: Police/security law desire: police_05"
				}
				else = {
					log = "[GetDateText]: [Root.GetName]: Error: No Police/security law desire found"
				}
			}

			modifier = {
				political_power_cost = 0.2
				stability_factor = 0.03
				drift_defence_factor = 0.30
				foreign_subversive_activites = -0.35
				decryption = 1
				encryption = 1
				planning_speed = 0.15
			}

			ai_will_do = {
				factor = 1
				modifier = {
					factor = 50
					has_idea = police_04
					ai_has_major_economic_problems = yes
				}
				modifier = {
					factor = 25
					has_idea = police_04
					ai_has_moderate_economic_problems = yes
				}
				modifier = {
					factor = 0.25
					has_idea = police_04
					ai_has_minor_economic_problems = yes
				}
				modifier = { ##Totally disregard if have no issues with current spending values
					factor = 0
					has_idea = police_03
					ai_has_minor_economic_problems = no
					ai_has_major_economic_problems = no
					ai_has_moderate_economic_problems = no
					ai_has_acceptable_deficit = yes
				}
				modifier = { #totalitarian governments less wiling to reduce police/security
					factor = 0.10
					has_idea = police_04
					has_totalitarian_government = yes
				}
				modifier = { #Make law more appealing to raise if is below desired level
					factor = 15
					has_idea = police_01
					OR = {
						has_country_flag = wants_police_02
						has_country_flag = wants_police_03
						has_country_flag = wants_police_04
						has_country_flag = wants_police_05
					}
				}
				modifier = {
					factor = 15
					has_idea = police_04
					OR = {
						has_country_flag = wants_police_01
						has_country_flag = wants_police_02
						has_country_flag = wants_police_03
					}
				}
				modifier = {
					factor = 20
					has_idea = police_03
					has_country_flag = wants_police_03
				}
				modifier = {
					factor = 0
					has_police_idea_law_desired = yes
				}
				modifier = {
					factor = 0
					has_idea = police_02
					has_country_flag = AI_economic_downspiral
				}
			}
			cancel_if_invalid = no
		}
		police_04 = {
			removal_cost = -1
			level = 4
			on_add = {
				custom_effect_tooltip = police_04_TT
				set_variable = { law_attitude = 5 }
				set_variable = { law_change = 4 }
				subtract_from_variable = { law_change = crime_fighting }
				law_attitude_change = yes
				set_variable = { crime_fighting = 4 }
				update_police_rate = yes
				ingame_calculate_size_modifier = yes
				log = "[GetDateText]: [Root.GetName]: add idea police_04"
				if = {
					limit = {
						has_country_flag = wants_police_01
					}
					log = "[GetDateText]: [Root.GetName]: Police/security law desire: police_01"
				}
				else_if = {
					limit = {
						has_country_flag = wants_police_02
					}
					log = "[GetDateText]: [Root.GetName]: Police/security law desire: police_02"
				}
				else_if = {
					limit = {
						has_country_flag = wants_police_03
					}
					log = "[GetDateText]: [Root.GetName]: Police/security law desire: police_03"
				}
				else_if = {
					limit = {
						has_country_flag = wants_police_04
					}
					log = "[GetDateText]: [Root.GetName]: Police/security law desire: police_04"
				}
				else_if = {
					limit = {
						has_country_flag = wants_police_05
					}
					log = "[GetDateText]: [Root.GetName]: Police/security law desire: police_05"
				}
				else = {
					log = "[GetDateText]: [Root.GetName]: Error: No Police/security law desire found"
				}
			}

			modifier = {
				political_power_cost = 0.3
				stability_factor = 0.05
				drift_defence_factor = 0.80
				foreign_subversive_activites = -0.50
				decryption = 2
				encryption = 1
				planning_speed = 0.20
			}

			ai_will_do = {
				factor = 1
				modifier = {
					factor = 50
					has_idea = police_05
					ai_has_major_economic_problems = yes
				}
				modifier = {
					factor = 25
					has_idea = police_05
					ai_has_moderate_economic_problems = yes
				}
				modifier = {
					factor = 0.25
					has_idea = police_05
					ai_has_minor_economic_problems = yes
				}
				modifier = { ##Totally disregard if have no issues with current spending values
					factor = 0
					has_idea = police_03
					ai_has_minor_economic_problems = no
					ai_has_major_economic_problems = no
					ai_has_moderate_economic_problems = no
					ai_has_acceptable_deficit = yes
				}
				modifier = {
					factor = 0.10
					has_idea = police_05
					has_totalitarian_government = yes
				}
				modifier = {
					factor = 15
					has_idea = police_01
					OR = {
						has_country_flag = wants_police_02
						has_country_flag = wants_police_03
						has_country_flag = wants_police_04
						has_country_flag = wants_police_05
					}
				}
				modifier = {
					factor = 15
					has_idea = police_04
					OR = {
						has_country_flag = wants_police_01
						has_country_flag = wants_police_02
						has_country_flag = wants_police_03
					}
				}
				modifier = {
					factor = 20
					has_idea = police_04
					has_country_flag = wants_police_04
				}
				modifier = {
					factor = 0
					has_police_idea_law_desired = yes
				}
				modifier = {
					factor = 0
					has_idea = police_03
					has_country_flag = AI_economic_downspiral
				}
			}

			cancel_if_invalid = no
		}
		police_05 = {
			removal_cost = -1
			level = 5
			on_add = {
				custom_effect_tooltip = police_05_TT
				set_variable = { law_attitude = 5 }
				set_variable = { law_change = 5 }
				subtract_from_variable = { law_change = crime_fighting }
				law_attitude_change = yes
				set_variable = { crime_fighting = 5 }
				update_police_rate = yes
				ingame_calculate_size_modifier = yes
				log = "[GetDateText]: [Root.GetName]: add idea police_05"
				if = {
					limit = {
						has_country_flag = wants_police_01
					}
					log = "[GetDateText]: [Root.GetName]: Police/security law desire: police_01"
				}
				else_if = {
					limit = {
						has_country_flag = wants_police_02
					}
					log = "[GetDateText]: [Root.GetName]: Police/security law desire: police_02"
				}
				else_if = {
					limit = {
						has_country_flag = wants_police_03
					}
					log = "[GetDateText]: [Root.GetName]: Police/security law desire: police_03"
				}
				else_if = {
					limit = {
						has_country_flag = wants_police_04
					}
					log = "[GetDateText]: [Root.GetName]: Police/security law desire: police_04"
				}
				else_if = {
					limit = {
						has_country_flag = wants_police_05
					}
					log = "[GetDateText]: [Root.GetName]: Police/security law desire: police_05"
				}
				else = {
					log = "[GetDateText]: [Root.GetName]: Error: No Police/security law desire found"
				}
			}
			modifier = {
				political_power_cost = 0.5
				stability_factor = 0.06
				drift_defence_factor = 1.50
				foreign_subversive_activites = -0.90
				decryption = 2
				encryption = 2
				planning_speed = 0.20
			}

			ai_will_do = {
				factor = 1
				modifier = {
					factor = 0.5
					has_totalitarian_government = yes
				}
				modifier = {
					factor = 25
					has_idea = police_04
					has_country_flag = wants_police_05
				}
				modifier = {
					factor = 15
					AND = {
						OR = {
							has_idea = police_01
							has_idea = police_02
							has_idea = police_03
							has_idea = police_04
						}
						OR = {
							has_country_flag = wants_police_04
							has_country_flag = wants_police_05
						}
					}
				}
				modifier = { ##Totally disregard if have no issues with current spending values
					factor = 0
					has_idea = police_03
					ai_has_minor_economic_problems = no
					ai_has_major_economic_problems = no
					ai_has_moderate_economic_problems = no
					ai_has_acceptable_deficit = yes
				}
				modifier = {
					factor = 0.10
					OR = {
						ai_has_major_economic_problems = yes
						ai_has_moderate_economic_problems = yes
					}
				}
				modifier = {
					factor = 20
					has_idea = police_05
					has_country_flag = wants_police_05
				}
				modifier = {
					factor = 0
					has_police_idea_law_desired = yes
				}
				modifier = {
					factor = 0
					has_idea = police_04
					has_country_flag = AI_economic_downspiral
				}
			}

			cancel_if_invalid = no
		}
	}
	education_budget = {
		law = yes
		use_list_view = yes

		edu_01 = {
			cost = 200
			removal_cost = -1
			level = 1

			on_add = {
				custom_effect_tooltip = edu_01_TT
				set_variable = { law_attitude = 6 }
				set_variable = { law_change = 1 }
				subtract_from_variable = { law_change = education_budget }
				law_attitude_change = yes
				set_variable = { education_budget = 1 }
				update_education_rate = yes
				ingame_calculate_size_modifier = yes
				log = "[GetDateText]: [Root.GetName]: add idea edu_01"
				if = {
					limit = {
						has_country_flag = wants_edu_01
					}
					log = "[GetDateText]: [Root.GetName]: Education law desire: edu_01"
				}
				else_if = {
					limit = {
						has_country_flag = wants_edu_02
					}
					log = "[GetDateText]: [Root.GetName]: Education law desire: edu_02"
				}
				else_if = {
					limit = {
						has_country_flag = wants_edu_03
					}
					log = "[GetDateText]: [Root.GetName]: Education law desire: edu_03"
				}
				else_if = {
					limit = {
						has_country_flag = wants_edu_04
					}
					log = "[GetDateText]: [Root.GetName]: Education law desire: edu_04"
				}
				else_if = {
					limit = {
						has_country_flag = wants_edu_05
					}
					log = "[GetDateText]: [Root.GetName]: Education law desire: edu_05"
				}
				else = {
					log = "[GetDateText]: [Root.GetName]: Error: No Education law desire found"
				}
			}

			ai_will_do = {
				factor = 1
				modifier = {
					factor = 50
					has_idea = edu_02
					ai_has_major_economic_problems = yes
				}
				modifier = {
					factor = 5
					has_idea = edu_02
					ai_has_moderate_economic_problems = yes
				}
				modifier = { ##Totally disregard if have no issues with current spending values
					factor = 0
					has_idea = edu_02
					ai_has_minor_economic_problems = no
					ai_has_major_economic_problems = no
					ai_has_moderate_economic_problems = no
					ai_has_acceptable_deficit = yes
				}
				modifier = { #Make law more appealling if you need to get to desired levle
					factor = 15
					has_idea = edu_02
					has_country_flag = wants_edu_01
				}
				modifier = {
					factor = 20
					has_idea = edu_01
					has_country_flag = wants_edu_01
				}
				modifier = { #Liberal governments less willing
					factor = 0.50
					has_liberal_governemnt_or_in_coalition = yes
				}
				modifier = { # Socialist governments less willing to reduce education spending
					factor = 0.25
					has_socialist_governemnt_or_in_coalition = yes
				}
				modifier = {
					factor = 1.10
					has_conservative_governemnt_or_in_coalition = yes
				}
				modifier = { #ABSOLUTELY NO CHANGE IF YOU HAVE REACHED DESIRED LAW
					factor = 0
					has_education_law_desired = yes
				}
			}

			modifier = {
				research_speed_factor = 0.02
			}

			cancel_if_invalid = no
		}
		edu_02 = {
			default = yes
			cost = 80
			removal_cost = -1
			level = 2

			on_add = {
				custom_effect_tooltip = edu_02_TT
				set_variable = { law_attitude = 6 }
				set_variable = { law_change = 2 }
				subtract_from_variable = { law_change = education_budget }
				law_attitude_change = yes
				set_variable = { education_budget = 2 }


				update_education_rate = yes
				ingame_calculate_size_modifier = yes
				log = "[GetDateText]: [Root.GetName]: add idea edu_02"
				if = {
					limit = {
						has_country_flag = wants_edu_01
					}
					log = "[GetDateText]: [Root.GetName]: Education law desire: edu_01"
				}
				else_if = {
					limit = {
						has_country_flag = wants_edu_02
					}
					log = "[GetDateText]: [Root.GetName]: Education law desire: edu_02"
				}
				else_if = {
					limit = {
						has_country_flag = wants_edu_03
					}
					log = "[GetDateText]: [Root.GetName]: Education law desire: edu_03"
				}
				else_if = {
					limit = {
						has_country_flag = wants_edu_04
					}
					log = "[GetDateText]: [Root.GetName]: Education law desire: edu_04"
				}
				else_if = {
					limit = {
						has_country_flag = wants_edu_05
					}
					log = "[GetDateText]: [Root.GetName]: Education law desire: edu_05"
				}
				else = {
					log = "[GetDateText]: [Root.GetName]: Error: No Education law desire found"
				}
			}

			ai_will_do = {
				factor = 1
				modifier = {
					factor = 50
					has_idea = edu_03
					ai_has_major_economic_problems = yes
				}
				modifier = {
					factor = 5
					has_idea = edu_03
					ai_has_moderate_economic_problems = yes
				}
				modifier = { ##Totally disregard if have no issues with current spending values
					factor = 0
					has_idea = edu_03
					ai_has_minor_economic_problems = no
					ai_has_major_economic_problems = no
					ai_has_moderate_economic_problems = no
					ai_has_acceptable_deficit = yes
				}
				modifier = {
					factor = 15
					has_idea = edu_03
					has_country_flag = wants_edu_02
				}
				modifier = {
					factor = 20
					has_idea = edu_02
					has_country_flag = wants_edu_02
				}
				modifier = { #Liberal governments less willing
					factor = 0.50
					has_liberal_governemnt_or_in_coalition = yes
				}
				modifier = { # Socialist governments less willing to reduce education spending
					factor = 0.25
					has_socialist_governemnt_or_in_coalition = yes
				}
				modifier = {
					factor = 1.10
					has_idea = edu_02
					has_conservative_governemnt_or_in_coalition = yes
				}
				modifier = { # Make law more appealing to raise if is below desired level
					factor = 10
					has_idea = edu_01
					OR = {
						has_country_flag = wants_edu_02
						has_country_flag = wants_edu_03
						has_country_flag = wants_edu_04
						has_country_flag = wants_edu_05
					}
				}
				modifier = { # Make law more appealing to reduce if is above desired level
					factor = 10
					has_idea = edu_03
					OR = {
						has_country_flag = wants_edu_01
						has_country_flag = wants_edu_02
					}
				}
				modifier = { #ABSOLUTELY NO CHANGE IF YOU HAVE REACHED DESIRED LAW
					factor = 0
					has_education_law_desired = yes
				}
			}

			modifier = {
				research_speed_factor = 0.05
				production_speed_buildings_factor = 0.02
				experience_gain_factor = 0.02
			}

			cancel_if_invalid = no
		}
		edu_03 = {
			removal_cost = -1
			level = 3

			on_add = {
				custom_effect_tooltip = edu_03_TT
				set_variable = { law_attitude = 6 }
				set_variable = { law_change = 3 }
				subtract_from_variable = { law_change = education_budget }
				law_attitude_change = yes
				set_variable = { education_budget = 3 }

				update_education_rate = yes
				ingame_calculate_size_modifier = yes
				log = "[GetDateText]: [Root.GetName]: add idea edu_03"
				if = {
					limit = {
						has_country_flag = wants_edu_01
					}
					log = "[GetDateText]: [Root.GetName]: Education law desire: edu_01"
				}
				else_if = {
					limit = {
						has_country_flag = wants_edu_02
					}
					log = "[GetDateText]: [Root.GetName]: Education law desire: edu_02"
				}
				else_if = {
					limit = {
						has_country_flag = wants_edu_03
					}
					log = "[GetDateText]: [Root.GetName]: Education law desire: edu_03"
				}
				else_if = {
					limit = {
						has_country_flag = wants_edu_04
					}
					log = "[GetDateText]: [Root.GetName]: Education law desire: edu_04"
				}
				else_if = {
					limit = {
						has_country_flag = wants_edu_05
					}
					log = "[GetDateText]: [Root.GetName]: Education law desire: edu_05"
				}
				else = {
					log = "[GetDateText]: [Root.GetName]: Error: No Education law desire found"
				}
			}

			ai_will_do = {
				factor = 1
				modifier = {
					factor = 50
					has_idea = edu_04
					ai_has_major_economic_problems = yes
				}
				modifier = {
					factor = 5
					has_idea = edu_04
					ai_has_moderate_economic_problems = yes
				}
				modifier = { ##Totally disregard if have no issues with current spending values
					factor = 0
					has_idea = edu_04
					ai_has_minor_economic_problems = no
					ai_has_major_economic_problems = no
					ai_has_moderate_economic_problems = no
					ai_has_acceptable_deficit = yes
				}
				modifier = {
					factor = 15
					has_idea = edu_04
					has_country_flag = wants_edu_03
				}
				modifier = {
					factor = 20
					has_idea = edu_03
					has_country_flag = wants_edu_03
				}
				modifier = { #Liberal governments less willing
					factor = 0.50
					has_liberal_governemnt_or_in_coalition = yes
				}
				modifier = { # Socialist governments less willing to reduce education spending
					factor = 0.25
					has_socialist_governemnt_or_in_coalition = yes
				}
				modifier = {
					factor = 1.10
					has_idea = edu_02
					has_conservative_governemnt_or_in_coalition = yes
				}
				modifier = { # Make law more appealing to raise if is below desired level
					factor = 10
					has_idea = edu_02
					OR = {
						has_country_flag = wants_edu_03
						has_country_flag = wants_edu_04
						has_country_flag = wants_edu_05
					}
				}
				modifier = { # Make law more appealing to reduce if is above desired level
					factor = 10
					has_idea = edu_04
					OR = {
						has_country_flag = wants_edu_01
						has_country_flag = wants_edu_02
						has_country_flag = wants_edu_03
					}
				}
				modifier = { #ABSOLUTELY NO CHANGE IF YOU HAVE REACHED DESIRED LAW
					factor = 0
					has_education_law_desired = yes
				}
			}

			modifier = {
				research_speed_factor = 0.10
				production_speed_buildings_factor = 0.03
				experience_gain_factor = 0.06
			}

			cancel_if_invalid = no
		}
		edu_04 = {
			cost = 30
			removal_cost = -1
			level = 4

			on_add = {
				custom_effect_tooltip = edu_04_TT
				set_variable = { law_attitude = 6 }
				set_variable = { law_change = 4 }
				subtract_from_variable = { law_change = education_budget }
				law_attitude_change = yes
				set_variable = { education_budget = 4 }

				update_education_rate = yes
				ingame_calculate_size_modifier = yes
				log = "[GetDateText]: [Root.GetName]: add idea edu_04"
				if = {
					limit = {
						has_country_flag = wants_edu_01
					}
					log = "[GetDateText]: [Root.GetName]: Education law desire: edu_01"
				}
				else_if = {
					limit = {
						has_country_flag = wants_edu_02
					}
					log = "[GetDateText]: [Root.GetName]: Education law desire: edu_02"
				}
				else_if = {
					limit = {
						has_country_flag = wants_edu_03
					}
					log = "[GetDateText]: [Root.GetName]: Education law desire: edu_03"
				}
				else_if = {
					limit = {
						has_country_flag = wants_edu_04
					}
					log = "[GetDateText]: [Root.GetName]: Education law desire: edu_04"
				}
				else_if = {
					limit = {
						has_country_flag = wants_edu_05
					}
					log = "[GetDateText]: [Root.GetName]: Education law desire: edu_05"
				}
				else = {
					log = "[GetDateText]: [Root.GetName]: Error: No Education law desire found"
				}
			}

			ai_will_do = {
				factor = 1
				modifier = { # High priority to downsize if major economic problems
					factor = 50
					has_idea = edu_05
					ai_has_major_economic_problems = yes
				}
				modifier = { # Moderate priority to downsize if moderate economic problems
					factor = 5
					has_idea = edu_05
					ai_has_moderate_economic_problems = yes
				}
				modifier = { ##Totally disregard if have no issues with current spending values
					factor = 0
					has_idea = edu_05
					ai_has_minor_economic_problems = no
					ai_has_major_economic_problems = no
					ai_has_moderate_economic_problems = no
					ai_has_acceptable_deficit = yes
				}
				modifier = {
					factor = 15
					has_idea = edu_05
					has_country_flag = wants_edu_04
				}
				modifier = {
					factor = 20
					has_idea = edu_04
					has_country_flag = wants_edu_04
				}
				modifier = { #Liberal governments less willing
					factor = 0.50
					has_liberal_governemnt_or_in_coalition = yes
				}
				modifier = { # Socialist governments less willing to reduce education spending
					factor = 0.25
					has_socialist_governemnt_or_in_coalition = yes
				}
				modifier = {
					factor = 1.10
					has_idea = edu_02
					has_conservative_governemnt_or_in_coalition = yes
				}
				modifier = { # Make law more appealing to raise if is below desired level
					factor = 10
					has_idea = edu_03
					OR = {
						has_country_flag = wants_edu_04
						has_country_flag = wants_edu_05
					}
				}
				modifier = { # Make law more appealing to reduce if is above desired level
					factor = 10
					has_idea = edu_05
					OR = {
						has_country_flag = wants_edu_01
						has_country_flag = wants_edu_02
						has_country_flag = wants_edu_03
						has_country_flag = wants_edu_04
					}
				}
				modifier = { #ABSOLUTELY NO CHANGE IF YOU HAVE REACHED DESIRED LAW
					factor = 0
					has_education_law_desired = yes
				}
			}

			modifier = {
				political_power_cost = 0.2
				research_speed_factor = 0.15
				production_speed_buildings_factor = 0.04
				army_org_factor = 0.03
				experience_gain_factor = 0.10
			}

			cancel_if_invalid = no
		}
		edu_05 = {
			cost = 10
			removal_cost = -1
			level = 5

			on_add = {
				custom_effect_tooltip = edu_05_TT
				set_variable = { law_attitude = 6 }
				set_variable = { law_change = 5 }
				subtract_from_variable = { law_change = education_budget }
				law_attitude_change = yes
				set_variable = { education_budget = 5 }

				update_education_rate = yes
				ingame_calculate_size_modifier = yes
				log = "[GetDateText]: [Root.GetName]: add idea edu_05"
				if = {
					limit = {
						has_country_flag = wants_edu_01
					}
					log = "[GetDateText]: [Root.GetName]: Education law desire: edu_01"
				}
				else_if = {
					limit = {
						has_country_flag = wants_edu_02
					}
					log = "[GetDateText]: [Root.GetName]: Education law desire: edu_02"
				}
				else_if = {
					limit = {
						has_country_flag = wants_edu_03
					}
					log = "[GetDateText]: [Root.GetName]: Education law desire: edu_03"
				}
				else_if = {
					limit = {
						has_country_flag = wants_edu_04
					}
					log = "[GetDateText]: [Root.GetName]: Education law desire: edu_04"
				}
				else_if = {
					limit = {
						has_country_flag = wants_edu_05
					}
					log = "[GetDateText]: [Root.GetName]: Education law desire: edu_05"
				}
				else = {
					log = "[GetDateText]: [Root.GetName]: Error: No Education law desire found"
				}
			}

			ai_will_do = {
				factor = 1
				modifier = { ##Totally disregard if have no issues with current spending values
					factor = 0
					has_idea = edu_04
					ai_has_minor_economic_problems = no
					ai_has_major_economic_problems = no
					ai_has_moderate_economic_problems = no
					ai_has_acceptable_deficit = yes
				}
				modifier = { # Make law more appealing to raise if is below desired level
					factor = 15
					has_idea = edu_04
					has_country_flag = wants_edu_05
				}
				modifier = { # Make law more appealing to keep if is at desired level
					factor = 20
					has_idea = edu_05
					has_country_flag = wants_edu_05
				}
				modifier = { #ABSOLUTELY NO CHANGE IF YOU HAVE REACHED DESIRED LAW
					factor = 0
					has_education_law_desired = yes
				}
			}

			modifier = {
				political_power_cost = 0.4
				research_speed_factor = 0.20
				production_speed_buildings_factor = 0.05
				army_org_factor = 0.05
				experience_gain_factor = 0.15
			}

			cancel_if_invalid = no
		}
	}
	health_budget = {
		law = yes
		use_list_view = yes

		health_01 = {
			cost = 200
			removal_cost = -1
			level = 1
			on_add = {
				custom_effect_tooltip = health_01_TT
				set_variable = { law_attitude = 7 }
				set_variable = { law_change = 1 }
				subtract_from_variable = { law_change = health_budget }
				law_attitude_change = yes
				set_variable = { health_budget = 1 }
				update_health_rate = yes
				ingame_calculate_size_modifier = yes
				log = "[GetDateText]: [Root.GetName]: add idea health_01 [health_budget idea_law]"
				if = {
					limit = {
						has_country_flag = wants_health_01
					}
					log = "[GetDateText]: [Root.GetName]: Health law desire: health_01"
				}
				else_if = {
					limit = {
						has_country_flag = wants_health_02
					}
					log = "[GetDateText]: [Root.GetName]: Health law desire: health_02"
				}
				else_if = {
					limit = {
						has_country_flag = wants_health_03
					}
					log = "[GetDateText]: [Root.GetName]: Health law desire: health_03"
				}
				else_if = {
					limit = {
						has_country_flag = wants_health_04
					}
					log = "[GetDateText]: [Root.GetName]: Health law desire: health_04"
				}
				else_if = {
					limit = {
						has_country_flag = wants_health_05
					}
					log = "[GetDateText]: [Root.GetName]: Health law desire: health_05"
				}
				else_if = {
					limit = {
						has_country_flag = wants_health_06
					}
					log = "[GetDateText]: [Root.GetName]: Health law desire: health_06"
				}
				else = {
					log = "[GetDateText]: [Root.GetName]: Error: No Health law desire found"
				}
			}

			ai_will_do = {
				factor = 1
				modifier = {
					factor = 50
					has_idea = health_02
					ai_has_major_economic_problems = yes
				}
				modifier = {
					factor = 5
					has_idea = health_02
					ai_has_moderate_economic_problems = yes
				}
				modifier = {
					factor = 0.25
					has_idea = health_02
					ai_has_minor_economic_problems = yes
				}
				modifier = {
					factor = 0
					has_idea = health_02
					ai_has_minor_economic_problems = no
					ai_has_major_economic_problems = no
					ai_has_moderate_economic_problems = no
					ai_has_acceptable_deficit = yes
				}
				modifier = {
					add = 25
					has_idea = health_02
					has_country_flag = wants_health_01
				}
				modifier = { # Socialist governments less willing to reduce health spending
					factor = 0.05
					has_idea = health_02
					has_socialist_governemnt_or_in_coalition = yes
				}
				modifier = {
					factor = 0.10
					has_idea = health_02
					has_liberal_governemnt_or_in_coalition = yes
				}
				modifier = {
					factor = 1.10
					has_idea = health_02
					has_conservative_governemnt_or_in_coalition = yes
				}
				modifier = {
					factor = 1.25
					has_idea = health_02
					has_totalitarian_government_or_in_coalition = yes
				}
				modifier = { # Make law more appealing to reduce if is above desired level
					add = 25
					has_idea = health_02
					has_country_flag = wants_health_01
				}
				modifier = { # Make law more appealing to keep if is at desired level
					factor = 20
					has_idea = health_01
					has_country_flag = wants_health_01
				}
				modifier = {
					factor = 0
					has_health_law_desired = yes
				}
			}

			modifier = {
			}

			cancel_if_invalid = no
		}
		health_02 = {
			cost = 80
			default = yes
			removal_cost = -1
			level = 2

			on_add = {
				custom_effect_tooltip = health_02_TT
				set_variable = { law_attitude = 7 }
				set_variable = { law_change = 2 }
				subtract_from_variable = { law_change = health_budget }
				law_attitude_change = yes
				set_variable = { health_budget = 2 }

				update_health_rate = yes
				ingame_calculate_size_modifier = yes
				log = "[GetDateText]: [Root.GetName]: add idea health_02 [health_budget idea_law]"
				if = {
					limit = {
						has_country_flag = wants_health_01
					}
					log = "[GetDateText]: [Root.GetName]: Health law desire: health_01"
				}
				else_if = {
					limit = {
						has_country_flag = wants_health_02
					}
					log = "[GetDateText]: [Root.GetName]: Health law desire: health_02"
				}
				else_if = {
					limit = {
						has_country_flag = wants_health_03
					}
					log = "[GetDateText]: [Root.GetName]: Health law desire: health_03"
				}
				else_if = {
					limit = {
						has_country_flag = wants_health_04
					}
					log = "[GetDateText]: [Root.GetName]: Health law desire: health_04"
				}
				else_if = {
					limit = {
						has_country_flag = wants_health_05
					}
					log = "[GetDateText]: [Root.GetName]: Health law desire: health_05"
				}
				else_if = {
					limit = {
						has_country_flag = wants_health_06
					}
					log = "[GetDateText]: [Root.GetName]: Health law desire: health_06"
				}
				else = {
					log = "[GetDateText]: [Root.GetName]: Error: No Health law desire found"
				}
			}

			ai_will_do = {
				factor = 1
				modifier = {
					factor = 50
					has_idea = health_03
					ai_has_major_economic_problems = yes
				}
				modifier = {
					factor = 5
					has_idea = health_03
					ai_has_moderate_economic_problems = yes
				}
				modifier = {
					factor = 0
					has_idea = health_03
					ai_has_minor_economic_problems = no
					ai_has_major_economic_problems = no
					ai_has_moderate_economic_problems = no
					ai_has_acceptable_deficit = yes
				}
				modifier = { # Socialist governments less willing to reduce health spending
					factor = 0.05
					has_idea = health_03
					has_socialist_governemnt_or_in_coalition = yes
				}
				modifier = {
					factor = 0.10
					has_idea = health_03
					has_liberal_governemnt_or_in_coalition = yes
				}
				modifier = {
					factor = 1.10
					has_idea = health_03
					has_conservative_governemnt_or_in_coalition = yes
				}
				modifier = {
					factor = 1.25
					has_idea = health_03
					has_totalitarian_government_or_in_coalition = yes
				}
				modifier = { # Make law more appealing to raise if is below desired level
					factor = 10
					has_idea = health_01
					OR = {
						has_country_flag = wants_health_02
						has_country_flag = wants_health_03
						has_country_flag = wants_health_04
						has_country_flag = wants_health_05
						has_country_flag = wants_health_06
					}
				}
				modifier = { # Make law more appealing to reduce if is above desired level
					factor = 10
					has_idea = health_03
					OR = {
						has_country_flag = wants_health_01
						has_country_flag = wants_health_02
					}
				}
				modifier = { # Make law more appealing to keep if is at desired level
					factor = 20
					has_idea = health_02
					has_country_flag = wants_health_02
				}
				modifier = {
					factor = 0
					has_health_law_desired = yes
				}
			}

			modifier = {
				political_power_gain = 0.05
				monthly_population = 0.1
				offensive_war_stability_factor = 0.05
				defensive_war_stability_factor = 0.05
				army_morale_factor = 0.025
			}

			cancel_if_invalid = no
		}
		health_03 = {

			removal_cost = -1
			level = 3

			on_add = {
				custom_effect_tooltip = health_03_TT
				set_variable = { law_attitude = 7 }
				set_variable = { law_change = 3 }
				subtract_from_variable = { law_change = health_budget }
				law_attitude_change = yes
				set_variable = { health_budget = 3 }
				update_health_rate = yes
				ingame_calculate_size_modifier = yes
				log = "[GetDateText]: [Root.GetName]: add idea health_03 [health_budget idea_law]"
				if = {
					limit = {
						has_country_flag = wants_health_01
					}
					log = "[GetDateText]: [Root.GetName]: Health law desire: health_01"
				}
				else_if = {
					limit = {
						has_country_flag = wants_health_02
					}
					log = "[GetDateText]: [Root.GetName]: Health law desire: health_02"
				}
				else_if = {
					limit = {
						has_country_flag = wants_health_03
					}
					log = "[GetDateText]: [Root.GetName]: Health law desire: health_03"
				}
				else_if = {
					limit = {
						has_country_flag = wants_health_04
					}
					log = "[GetDateText]: [Root.GetName]: Health law desire: health_04"
				}
				else_if = {
					limit = {
						has_country_flag = wants_health_05
					}
					log = "[GetDateText]: [Root.GetName]: Health law desire: health_05"
				}
				else_if = {
					limit = {
						has_country_flag = wants_health_06
					}
					log = "[GetDateText]: [Root.GetName]: Health law desire: health_06"
				}
				else = {
					log = "[GetDateText]: [Root.GetName]: Error: No Health law desire found"
				}
			}

			ai_will_do = {
				factor = 1
				modifier = {
					factor = 50
					has_idea = health_04
					ai_has_major_economic_problems = yes
				}
				modifier = {
					factor = 5
					has_idea = health_04
					ai_has_moderate_economic_problems = yes
				}
				modifier = {
					factor = 0
					has_idea = health_04
					ai_has_minor_economic_problems = no
					ai_has_major_economic_problems = no
					ai_has_moderate_economic_problems = no
					ai_has_acceptable_deficit = yes
				}
				modifier = { # Socialist governments less willing to reduce health spending
					factor = 0.05
					has_idea = health_04
					has_socialist_governemnt_or_in_coalition = yes
				}
				modifier = {
					factor = 0.10
					has_idea = health_04
					has_liberal_governemnt_or_in_coalition = yes
				}
				modifier = {
					factor = 1.10
					has_idea = health_04
					has_conservative_governemnt_or_in_coalition = yes
				}
				modifier = {
					factor = 1.25
					has_idea = health_04
					has_totalitarian_government_or_in_coalition = yes
				}
				modifier = { # Make law more appealing to raise if is below desired level
					factor = 10
					has_idea = health_03
					OR = {
						has_country_flag = wants_health_03
						has_country_flag = wants_health_04
						has_country_flag = wants_health_05
						has_country_flag = wants_health_06
					}
				}
				modifier = { # Make law more appealing to reduce if is above desired level
					factor = 10
					has_idea = health_04
					OR = {
						has_country_flag = wants_health_01
						has_country_flag = wants_health_02
						has_country_flag = wants_health_03
					}
				}
				modifier = { # Make law more appealing to keep if is at desired level
					factor = 20
					has_idea = health_03
					has_country_flag = wants_health_03
				}
				modifier = {
					factor = 0
					has_health_law_desired = yes
				}
			}

			modifier = {
				political_power_gain = 0.1
				monthly_population = 0.25
				offensive_war_stability_factor = 0.10
				defensive_war_stability_factor = 0.10
				army_morale_factor = 0.05
				consumer_goods_factor = -0.01
			}

			cancel_if_invalid = no
		}
		health_04 = {
			cost = 40
			removal_cost = -1
			level = 4

			on_add = {
				custom_effect_tooltip = health_04_TT
				set_variable = { law_attitude = 7 }
				set_variable = { law_change = 4 }
				subtract_from_variable = { law_change = health_budget }
				law_attitude_change = yes
				set_variable = { health_budget = 4 }

				update_health_rate = yes
				ingame_calculate_size_modifier = yes
				log = "[GetDateText]: [Root.GetName]: add idea health_04 [health_budget idea_law]"
				if = {
					limit = {
						has_country_flag = wants_health_01
					}
					log = "[GetDateText]: [Root.GetName]: Health law desire: health_01"
				}
				else_if = {
					limit = {
						has_country_flag = wants_health_02
					}
					log = "[GetDateText]: [Root.GetName]: Health law desire: health_02"
				}
				else_if = {
					limit = {
						has_country_flag = wants_health_03
					}
					log = "[GetDateText]: [Root.GetName]: Health law desire: health_03"
				}
				else_if = {
					limit = {
						has_country_flag = wants_health_04
					}
					log = "[GetDateText]: [Root.GetName]: Health law desire: health_04"
				}
				else_if = {
					limit = {
						has_country_flag = wants_health_05
					}
					log = "[GetDateText]: [Root.GetName]: Health law desire: health_05"
				}
				else_if = {
					limit = {
						has_country_flag = wants_health_06
					}
					log = "[GetDateText]: [Root.GetName]: Health law desire: health_06"
				}
				else = {
					log = "[GetDateText]: [Root.GetName]: Error: No Health law desire found"
				}
			}

			ai_will_do = {
				factor = 1
				modifier = {
					factor = 50
					has_idea = health_05
					ai_has_major_economic_problems = yes
				}
				modifier = {
					factor = 5
					has_idea = health_05
					ai_has_moderate_economic_problems = yes
				}
				modifier = {
					factor = 0
					has_idea = health_05
					ai_has_minor_economic_problems = no
					ai_has_major_economic_problems = no
					ai_has_moderate_economic_problems = no
					ai_has_acceptable_deficit = yes
				}
				modifier = { # Socialist governments less willing to reduce health spending
					factor = 0.05
					has_idea = health_05
					has_socialist_governemnt_or_in_coalition = yes
				}
				modifier = {
					factor = 0.10
					has_idea = health_05
					has_liberal_governemnt_or_in_coalition = yes
				}
				modifier = {
					factor = 1.10
					has_idea = health_05
					has_conservative_governemnt_or_in_coalition = yes
				}
				modifier = {
					factor = 1.25
					has_idea = health_05
					has_totalitarian_government_or_in_coalition = yes
				}
				modifier = { # Make law more appealing to raise if is below desired level
					factor = 10
					has_idea = health_03
					OR = {
						has_country_flag = wants_health_04
						has_country_flag = wants_health_05
						has_country_flag = wants_health_06
					}
				}
				modifier = { # Make law more appealing to reduce if is above desired level
					factor = 10
					has_idea = health_05
					OR = {
						has_country_flag = wants_health_01
						has_country_flag = wants_health_02
						has_country_flag = wants_health_03
						has_country_flag = wants_health_04
					}
				}
				modifier = { # Make law more appealing to keep if is at desired level
					factor = 20
					has_idea = health_04
					has_country_flag = wants_health_04
				}
				modifier = {
					factor = 0
					has_health_law_desired = yes
				}
			}

			modifier = {
				political_power_gain = 0.15
				monthly_population = 0.40
				offensive_war_stability_factor = 0.15
				defensive_war_stability_factor = 0.15
				army_morale_factor = 0.075
				consumer_goods_factor = -0.02
			}

			cancel_if_invalid = no
		}
		health_05 = {
			cost = 30
			removal_cost = -1
			level = 5

			on_add = {
				custom_effect_tooltip = health_05_TT
				set_variable = { law_attitude = 7 }
				set_variable = { law_change = 5 }
				subtract_from_variable = { law_change = health_budget }
				law_attitude_change = yes
				set_variable = { health_budget = 5 }
				update_health_rate = yes
				ingame_calculate_size_modifier = yes
				log = "[GetDateText]: [Root.GetName]: add idea health_05 [health_budget idea_law]"
				if = {
					limit = {
						has_country_flag = wants_health_01
					}
					log = "[GetDateText]: [Root.GetName]: Health law desire: health_01"
				}
				else_if = {
					limit = {
						has_country_flag = wants_health_02
					}
					log = "[GetDateText]: [Root.GetName]: Health law desire: health_02"
				}
				else_if = {
					limit = {
						has_country_flag = wants_health_03
					}
					log = "[GetDateText]: [Root.GetName]: Health law desire: health_03"
				}
				else_if = {
					limit = {
						has_country_flag = wants_health_04
					}
					log = "[GetDateText]: [Root.GetName]: Health law desire: health_04"
				}
				else_if = {
					limit = {
						has_country_flag = wants_health_05
					}
					log = "[GetDateText]: [Root.GetName]: Health law desire: health_05"
				}
				else_if = {
					limit = {
						has_country_flag = wants_health_06
					}
					log = "[GetDateText]: [Root.GetName]: Health law desire: health_06"
				}
				else = {
					log = "[GetDateText]: [Root.GetName]: Error: No Health law desire found"
				}
			}

			ai_will_do = {
				factor = 1
				modifier = {
					factor = 50
					has_idea = health_06
					ai_has_major_economic_problems = yes
				}
				modifier = {
					factor = 5
					has_idea = health_06
					ai_has_moderate_economic_problems = yes
				}
				modifier = {
					factor = 0
					has_idea = health_06
					ai_has_minor_economic_problems = no
					ai_has_major_economic_problems = no
					ai_has_moderate_economic_problems = no
					ai_has_acceptable_deficit = yes
				}
				modifier = { # Socialist governments less willing to reduce health spending
					factor = 0.05
					has_idea = health_06
					has_socialist_governemnt_or_in_coalition = yes
				}
				modifier = {
					factor = 0.10
					has_idea = health_06
					has_liberal_governemnt_or_in_coalition = yes
				}
				modifier = {
					factor = 1.10
					has_idea = health_06
					has_conservative_governemnt_or_in_coalition = yes
				}
				modifier = {
					factor = 1.25
					has_idea = health_06
					has_totalitarian_government_or_in_coalition = yes
				}
				modifier = { # Make law more appealing to raise if is below desired level
					factor = 10
					has_idea = health_04
					OR = {
						has_country_flag = wants_health_05
						has_country_flag = wants_health_06
					}
				}
				modifier = { # Make law more appealing to reduce if is above desired level
					factor = 10
					has_idea = health_06
					OR = {
						has_country_flag = wants_health_01
						has_country_flag = wants_health_02
						has_country_flag = wants_health_03
						has_country_flag = wants_health_04
						has_country_flag = wants_health_05
					}
				}
				modifier = { # Make law more appealing to keep if is at desired level
					factor = 20
					has_idea = health_05
					has_country_flag = wants_health_05
				}
				modifier = {
					factor = 0
					has_health_law_desired = yes
				}
			}

			modifier = {
				political_power_gain = 0.2
				monthly_population = 0.55
				offensive_war_stability_factor = 0.20
				defensive_war_stability_factor = 0.20
				army_morale_factor = 0.100
				consumer_goods_factor = -0.03
			}

			cancel_if_invalid = no
		}
		health_06 = {
			cost = 10
			removal_cost = -1
			level = 6

			on_add = {
				custom_effect_tooltip = health_06_TT
				set_variable = { law_attitude = 7 }
				set_variable = { law_change = 6 }
				subtract_from_variable = { law_change = health_budget }
				law_attitude_change = yes
				set_variable = { health_budget = 6 }
				update_health_rate = yes
				ingame_calculate_size_modifier = yes
				log = "[GetDateText]: [Root.GetName]: add idea health_06 [health_budget idea_law]"
				if = {
					limit = {
						has_country_flag = wants_health_01
					}
					log = "[GetDateText]: [Root.GetName]: Health law desire: health_01"
				}
				else_if = {
					limit = {
						has_country_flag = wants_health_02
					}
					log = "[GetDateText]: [Root.GetName]: Health law desire: health_02"
				}
				else_if = {
					limit = {
						has_country_flag = wants_health_03
					}
					log = "[GetDateText]: [Root.GetName]: Health law desire: health_03"
				}
				else_if = {
					limit = {
						has_country_flag = wants_health_04
					}
					log = "[GetDateText]: [Root.GetName]: Health law desire: health_04"
				}
				else_if = {
					limit = {
						has_country_flag = wants_health_05
					}
					log = "[GetDateText]: [Root.GetName]: Health law desire: health_05"
				}
				else_if = {
					limit = {
						has_country_flag = wants_health_06
					}
					log = "[GetDateText]: [Root.GetName]: Health law desire: health_06"
				}
				else = {
					log = "[GetDateText]: [Root.GetName]: Error: No Health law desire found"
				}
			}

			ai_will_do = {
				factor = 1
				modifier = {
					factor = 0
					has_idea = health_05
					ai_has_minor_economic_problems = no
					ai_has_major_economic_problems = no
					ai_has_moderate_economic_problems = no
					ai_has_acceptable_deficit = yes
				}
				modifier = { # Socialist governments less willing to reduce health spending
					factor = 1.30
					has_idea = health_05
					has_socialist_governemnt_or_in_coalition = yes
				}
				modifier = {
					factor = 1.10
					has_idea = health_05
					has_liberal_governemnt_or_in_coalition = yes
				}
				modifier = {
					factor = 20
					has_idea = health_05
					has_country_flag = wants_health_05
				}
				modifier = { # Make law more appealing to keep if is at desired level
					factor = 20
					has_idea = health_06
					has_country_flag = wants_health_06
				}
				modifier = {
					factor = 0
					has_health_law_desired = yes
				}
			}

			modifier = {
				political_power_gain = 0.25
				monthly_population = 0.75
				offensive_war_stability_factor = 0.25
				defensive_war_stability_factor = 0.25
				army_morale_factor = 0.125
				consumer_goods_factor = -0.04
			}

			cancel_if_invalid = no
		}
	}
	social_budget = {
		law = yes
		use_list_view = yes

		social_01 = {
			cost = 200
			removal_cost = -1
			level = 1

			on_add = {
				custom_effect_tooltip = social_01_TT

				set_variable = { law_attitude = 8 }
				set_variable = { law_change = 1 }
				subtract_from_variable = { law_change = social_budget }
				law_attitude_change = yes
				set_variable = { social_budget = 1 }

				update_social_rate = yes
				ingame_calculate_size_modifier = yes
				log = "[GetDateText]: [Root.GetName]: add idea social_01 [social_budget idea_law]"
				if = {
					limit = {
						has_country_flag = wants_social_01
					}
					log = "[GetDateText]: [Root.GetName]: Social Budget law desire: social_01"
				}
				else_if = {
					limit = {
						has_country_flag = wants_social_02
					}
					log = "[GetDateText]: [Root.GetName]: Social Budget law desire: social_02"
				}
				else_if = {
					limit = {
						has_country_flag = wants_social_03
					}
					log = "[GetDateText]: [Root.GetName]: Social Budget law desire: social_03"
				}
				else_if = {
					limit = {
						has_country_flag = wants_social_04
					}
					log = "[GetDateText]: [Root.GetName]: Social Budget law desire: social_04"
				}
				else_if = {
					limit = {
						has_country_flag = wants_social_05
					}
					log = "[GetDateText]: [Root.GetName]: Social Budget law desire: social_05"
				}
				else_if = {
					limit = {
						has_country_flag = wants_social_06
					}
					log = "[GetDateText]: [Root.GetName]: Social Budget law desire: social_06"
				}
				else = {
					log = "[GetDateText]: [Root.GetName]: Error: No Social Budget law desire found"
				}
			}

			modifier = {
				stability_factor = 0.01
			}

			cancel_if_invalid = no

			ai_will_do = {
				factor = 1
				modifier = {
					factor = 50
					has_idea = social_02
					ai_has_major_economic_problems = yes
				}
				modifier = {
					factor = 5
					has_idea = social_02
					ai_has_moderate_economic_problems = yes
				}
				modifier = {
					factor = 0
					has_idea = social_02
					ai_has_minor_economic_problems = no
					ai_has_major_economic_problems = no
					ai_has_moderate_economic_problems = no
					ai_has_acceptable_deficit = yes
				}
				modifier = { # Socialist governments less willing to reduce health spending
					factor = 0.05
					has_idea = social_02
					has_socialist_governemnt_or_in_coalition = yes
				}
				modifier = {
					factor = 0.10
					has_idea = social_02
					has_liberal_governemnt_or_in_coalition = yes
				}
				modifier = {
					factor = 1.10
					has_idea = social_02
					has_conservative_governemnt_or_in_coalition = yes
				}
				modifier = {
					factor = 1.25
					has_idea = social_02
					has_totalitarian_government_or_in_coalition = yes
				}
				modifier = { # Make law more appealing to reduce if is above desired level
					factor = 10
					has_idea = social_02
					has_country_flag = wants_social_01
				}
				modifier = {
					factor = 10
					has_idea = social_01
					has_country_flag = wants_social_01
				}
				modifier = {
					factor = 0
					has_social_law_desired = yes
				}
			}

		}
		social_02 = {
			default = yes
			cost = 80
			removal_cost = -1
			level = 2

			on_add = {
				custom_effect_tooltip = social_02_TT

				set_variable = { law_attitude = 8 }
				set_variable = { law_change = 2 }
				subtract_from_variable = { law_change = social_budget }
				law_attitude_change = yes
				set_variable = { social_budget = 2 }

				update_social_rate = yes
				ingame_calculate_size_modifier = yes
				log = "[GetDateText]: [Root.GetName]: add idea social_02 [social_budget idea_law]"
				if = {
					limit = {
						has_country_flag = wants_social_01
					}
					log = "[GetDateText]: [Root.GetName]: Social Budget law desire: social_01"
				}
				else_if = {
					limit = {
						has_country_flag = wants_social_02
					}
					log = "[GetDateText]: [Root.GetName]: Social Budget law desire: social_02"
				}
				else_if = {
					limit = {
						has_country_flag = wants_social_03
					}
					log = "[GetDateText]: [Root.GetName]: Social Budget law desire: social_03"
				}
				else_if = {
					limit = {
						has_country_flag = wants_social_04
					}
					log = "[GetDateText]: [Root.GetName]: Social Budget law desire: social_04"
				}
				else_if = {
					limit = {
						has_country_flag = wants_social_05
					}
					log = "[GetDateText]: [Root.GetName]: Social Budget law desire: social_05"
				}
				else_if = {
					limit = {
						has_country_flag = wants_social_06
					}
					log = "[GetDateText]: [Root.GetName]: Social Budget law desire: social_06"
				}
				else = {
					log = "[GetDateText]: [Root.GetName]: Error: No Social Budget law desire found"
				}
			}

			modifier = {
				political_power_gain = 0.06
				political_power_factor = 0.10
				stability_factor = 0.02
			}

			cancel_if_invalid = no

			ai_will_do = {
				factor = 1
				modifier = {
					factor = 50
					has_idea = social_03
					ai_has_major_economic_problems = yes
				}
				modifier = {
					factor = 5
					has_idea = social_03
					ai_has_moderate_economic_problems = yes
				}
				modifier = {
					factor = 0
					has_idea = social_03
					ai_has_minor_economic_problems = no
					ai_has_major_economic_problems = no
					ai_has_moderate_economic_problems = no
					ai_has_acceptable_deficit = yes
				}
				modifier = { # Socialist governments less willing to reduce health spending
					factor = 0.05
					has_idea = social_03
					has_socialist_governemnt_or_in_coalition = yes
				}
				modifier = {
					factor = 0.10
					has_idea = social_03
					has_liberal_governemnt_or_in_coalition = yes
				}
				modifier = {
					factor = 1.10
					has_idea = social_03
					has_conservative_governemnt_or_in_coalition = yes
				}
				modifier = {
					factor = 1.25
					has_idea = social_03
					has_totalitarian_government_or_in_coalition = yes
				}
				modifier = { # Make law more appealing to raise if is below desired level
					factor = 10
					has_idea = social_01
					OR = {
						has_country_flag = wants_social_02
						has_country_flag = wants_social_03
						has_country_flag = wants_social_04
						has_country_flag = wants_social_05
						has_country_flag = wants_social_06
					}
				}
				modifier = { # Make law more appealing to reduce if is above desired level
					factor = 10
					has_idea = social_03
					OR = {
						has_country_flag = wants_social_01
						has_country_flag = wants_social_02
					}
				}
				modifier = {
					factor = 20
					has_idea = social_02
					has_country_flag = wants_social_02
				}
				modifier = {
					factor = 0
					has_social_law_desired = yes
				}
			}

		}
		social_03 = {
			removal_cost = -1
			level = 3

			on_add = {
				custom_effect_tooltip = social_03_TT

				set_variable = { law_attitude = 8 }
				set_variable = { law_change = 3 }
				subtract_from_variable = { law_change = social_budget }
				law_attitude_change = yes
				set_variable = { social_budget = 3 }

				update_social_rate = yes
				ingame_calculate_size_modifier = yes
				log = "[GetDateText]: [Root.GetName]: add idea social_03 [social_budget idea_law]"
				if = {
					limit = {
						has_country_flag = wants_social_01
					}
					log = "[GetDateText]: [Root.GetName]: Social Budget law desire: social_01"
				}
				else_if = {
					limit = {
						has_country_flag = wants_social_02
					}
					log = "[GetDateText]: [Root.GetName]: Social Budget law desire: social_02"
				}
				else_if = {
					limit = {
						has_country_flag = wants_social_03
					}
					log = "[GetDateText]: [Root.GetName]: Social Budget law desire: social_03"
				}
				else_if = {
					limit = {
						has_country_flag = wants_social_04
					}
					log = "[GetDateText]: [Root.GetName]: Social Budget law desire: social_04"
				}
				else_if = {
					limit = {
						has_country_flag = wants_social_05
					}
					log = "[GetDateText]: [Root.GetName]: Social Budget law desire: social_05"
				}
				else_if = {
					limit = {
						has_country_flag = wants_social_06
					}
					log = "[GetDateText]: [Root.GetName]: Social Budget law desire: social_06"
				}
				else = {
					log = "[GetDateText]: [Root.GetName]: Error: No Social Budget law desire found"
				}
			}

			modifier = {
				political_power_gain = 0.14
				political_power_factor = 0.14
				stability_factor = 0.03
			}

			cancel_if_invalid = no

			ai_will_do = {
				factor = 1
				modifier = {
					factor = 50
					has_idea = social_04
					ai_has_major_economic_problems = yes
				}
				modifier = {
					factor = 5
					has_idea = social_04
					ai_has_moderate_economic_problems = yes
				}
				modifier = {
					factor = 0
					has_idea = social_04
					ai_has_minor_economic_problems = no
					ai_has_major_economic_problems = no
					ai_has_moderate_economic_problems = no
					ai_has_acceptable_deficit = yes
				}
				modifier = { # Socialist governments less willing to reduce health spending
					factor = 0.05
					has_idea = social_04
					has_socialist_governemnt_or_in_coalition = yes
				}
				modifier = {
					factor = 0.10
					has_idea = social_04
					has_liberal_governemnt_or_in_coalition = yes
				}
				modifier = {
					factor = 1.10
					has_idea = social_04
					has_conservative_governemnt_or_in_coalition = yes
				}
				modifier = {
					factor = 1.25
					has_idea = social_04
					has_totalitarian_government_or_in_coalition = yes
				}
				modifier = { # Make law more appealing to raise if is below desired level
					factor = 10
					has_idea = social_02
					OR = {
						has_country_flag = wants_social_02
						has_country_flag = wants_social_03
						has_country_flag = wants_social_04
						has_country_flag = wants_social_05
						has_country_flag = wants_social_06
					}
				}
				modifier = { # Make law more appealing to reduce if is above desired level
					factor = 10
					has_idea = social_04
					OR = {
						has_country_flag = wants_social_01
						has_country_flag = wants_social_02
						has_country_flag = wants_social_03
					}
				}
				modifier = {
					factor = 20
					has_idea = social_03
					has_country_flag = wants_social_03
				}
				modifier = {
					factor = 0
					has_social_law_desired = yes
				}
			}
		}
		social_04 = {
			cost = 40
			removal_cost = -1
			level = 4

			on_add = {
				custom_effect_tooltip = social_04_TT

				set_variable = { law_attitude = 8 }
				set_variable = { law_change = 4 }
				subtract_from_variable = { law_change = social_budget }
				law_attitude_change = yes
				set_variable = { social_budget = 4 }

				update_social_rate = yes
				ingame_calculate_size_modifier = yes
				log = "[GetDateText]: [Root.GetName]: add idea social_04 [social_budget idea_law]"
				if = {
					limit = {
						has_country_flag = wants_social_01
					}
					log = "[GetDateText]: [Root.GetName]: Social Budget law desire: social_01"
				}
				else_if = {
					limit = {
						has_country_flag = wants_social_02
					}
					log = "[GetDateText]: [Root.GetName]: Social Budget law desire: social_02"
				}
				else_if = {
					limit = {
						has_country_flag = wants_social_03
					}
					log = "[GetDateText]: [Root.GetName]: Social Budget law desire: social_03"
				}
				else_if = {
					limit = {
						has_country_flag = wants_social_04
					}
					log = "[GetDateText]: [Root.GetName]: Social Budget law desire: social_04"
				}
				else_if = {
					limit = {
						has_country_flag = wants_social_05
					}
					log = "[GetDateText]: [Root.GetName]: Social Budget law desire: social_05"
				}
				else_if = {
					limit = {
						has_country_flag = wants_social_06
					}
					log = "[GetDateText]: [Root.GetName]: Social Budget law desire: social_06"
				}
				else = {
					log = "[GetDateText]: [Root.GetName]: Error: No Social Budget law desire found"
				}
			}

			modifier = {
				political_power_gain = 0.20
				political_power_factor = 0.20
				stability_factor = 0.04
			}

			cancel_if_invalid = no

			ai_will_do = {
				factor = 1
				modifier = {
					factor = 50
					has_idea = social_05
					ai_has_major_economic_problems = yes
				}
				modifier = {
					factor = 5
					has_idea = social_05
					ai_has_moderate_economic_problems = yes
				}
				modifier = {
					factor = 0
					has_idea = social_05
					ai_has_minor_economic_problems = no
					ai_has_major_economic_problems = no
					ai_has_moderate_economic_problems = no
					ai_has_acceptable_deficit = yes
				}
				modifier = { # Socialist governments less willing to reduce health spending
					factor = 0.05
					has_idea = social_05
					has_socialist_governemnt_or_in_coalition = yes
				}
				modifier = {
					factor = 0.10
					has_idea = social_05
					has_liberal_governemnt_or_in_coalition = yes
				}
				modifier = {
					factor = 1.10
					has_idea = social_05
					has_conservative_governemnt_or_in_coalition = yes
				}
				modifier = {
					factor = 1.25
					has_idea = social_05
					has_totalitarian_government_or_in_coalition = yes
				}
				modifier = { # Make law more appealing to raise if is below desired level
					factor = 10
					has_idea = social_03
					OR = {
						has_country_flag = wants_social_02
						has_country_flag = wants_social_03
						has_country_flag = wants_social_04
						has_country_flag = wants_social_05
						has_country_flag = wants_social_06
					}
				}
				modifier = { # Make law more appealing to reduce if is above desired level
					factor = 10
					has_idea = social_05
					OR = {
						has_country_flag = wants_social_01
						has_country_flag = wants_social_02
						has_country_flag = wants_social_03
						has_country_flag = wants_social_04
					}
				}
				modifier = {
					factor = 20
					has_idea = social_04
					has_country_flag = wants_social_04
				}
				modifier = {
					factor = 0
					has_social_law_desired = yes
				}
			}
		}
		social_05 = {
			cost = 30
			removal_cost = -1
			level = 5

			on_add = {
				custom_effect_tooltip = social_05_TT

				set_variable = { law_attitude = 8 }
				set_variable = { law_change = 5 }
				subtract_from_variable = { law_change = social_budget }
				law_attitude_change = yes
				set_variable = { social_budget = 5 }

				update_social_rate = yes
				ingame_calculate_size_modifier = yes
				log = "[GetDateText]: [Root.GetName]: add idea social_05 [social_budget idea_law]"
				if = {
					limit = {
						has_country_flag = wants_social_01
					}
					log = "[GetDateText]: [Root.GetName]: Social Budget law desire: social_01"
				}
				else_if = {
					limit = {
						has_country_flag = wants_social_02
					}
					log = "[GetDateText]: [Root.GetName]: Social Budget law desire: social_02"
				}
				else_if = {
					limit = {
						has_country_flag = wants_social_03
					}
					log = "[GetDateText]: [Root.GetName]: Social Budget law desire: social_03"
				}
				else_if = {
					limit = {
						has_country_flag = wants_social_04
					}
					log = "[GetDateText]: [Root.GetName]: Social Budget law desire: social_04"
				}
				else_if = {
					limit = {
						has_country_flag = wants_social_05
					}
					log = "[GetDateText]: [Root.GetName]: Social Budget law desire: social_05"
				}
				else_if = {
					limit = {
						has_country_flag = wants_social_06
					}
					log = "[GetDateText]: [Root.GetName]: Social Budget law desire: social_06"
				}
				else = {
					log = "[GetDateText]: [Root.GetName]: Error: No Social Budget law desire found"
				}
			}

			modifier = {
				political_power_gain = 0.24
				political_power_factor = 0.24
				monthly_population = 0.40
				stability_factor = 0.05
			}

			cancel_if_invalid = no

			ai_will_do = {
				factor = 1
				modifier = {
					factor = 50
					has_idea = social_06
					ai_has_major_economic_problems = yes
				}
				modifier = {
					factor = 5
					has_idea = social_06
					ai_has_moderate_economic_problems = yes
				}
				modifier = {
					factor = 0
					has_idea = social_06
					ai_has_minor_economic_problems = no
					ai_has_major_economic_problems = no
					ai_has_moderate_economic_problems = no
					ai_has_acceptable_deficit = yes
				}
				modifier = { # Socialist governments less willing to reduce health spending
					factor = 0.05
					has_idea = social_06
					has_socialist_governemnt_or_in_coalition = yes
				}
				modifier = {
					factor = 0.10
					has_idea = social_06
					has_liberal_governemnt_or_in_coalition = yes
				}
				modifier = {
					factor = 1.10
					has_idea = social_06
					has_conservative_governemnt_or_in_coalition = yes
				}
				modifier = {
					factor = 1.25
					has_idea = social_06
					has_totalitarian_government_or_in_coalition = yes
				}
				modifier = { # Make law more appealing to raise if is below desired level
					factor = 10
					has_idea = social_04
					OR = {
						has_country_flag = wants_social_02
						has_country_flag = wants_social_03
						has_country_flag = wants_social_04
						has_country_flag = wants_social_05
						has_country_flag = wants_social_06
					}
				}
				modifier = { # Make law more appealing to reduce if is above desired level
					factor = 10
					has_idea = social_06
					OR = {
						has_country_flag = wants_social_01
						has_country_flag = wants_social_02
						has_country_flag = wants_social_03
						has_country_flag = wants_social_04
						has_country_flag = wants_social_05
					}
				}
				modifier = {
					factor = 20
					has_idea = social_05
					has_country_flag = wants_social_05
				}
				modifier = {
					factor = 0
					has_social_law_desired = yes
				}
			}
		}
		social_06 = {
			cost = 10
			removal_cost = -1
			level = 6

			on_add = {
				custom_effect_tooltip = social_06_TT

				set_variable = { law_attitude = 8 }
				set_variable = { law_change = 6 }
				subtract_from_variable = { law_change = social_budget }
				law_attitude_change = yes
				set_variable = { social_budget = 6 }

				update_social_rate = yes
				ingame_calculate_size_modifier = yes
				log = "[GetDateText]: [Root.GetName]: add idea social_06 [social_budget idea_law]"
				if = {
					limit = {
						has_country_flag = wants_social_01
					}
					log = "[GetDateText]: [Root.GetName]: Social Budget law desire: social_01"
				}
				else_if = {
					limit = {
						has_country_flag = wants_social_02
					}
					log = "[GetDateText]: [Root.GetName]: Social Budget law desire: social_02"
				}
				else_if = {
					limit = {
						has_country_flag = wants_social_03
					}
					log = "[GetDateText]: [Root.GetName]: Social Budget law desire: social_03"
				}
				else_if = {
					limit = {
						has_country_flag = wants_social_04
					}
					log = "[GetDateText]: [Root.GetName]: Social Budget law desire: social_04"
				}
				else_if = {
					limit = {
						has_country_flag = wants_social_05
					}
					log = "[GetDateText]: [Root.GetName]: Social Budget law desire: social_05"
				}
				else_if = {
					limit = {
						has_country_flag = wants_social_06
					}
					log = "[GetDateText]: [Root.GetName]: Social Budget law desire: social_06"
				}
				else = {
					log = "[GetDateText]: [Root.GetName]: Error: No Social Budget law desire found"
				}
			}

			modifier = {
				political_power_gain = 0.3
				political_power_factor = 0.3
				monthly_population = 0.80
				stability_factor = 0.06
			}

			cancel_if_invalid = no

			ai_will_do = {
				factor = 1
				modifier = {
					factor = 0
					has_idea = social_05
					ai_has_minor_economic_problems = no
					ai_has_major_economic_problems = no
					ai_has_moderate_economic_problems = no
					ai_has_acceptable_deficit = yes
				}
				modifier = { # Socialist governments less willing to reduce health spending
					factor = 1.30
					has_idea = social_05
					has_socialist_governemnt_or_in_coalition = yes
				}
				modifier = {
					factor = 1.10
					has_idea = social_05
					has_liberal_governemnt_or_in_coalition = yes
				}
				modifier = { # Make law more appealing to raise if is below desired level
					factor = 20
					has_idea = social_05
					has_country_flag = wants_social_06
				}
				modifier = {
					factor = 20
					has_idea = social_06
					has_country_flag = wants_social_06
				}
				modifier = {
					factor = 0
					has_social_law_desired = yes
				}
			}
		}
	}
}