ideas = {

	country = {
		
		EUU_voting_rights_suspended = {
			on_add = { log = "[GetDateText]: [Root.GetName]: add idea EUU_voting_rights_suspended" }
			picture = political_repression ### needs to be updated
			allowed = {
				has_idea = EU_member
			}
			modifier = {
				political_power_factor = -0.1
				stability_factor = -0.1
			}
		}
		EUU_subsidies_suspended = {
			on_add = { log = "[GetDateText]: [Root.GetName]: add idea EUU_subsidies_suspended" }
			picture = great_depression ### needs to be updated
			allowed = {
				has_idea = EU_member
			}
			modifier = {
				political_power_factor = -0.05
				stability_factor = -0.05
			}
		}
	}
}