ideas = {

	country = {
		german_legacy = {
			on_add = { log = "[GetDateText]: [Root.GetName]: add idea german_legacy" }
			allowed = {
				original_tag = GER
			}
			allowed_civil_war = {
				always = yes
			}
			
			
			modifier = {
				Military_Spending_cost_factor = 5.0
				#conscription = -0.0075
			}
		}
	}
		
}