ideas = {
	
	country = {
	######Jonneh NI#########
		POL_idea_expanded_railway = {
			allowed = { always = no }
			picture = construction
			modifier = {
			 production_speed_buildings_factor = 0.10
			}
			
		}
		
		POL_idea_strict_abortion = {
			allowed = { always = no }
			picture = construction
			modifier = {
			 monthly_population = 0.45 
			 political_power_gain = -0.20
			}
			
		}
		
		POL_idea_nato_training = {
			allowed = { always = no }
			picture = construction
			modifier = {
			army_core_attack_factor = 0.05
			army_core_defence_factor = 0.05
			}
			
		}
		
		POL_idea_european_companies = {
			allowed = { always = no }
			picture = POL_eurocompany
			modifier = {
			production_speed_buildings_factor = 0.10
			 political_power_gain = -0.05
			}
			
		}
		POL_idea_defensive_army = {
			allowed = { always = no }
			picture = national_defenders
			modifier = {
		   army_core_attack_factor = 0.05
		   army_core_defence_factor = 0.05
		   
			}
			
		}
		
		POL_idea_loose_abortion = {
			allowed = { always = no }
			picture = construction
			modifier = {
			 monthly_population = -0.20
			 political_power_gain = 0.20
			}
			
		}
		
		POL_idea_nationalist_rise = {
			allowed = { always = no }
			picture = nationalism
			modifier = {
			 nationalist_drift = 0.25
			}
			
		}
		
		POL_idea_poland_first = {
			allowed = { always = no }
			picture = pol_first
			modifier = {
			 justify_war_goal_time = -0.25			 
			 political_power_gain = 0.20
			 production_speed_arms_factory_factor = 0.05
			}
			
		}
		
		POL_idea_gddkia = {
			allowed = { always = no }
			picture = gddkia
			modifier = {
			 production_speed_infrastructure_factor = 0.10
			}
			
		}	  		
		POL_idea_revanchism = {
		allowed = { always = no }
			picture = army_of_aggression
			modifier = {
			army_morale_factor = 0.08
			army_attack_factor = 0.15
			army_defence_factor = 0.15
			non_core_manpower = 0.45
			}		
		}
		POL_idea_reformed_state = {
			allowed = { always = no }
			picture = national_unity
			modifier = {
			political_power_gain = 0.30
			}
			
		}
		
		POL_idea_need_of_reform = {
			allowed = { always = no }
			picture = morale_bonus
			modifier = {
			political_power_gain = -1.50
			}
			
		}
		
		POL_idea_bank_need_reform = {
			allowed = { always = no }
			picture = consumer_goods
			modifier = {
			consumer_goods_factor = 0.05
			}
			
		}
		POL_idea_reformed_bank = {
			allowed = { always = no }
			picture = inflation
			modifier = {
			consumer_goods_factor = -0.03
			}
			
		}
		
		POL_idea_need_industrial_reform = {
			allowed = { always = no }
			picture = local_self_management
			modifier = { production_speed_buildings_factor = -0.30 }
			
		}
		
		POL_idea_reformed_industry = {
			allowed = { always = no }
			picture = production_bonus
			modifier = { production_speed_buildings_factor = 0.20 }
			
		}
		
		
		
		######Jonneh NI#########
		polish_agrarian_council_idea = {
			on_add = { log = "[GetDateText]: [Root.GetName]: add idea polish_agrarian_council_idea" }
			
			
			allowed = {
				always = no
			}

			

			picture = polish_krir
			
			modifier = {
				political_power_factor = 0.1
				production_factory_efficiency_gain_factor = 0.1
				stability_factor = 0.05
			}
		}

		polish_national_army_idea = {
			on_add = { log = "[GetDateText]: [Root.GetName]: add idea polish_national_army_idea" }
			
			
			allowed = {
				always = no
			}

			

			picture = polish_army
			
			modifier = {
				experience_gain_army = 0.05
				army_morale_factor = 0.05
			}
		}

		polish_civil_army_idea = {
			on_add = { log = "[GetDateText]: [Root.GetName]: add idea polish_civil_army_idea" }
			
			
			allowed = {
				always = no
			}

			

			picture = polish_army
			
			modifier = {
				conscription = 0.025
				experience_gain_army = -0.05
				army_morale_factor = 0.05
			}
		}

		polish_death_penalty_idea = {
			on_add = { log = "[GetDateText]: [Root.GetName]: add idea polish_death_penalty_idea" }
			
			
			allowed = {
				always = no
			}

			

			picture = skullys
			
			modifier = {
				army_org_factor = 0.05
				stability_factor = -0.05
				MONTHLY_POPULATION = -0.005
				neutrality_drift = 0.01
			}
		}

		polish_strengthened_christianity_idea = {
			on_add = { log = "[GetDateText]: [Root.GetName]: add idea polish_strengthened_christianity_idea" }
			
			
			allowed = {
				always = no
			}

			

			picture = christian_idea
			
			modifier = {

				stability_factor = 0.05
				political_power_factor = 0.15
				fascism_acceptance = -20
				fascism_drift = -0.1
			}
		}

		polish_gddkia_idea = {
			on_add = { log = "[GetDateText]: [Root.GetName]: add idea polish_gddkia_idea" }
			
			
			allowed = {
				always = no
			}

			

			picture = pol_gddkia
			
			modifier = {
				production_speed_infrastructure_factor = 0.15
			}
		}

		polish_cacb_idea = {
			on_add = { log = "[GetDateText]: [Root.GetName]: add idea polish_cacb_idea" }
			
			
			allowed = {
				always = no
			}

			

			picture = pol_cacb
			
			modifier = {
				corruption_cost_factor = -0.15
			}
		}

		polish_help_with_corruption_idea = {
			on_add = { log = "[GetDateText]: [Root.GetName]: add idea polish_help_with_corruption_idea" }
			
			
			allowed = {
				always = no
			}

			

			picture = pol_cacb
			
			modifier = {
				corruption_cost_factor = -0.1
			}
		}

	}


}


 









