ideas = {
	country = {
		swiss_political_system = {
			on_add = { log = "[GetDateText]: [Root.GetName]: add idea swiss_political_system" }
			picture = swiss_political_system
			allowed = {
				original_tag = SWI
			}
			cancel = {
				OR = {
					is_puppet = yes
					AND = {
						NOT = { has_government = democratic }
						NOT = { has_government = neutrality }
					}
				}
			}
			modifier = {
				stability_factor = 0.05
				war_support_factor = 0.1
				political_power_factor = -0.25
			}
		}
		SWI_european_tanks = {
			on_add = { log = "[GetDateText]: [Root.GetName]: add idea SWI_european_tanks" }
			picture = european_tank_license

			allowed = {
				original_tag = SWI
			}

			modifier = {
				license_armor_purchase_cost = -0.75
				license_production_speed = 0.25
			}
		}
		SWI_swiss_neutrality = {
			on_add = { log = "[GetDateText]: [Root.GetName]: add idea SWI_swiss_neutrality" }
			picture = swiss_neutrality

			allowed = {
				original_tag = SWI
			}

			modifier = {
				ai_get_ally_desire_factor = -1000
				army_core_defence_factor = 0.25
				Foreign_Intervention_Law_cost_factor = 1
			}
		}
		SWI_defensive_preparations = {
			on_add = { log = "[GetDateText]: [Root.GetName]: add idea SWI_defensive_preparations" }
			picture = swiss_defensive_preparations

			allowed = {
				original_tag = SWI
			}

			modifier = {
				army_core_defence_factor = 0.25
				production_speed_bunker_factor = 0.25
			}
		}
		SWI_defensive_preparations2 = {
			on_add = { log = "[GetDateText]: [Root.GetName]: add idea SWI_defensive_preparations2" }
			picture = swiss_defensive_preparations

			allowed = {
				original_tag = SWI
			}

			modifier = {
				army_core_defence_factor = 0.50
				production_speed_bunker_factor = 0.25
			}
		}
	}

}