ideas = {

	country = {

		divided_syria = {
			on_add = { log = "[GetDateText]: [Root.GetName]: add idea divided_syria" }
			
			allowed = {
				original_tag = SYR
			}
	
			modifier = {
				conscription_factor = -0.4
				MONTHLY_POPULATION = -0.5
			}
		}
		divided_syria_1 = {
			on_add = { log = "[GetDateText]: [Root.GetName]: add idea divided_syria_1" }
			
			picture = GFX_idea_divided_syria
			
			allowed = {
				original_tag = SYR
			}
	
			modifier = {
				conscription_factor = -0.3
				MONTHLY_POPULATION = -0.375
			}
		}
		divided_syria_2 = {
			on_add = { log = "[GetDateText]: [Root.GetName]: add idea divided_syria_2" }
			
			picture = GFX_idea_divided_syria
			
			allowed = {
				original_tag = SYR
			}
	
			modifier = {
				conscription_factor = -0.2
				MONTHLY_POPULATION = -0.25
			}
		}
		divided_syria_3 = {
			on_add = { log = "[GetDateText]: [Root.GetName]: add idea divided_syria_3" }
			
			picture = GFX_idea_divided_syria
			
			allowed = {
				original_tag = SYR
			}
	
			modifier = {
				conscription_factor = -0.1
				MONTHLY_POPULATION = -0.125
			}
		}
		
		syrian_social_nationalists = {
			on_add = { log = "[GetDateText]: [Root.GetName]: add idea syrian_social_nationalists" }
			
			allowed = {
				original_tag = SYR
			}
			
			allowed_civil_war = {
				has_government = nationalist
			}
	
			modifier = {
				conscription_factor = 0.1
				nationalist_drift = 0.1
			}
		}
		
		syrian_social_nationalists_inc = {
			on_add = { log = "[GetDateText]: [Root.GetName]: add idea syrian_social_nationalists_inc" }
			
			allowed = {
				original_tag = SYR
			}
			
			allowed_civil_war = {
				has_government = nationalist
			}
			
			modifier = {
				conscription_factor = 0.15
				nationalist_drift = 0.2
				political_power_factor = -0.10
			}
		}
		
		palestine_liberation_groups = {
			on_add = { log = "[GetDateText]: [Root.GetName]: add idea palestine_liberation_groups" }
			
			allowed = {
				original_tag = SYR
			}
			
			allowed_civil_war = {
				has_government = communism
			}
	
			modifier = {
				conscription_factor = 0.03
				
			}
		}
		
		palestine_liberation_groups_integrated = {
			on_add = { log = "[GetDateText]: [Root.GetName]: add idea palestine_liberation_groups_integrated" }
			
			allowed = {
				original_tag = SYR
			}
			
			allowed_civil_war = {
				has_government = communism
			}
	
			modifier = {
				conscription_factor = 0.03
				army_morale_factor = -0.10
				army_org_factor = -0.10
				stability_factor = -0.05
			}
		}
		
		syrian_shiite = {
			on_add = { log = "[GetDateText]: [Root.GetName]: add idea syrian_shiite" }
			
			allowed = {
				original_tag = SYR
			}
			
			allowed_civil_war = {
				has_government = communism
			}
	
			modifier = {
				conscription_factor = 0.05
			}
		}
		
		syrian_shiite_integrated = {
			on_add = { log = "[GetDateText]: [Root.GetName]: add idea syrian_shiite_integrated" }
			
			allowed = {
				original_tag = SYR
			}
			
			allowed_civil_war = {
				has_government = communism
			}
	
			modifier = {
				conscription_factor = 0.05
				communism_drift = 0.02
				political_power_factor = -0.10
				stability_factor = -0.05
			}
		}
		
		alawite_high_command = {
			on_add = { log = "[GetDateText]: [Root.GetName]: add idea alawite_high_command" }
		
			allowed = {
				original_tag = SYR
			}
			
			allowed_civil_war = {
				has_government = communism
			}
			
			modifier = {
				military_leader_cost_factor = 0.50
				stability_factor = 0.05
			}
		}
		
		alawite_high_command_strengthened = {
			on_add = { log = "[GetDateText]: [Root.GetName]: add idea alawite_high_command" }
			
			picture = GFX_idea_alawite_high_command
		
			allowed = {
				original_tag = SYR
			}
			
			allowed_civil_war = {
				has_government = communism
			}
			
			picture = GFX_idea_alawite_high_command
			
			modifier = {
				military_leader_cost_factor = 0.50
				stability_factor = 0.05
				army_org_factor = 0.10
			}
		}
		
		baath_party_banned = {
			on_add = { log = "[GetDateText]: [Root.GetName]: add idea baath_party_banned" }
		
			allowed = {
				original_tag = FSA
			}
			
			allowed_civil_war = {
				NOT = { has_government = communism }
			}
			
			modifier = {
				communism_drift = -0.03
				stability_factor = -0.03
			}
		}
		
		ssnp_party_banned = {
			on_add = { log = "[GetDateText]: [Root.GetName]: add idea ssnp_party_banned" }
		
			allowed = {
				original_tag = FSA
			}
			
			allowed_civil_war = {
				OR = {
					NOT = { has_government = nationalist }
					NOT = { has_government = communism }
				}
			}
			
			modifier = {
				nationalist_drift = -0.03
				stability_factor = -0.03
			}
		}
		
		salafist_party_banned = {
			on_add = { log = "[GetDateText]: [Root.GetName]: add idea salafist_party_banned" }
		
			allowed = {
				original_tag = FSA
			}
			
			allowed_civil_war = {
				NOT = { has_government = fascism }
			}
			
			modifier = {
				fascism_drift = -0.03
				stability_factor = -0.03
			}
		}
		
		true_caliphate = {
			on_add = { log = "[GetDateText]: [Root.GetName]: add idea true_caliphate" }
		
			allowed = {
				original_tag = NUS
				has_government = fascism
			}
			
			allowed_civil_war = {
				NOT = { has_government = fascism }
			}
			
			modifier = {
				drift_defence_factor = 0.10
			}
		}
		
		al_qaeda_network = {
			on_add = { log = "[GetDateText]: [Root.GetName]: add idea al_qaeda_network" }
		
			allowed = {
				OR = {
					has_government = fascism
					has_completed_focus = SYR_ally_alqaeda
				}
			}
			
			modifier = {
				send_volunteers_tension = -0.15
				send_volunteer_size = 2
				send_volunteer_divisions_required = -0.2
			}
		}
		
		global_salafist_recruitment = {
			on_add = { log = "[GetDateText]: [Root.GetName]: add idea global_salafist_recruitment" }
		
			allowed = {
				OR = {
					has_government = fascism
					has_completed_focus = SYR_safehaven_for_islamists
				}
			}
			
			allowed_civil_war = {
				NOT = { has_government = fascism }
			}
			
			modifier = {
				conscription = 0.01
			}
		}
		
		husband_minister = {
			on_add = { log = "[GetDateText]: [Root.GetName]: add idea husband_minister" }
			
			allowed = {
				original_tag = SYR
				has_country_leader = { name = "Bushra al-Assad" }
			}
			
			allowed_civil_war = {
				has_country_leader = { name = "Bushra al-Assad" }
			}
			
			modifier = {
				drift_defence_factor = 0.10
				subversive_activites_upkeep = -0.25
			}
		}	

		syrian_health_care_reform = {
			on_add = { log = "[GetDateText]: [Root.GetName]: add idea syrian_health_care_reform" }
			
			allowed = {
				original_tag = SYR
			}
			
			allowed_civil_war = {
				always = yes
			}
			
			modifier = {
				political_power_gain = 0.05
				monthly_population = 0.10
				offensive_war_stability_factor = 0.05
				defensive_war_stability_factor = 0.05
				army_morale_factor = 0.025
				consumer_goods_factor = -0.01
			}
		}

		loyal_marriage = {
			on_add = { log = "[GetDateText]: [Root.GetName]: add idea loyal_marriage" }
			
			allowed = {
				original_tag = SYR
				has_country_leader = { name = "Bashar al-Assad" }
			}
			
			allowed_civil_war = {
				has_country_leader = { name = "Bashar al-Assad" }
			}
			
			modifier = {
				production_speed_buildings_factor = 0.05
			}
		}

		arab_news_network = {
			on_add = { log = "[GetDateText]: [Root.GetName]: add idea arab_news_network" }
			
			allowed = {
				original_tag = SYR
			}
			
			allowed_civil_war = {
			}
			
			modifier = {
				drift_defence_factor = 0.10
			}
		}
		
		infiltrate_hezbollah_idea = {
			on_add = { log = "[GetDateText]: [Root.GetName]: add idea infiltrate_hezbollah_idea" }
		
			allowed = {	
				has_country_flag = HEZ_Infiltrated_by_SYR
			}
			
			allowed_civil_war = {
				always = no
			}
			
			targeted_modifier = {
				tag = HEZ
				attack_bonus_against = 0.1
			}
		}
		
		syria_jewish_rights_guaranteed = {
			on_add = { log = "[GetDateText]: [Root.GetName]: add idea syria_jewish_rights_guaranteed" }
		
			allowed = {	
				owns_state = 205
				owns_state = 204
				owns_state = 207
				owns_state = 207
			}
			
			allowed_civil_war = {
				always = no
			}
			
			modifier = {
				stability_factor = -0.10
				democratic_drift = 0.05
				political_power_factor = -0.10
				consumer_goods_factor = 0.05
			}
		}
		
		syrian_peoples_army = {
			on_add = { log = "[GetDateText]: [Root.GetName]: add idea syrian_peoples_army" }
		
			allowed = {	
			}
			
			allowed_civil_war = {
				always = no
			}
			
			picture = GFX_idea_manpower_bonus
			
			modifier = {
				conscription = -0.01
				stability_factor = 0.10
				army_core_defence_factor = 0.10
			}
		}
		
		syrian_electronic_army = {
			on_add = { log = "[GetDateText]: [Root.GetName]: add idea syrian_electronic_army" }
		
			allowed = {	
			}
			
			allowed_civil_war = {
				always = no
			}
			
			picture = GFX_idea_manpower_bonus
			
			modifier = {
				encryption = 0.50
				decryption = 0.50
			}
		}
		
		syria_tourism_invigorated = {
			on_add = { log = "[GetDateText]: [Root.GetName]: add idea syria_tourism_invigorated" }
		
			allowed = {	
				has_war = no
			}
			
			allowed_civil_war = {
				always = no
			}
			
			picture = GFX_idea_foreign_capital
			
			modifier = {
				production_speed_buildings_factor = 0.15
			}
		}
		
		syria_increased_resource_exports = {
			on_add = { log = "[GetDateText]: [Root.GetName]: add idea syria_increased_resource_exports" }
		
			allowed = {	
			}
			
			allowed_civil_war = {
				always = no
			}
			
			picture = GFX_idea_oil_profits
			
			modifier = {
				consumer_goods_factor = -0.05
				min_export = 0.1
			}
		}
		
		syria_increased_agricultural_subsidies = {
			on_add = { log = "[GetDateText]: [Root.GetName]: add idea syria_increased_agricultural_subsidies" }
		
			allowed = {	
			}
			
			allowed_civil_war = {
				always = no
			}
			
			picture = GFX_idea_agriculture
			
			modifier = {
				consumer_goods_factor = 0.05
				stability_factor = 0.05
			}
		}
		
		syria_decreased_agricultural_subsidies = {
			on_add = { log = "[GetDateText]: [Root.GetName]: add idea syria_decreased_agricultural_subsidies" }
		
			allowed = {	
			}
			
			allowed_civil_war = {
				always = no
			}
			
			picture = GFX_idea_agriculture
			
			modifier = {
				consumer_goods_factor = -0.05
				stability_factor = -0.05
			}
		}
		
		syria_support_anime = {
			on_add = { log = "[GetDateText]: [Root.GetName]: add idea syria_support_anime" }
		
			allowed = {	
			}
			
			allowed_civil_war = {
				always = no
			}
			
			picture = GFX_idea_one_child_policy
			
			modifier = {
				MONTHLY_POPULATION = -0.10
			}
		}
			
		
	}
	
}