ideas = {
	country = {
		multi_ethnic_state_idea = {
			on_add = { log = "[GetDateText]: [Root.GetName]: add idea multi_ethnic_state_idea" }
			available = {
				Multi_Ethnic_State = yes
			}
			cancel_if_invalid = yes
			modifier = {
				stability_factor = -0.05
			}
		}
		warlords_idea = {
			on_add = { log = "[GetDateText]: [Root.GetName]: add idea warlords_idea" }
			modifier = {
				stability_factor = -0.15
				political_power_factor = -0.15
				corruption_cost_factor = 0.5
				army_morale_factor = -0.10
				army_org_factor = -0.15
			}
		}
		nuclear_power = {
			on_add = { log = "[GetDateText]: [Root.GetName]: add idea nuclear_power" }
			picture = GFX_idea_nuclear_power
			allowed_civil_war = { always = yes }
			modifier = {
				political_power_factor = 0.05
			}
		}
		international_sanctions = {
			on_add = { log = "[GetDateText]: [Root.GetName]: add idea international_sanctions" }
			picture = GFX_idea_international_sanctions
			modifier = {
				political_power_factor = -0.10
				consumer_goods_factor = 0.10
				stability_factor = -0.10
				production_speed_buildings_factor = -0.10
				trade_opinion_factor = -0.50
			}
		}
	}
}