#########################################################
#							#
# Events for Russia (RUS)                               #
#                                			#
#########################################################

#########
# Index #
#########################################################
#From	- To	#	Name 			 
#########################################################
#69001 - 69300# Main events
#69301 - 69450# Political events
#69451 - 69500# Election events	 		
#########################################################

############################################################################################################################

#############################################
###### Main events
#############################################

#############################################
###### American invasion of Iraq - Russian response
#############################################
event = {
         id = 69001
         random = no
         country = RUS
 
         name = "EVT_69001_NAME"
         desc = "EVT_69001_DESC"
         style = 0
	 picture = "baghdad"
 
           action_a = {
                  name = "Condemn the invasion"
		  ai_chance = 100
		  command = { type = relation which = USA value = -5 }
		  command = { type = relation which = IRQ value = 20 }
	 	  command = { type = setflag which = warflag1 }
		  command = { type = trigger which = 69002 }
           }
           action_b = {
                  name = "Support the invasion"
                  ai_chance = 0
		  command = { type = relation which = USA value = 20 }
		  command = { type = relation which = IRQ value = -20 }
		  command = { type = trigger which = 69003 }
           }

}
#############################################
###### American invasion of Iraq - Russia condemns the invasion
#############################################
event = {
         id = 69002
         random = no
         country = USA
 
         name = "EVT_69002_NAME"
         desc = "EVT_69002_DESC"
         style = 0
 	 picture = "rus"
 
           action_a = {
                  name = "Who cares about them"
		  command = { }
           }

}
#############################################
###### American invasion of Iraq - Russia supports the invasion
#############################################
event = {
         id = 69003
         random = no
         country = USA
 
         name = "EVT_69003_NAME"
         desc = "EVT_69003_DESC"
         style = 0
 	 picture = "no"
 
           action_a = {
                  name = "Excellent"
		  command = { }
           }

}
#############################################
###### Fate of Soviet-era benefits
#############################################
event = {
         id = 69004
         random = no
         country = RUS
         trigger = {
                   atwar = no
                   NOT = { 
                            ispuppet = RUS
                   }

         }
 
         name = "EVT_69004_NAME"
         desc = "EVT_69004_DESC"
         style = 0
	 picture = "economy"
 
         date = { day = 22 month = august year = 2004 }
 
           action_a = {
                  name = "Initiate the reform"
		  ai_chance = 90
		  command = { type = dissent value = 2 }
		  command = { type = money value = 100 }
		  command = { type = domestic which = free_market value = 1 }
           }
           action_b = {
                  name = "Keep the old system"
                  ai_chance = 10
		  command = { }
           }

}
#############################################
###### Beslan school hostage crisis
#############################################
event = {
         id = 69005
         random = no
         country = RUS
         trigger = {
                   atwar = no
                   NOT = { 
                            ispuppet = RUS
                   }
		   owned = { province = 1849 data = RUS }

         }
 
         name = "EVT_69005_NAME"
         desc = "EVT_69005_DESC"
         style = 0
	 picture = "beslan"
 
         date = { day = 1 month = september year = 2004 }
 
           action_a = {
                  name = "Use force to eliminate the terrorists"
		  ai_chance = 95
		  command = { type = dissent value = 2 }
		  command = { type = trigger which = 69006 }
           }
           action_b = {
                  name = "Negotiate with them"
                  ai_chance = 5
		  command = { type = dissent value = 1 }
           }

}
#############################################
###### Beslan school hostage crisis - aftermath
#############################################
event = {
         id = 69006
         random = no
         country = RUS
 
         name = "EVT_69006_NAME"
         desc = "EVT_69006_DESC"
         style = 0
	 picture = "no"
 
           action_a = {
                  name = "These measures are needed"
		  ai_chance = 95
		  command = { type = dissent value = -1 }
		  command = { type = domestic which = democratic value = -1 }
           }
           action_b = {
                  name = "No need"
                  ai_chance = 5
		  command = { type = dissent value = 1 }
           }

}
#############################################
###### Russia-Ukraine gas dispute
#############################################
event = {
         id = 69007
         random = no
         country = RUS

	 trigger = {
		   exists = UKR
		   NOT = { ispuppet = UKR }
		   atwar = no
		   headofstate = 69001

         }
         
         name = "EVT_69007_NAME"
         desc = "EVT_69007_DESC"
         style = 0
	 picture = "gas_pipeline"

	 date = { day = 1 month = january year = 2006 }
 
           action_a = {
                  name = "Cut gas exports to Ukraine"
		  ai_chance = 99
		  command = { type = trigger which = 69008 }
		  command = { type = relation which = UKR value = -10 }
		  command = { type = energypool value = 10000 }
                  command = { type = setflag which = oil_tension1 }
           }
	   action_b = {
                  name = "Continue our gas exports to Ukraine"
		  ai_chance = 1
		  command = { type = dissent value = 3 }
		  command = { type = money value = -200 }
		  command = { type = relation which = UKR value = 20 }
           }

}
#############################################
###### Russia cuts gas supplies
#############################################
event = {
         id = 69008
         random = no
         country = UKR
         
         name = "EVT_69008_NAME"
         desc = "EVT_69008_DESC"
         style = 0
	 picture = "gas_pipeline"
 
           action_a = {
                  name = "Oh no"
		  command = { type = energypool value = -10000 }
		  command = { type = dissent value = 5 }
		  command = { type = relation which = RUS value = -10 }
		  command = { type = trigger which = 69009 }
		  command = { type = trigger which = 69010 }
		  command = { type = trigger which = 69011 }
		  command = { type = trigger which = 69012 }
		  command = { type = trigger which = 69013 }
           }

}
#############################################
###### Russia cuts gas supplies
#############################################
event = {
         id = 69009
         random = no
         country = GER
         
         name = "EVT_69009_NAME"
         desc = "EVT_69009_DESC"
         style = 0
	 picture = "gas_pipeline"
 
           action_a = {
                  name = "Oh no"
		  command = { type = energypool value = -10000 }
		  command = { type = dissent value = 3 }
		  command = { type = relation which = RUS value = -10 }
		  command = { type = relation which = UKR value = -10 }
           }

}
#############################################
###### Russia cuts gas supplies
#############################################
event = {
         id = 69010
         random = no
         country = FRA
         
         name = "EVT_69010_NAME"
         desc = "EVT_69010_DESC"
         style = 0
	 picture = "gas_pipeline"
 
           action_a = {
                  name = "Oh no"
		  command = { type = energypool value = -10000 }
		  command = { type = dissent value = 3 }
		  command = { type = relation which = RUS value = -10 }
           }

}
#############################################
###### Russia cuts gas supplies
#############################################
event = {
         id = 69011
         random = no
         country = HUN
         
         name = "EVT_69011_NAME"
         desc = "EVT_69011_DESC"
         style = 0
	 picture = "gas_pipeline"
 
           action_a = {
                  name = "Oh no"
		  command = { type = energypool value = -10000 }
		  command = { type = dissent value = 3 }
		  command = { type = relation which = RUS value = -10 }
           }

}
#############################################
###### Russia cuts gas supplies
#############################################
event = {
         id = 69012
         random = no
         country = ROM
         
         name = "EVT_69012_NAME"
         desc = "EVT_69012_DESC"
         style = 0
	 picture = "gas_pipeline"
 
           action_a = {
                  name = "Oh no"
		  command = { type = energypool value = -10000 }
		  command = { type = dissent value = 3 }
		  command = { type = relation which = RUS value = -10 }
           }

}
#############################################
###### Russia cuts gas supplies
#############################################
event = {
         id = 69013
         random = no
         country = POL
         
         name = "EVT_69013_NAME"
         desc = "EVT_69013_DESC"
         style = 0
	 picture = "gas_pipeline"
 
           action_a = {
                  name = "Oh no"
		  command = { type = energypool value = -10000 }
		  command = { type = dissent value = 5 }
		  command = { type = relation which = RUS value = -10 }
           }

}
#############################################
###### Ban of Moldovan and Georgian wines
#############################################
event = {
         id = 69014
         random = no
         country = RUS

	 trigger = {
		   NOT = {
		   	puppet = { country = u17 country = RUS }
		   	puppet = { country = GEO country = RUS }
		   }
		   atwar = no
		   headofstate = 69001

         }
         
         name = "EVT_69014_NAME"
         desc = "EVT_69014_DESC"
         style = 0
	 picture = "no"

	 date = { day = 25 month = march year = 2006 }
 
           action_a = {
                  name = "Ban the wines"
		  ai_chance = 95
		  command = { type = trigger which = 69015 }
		  command = { type = trigger which = 69016 }
           }
	   action_b = {
                  name = "There's no need for that"
		  ai_chance = 5
		  command = { type = dissent value = 1 }
		  command = { type = relation which = GEO value = 5 }
		  command = { type = relation which = u17 value = 5 }
           }

}
#############################################
###### Ban of Moldovan and Georgian wines
#############################################
event = {
         id = 69015
         random = no
         country = u17
         
         name = "EVT_69015_NAME"
         desc = "EVT_69015_DESC"
         style = 0
	 picture = "no"
 
           action_a = {
                  name = "Fools"
		  command = { type = relation which = RUS value = -5 }
           }

}
#############################################
###### Ban of Moldovan and Georgian wines
#############################################
event = {
         id = 69016
         random = no
         country = GEO
         
         name = "EVT_69016_NAME"
         desc = "EVT_69016_DESC"
         style = 0
	 picture = "no"
 
           action_a = {
                  name = "Fools"
		  command = { type = relation which = RUS value = -5 }
           }

}
#############################################
###### Litvinenko poisoning
#############################################
event = {
         id = 69017
         random = no
         country = RUS
         trigger = {
                   atwar = no
                   NOT = { 
                            ispuppet = RUS
                   }

         }
 
         name = "EVT_69017_NAME"
         desc = "EVT_69017_DESC"
         style = 0
         picture = "litvinenko"
 
         date = { day = 1 month = november year = 2006 }
 
           action_a = {
                  name = "It's probably just harmless talk"
                  ai_chance = 5
                  command = { type = domestic which = democratic value = 1 }
                  command = { type = dissent value = 3 }
           }
           action_b = {
                  name = "It would be best if he met with an accident"
                  ai_chance = 10
                  command = { type = money value = -10 }
		  command = { type = trigger which = 69018 }
           }
           action_c = {
                  name = "Make an example of him to all the world"
                  ai_chance = 85
                  command = { type = domestic which = democratic value = -1 }
                  command = { type = money value = -20 }
		  command = { type = trigger which = 69019 }
           }

}
#############################################
###### Litvinenko dies in a car crash
#############################################
event = {
         id = 69018
         random = no
         country = ENG
 
         name = "EVT_69018_NAME"
         desc = "EVT_69018_DESC"
         style = 0
	 picture = "no"
 
           action_a = {
                  name = "This is suspicious..."
		  command = { type = relation which = RUS value = -5 }
           }

}
#############################################
###### Litvinenko falls ill
#############################################
event = {
         id = 69019
         random = no
         country = ENG
 
         name = "EVT_69019_NAME"
         desc = "EVT_69019_DESC"
         style = 0
	 picture = "no"
 
           action_a = {
                  name = "This is suspicious..."
		  command = { type = relation which = RUS value = -5 }
           }

}
#############################################
###### Litvinenko dies
#############################################
event = {
         id = 69020
         random = no
         country = ENG
         trigger = {
                   atwar = no
		   government = democratic
		   event = 69019

         }
 
         name = "EVT_69020_NAME"
         desc = "EVT_69020_DESC"
         style = 0
         picture = "litvinenko"
 
         date = { day = 23 month = november year = 2006 }
 
           action_a = {
                  name = "May he rest in peace"
                  command = { }
           }

}
#############################################
###### Litvinenko death investigated
#############################################
event = {
         id = 69021
         random = no
         country = ENG
         trigger = {
                   atwar = no
                   government = democratic
		   event = 69020

         }
 
         name = "EVT_69021_NAME"
         desc = "EVT_69021_DESC"
         style = 0
         picture = "litvinenko"
 
         date = { day = 28 month = may year = 2007 }
 
           action_a = {
                  name = "Demand his extradition"
		  ai_chance = 95
                  command = { type = trigger which = 69022 }
           }
	   action_b = {
                  name = "Do nothing and cover things up"
		  ai_chance = 5
                  command = { type = relation which = RUS value = 10 }
		  command = { type = dissent value = 3 }
		  command = { type = domestic which = democratic value = -1 }
           }

}
#############################################
###### Britain demands Lugovoi's extradition
#############################################
event = {
         id = 69022
         random = no
         country = RUS
 
         name = "EVT_69022_NAME"
         desc = "EVT_69022_DESC"
         style = 0
         picture = "litvinenko"
 
           action_a = {
                  name = "Deny the request"
		  ai_chance = 95
                  command = { type = trigger which = 69023 }
           }
	   action_b = {
                  name = "We comply"
		  ai_chance = 5
                  command = { type = relation which = ENG value = 10 }
		  command = { type = dissent value = 5 }
		  command = { type = domestic which = democratic value = 1 }
		  command = { type = trigger which = 69024 }
           }

}
#############################################
###### Russia denies our request
#############################################
event = {
         id = 69023
         random = no
         country = ENG
 
         name = "EVT_69023_NAME"
         desc = "EVT_69023_DESC"
         style = 0
 
           action_a = {
                  name = "Blast"
                  command = { type = relation which = RUS value = -5 }
           }

}
#############################################
###### Russia grants our request
#############################################
event = {
         id = 69024
         random = no
         country = ENG
 
         name = "EVT_69024_NAME"
         desc = "EVT_69024_DESC"
         style = 0
 
           action_a = {
                  name = "Good"
                  command = { type = relation which = RUS value = 5 }
           }

}
#############################################
###### Anti-Kremlin protests
#############################################
event = {
         id = 69025
         random = no
         country = RUS
         trigger = {
                   atwar = no
		   headofstate = 69001

         }
 
         name = "EVT_69025_NAME"
         desc = "EVT_69025_DESC"
         style = 0
         picture = "belaruspol"
 
         date = { day = 3 month = march year = 2007 }
 
           action_a = {
                  name = "Ok"
                  command = { type = dissent value = 3 }
           }

}
#############################################
###### Changing the constitution?
#############################################
event = {
         id = 69026
         random = no
         country = RUS
         trigger = {
                   atwar = no
		   headofstate = 69001

         }
 
         name = "EVT_69026_NAME"
         desc = "EVT_69026_DESC"
         style = 0
         picture = "putin"
 
         date = { day = 29 month = march year = 2007 }
 
           action_a = {
                  name = "Propose a change to the constitution"
		  ai_chance = 5
                  command = { }
           }
	   action_b = {
                  name = "There is no need for that"
		  ai_chance = 95
                  command = { type = dissent value = -1 }
		  command = { type = sleepevent which = 69030 }
		  command = { type = sleepevent which = 69031 }
		  command = { type = sleepevent which = 69032 }
		  command = { type = sleepevent which = 69453 }
           }
}
#############################################
###### Restarting strategic deterrent patrols?
#############################################
event = {
         id = 69027
         random = no
         country = RUS
         trigger = {
                   atwar = no
                   NOT = { 
			OR = {
                            ispuppet = RUS
			    dissent = 10
			}
                   }
		   headofstate = 69001

         }
 
         name = "EVT_69027_NAME"
         desc = "EVT_69027_DESC"
         style = 0
	 picture = "delta_IV"
 
         date = { day = 18 month = august year = 2007 }
 
           action_a = {
                  name = "No, we shouldn't provoke the West"
		  ai_chance = 1
		  command = { type = dissent value = 3 }
                  command = { type = domestic which = defense_lobby value = -1 }
           }
           action_b = {
                  name = "Reinstate full submarine and bomber patrols"
                  ai_chance = 99
                  command = { type = domestic which = defense_lobby value = 1 }
		  command = { type = dissent value = -1 }
		  command = { type = trigger which = 69028 }
		  command = { type = trigger which = 69029 }
                  command = { type = relation which = USA value = -5 }
                  command = { type = relation which = ENG value = -5 }
                  command = { type = relation which = NOR value = -5 }
                  command = { type = relation which = JAP value = -5 }
                  command = { type = relation which = FIN value = -5 }
		  command = { type = belligerence which = RUS value = 2 }
                  command = { type = supplies value = -5000 }
		  command = { type = oilpool value = -2000 }
           }

}
#############################################
###### Russian strategic deterrence patrols are restarted
#############################################
event = {
         id = 69028
         random = no
         country = USA
 
         name = "EVT_69028_NAME"
         desc = "EVT_69028_DESC"
         style = 0
	 picture = "95typhoon" 
 
           action_a = {
                  name = "This threat demands a response"
                  command = { }
           }

}
#############################################
###### Russian strategic deterrence patrols are restarted
#############################################
event = {
         id = 69029
         random = no
         country = ENG
 
         name = "EVT_69029_NAME"
         desc = "EVT_69029_DESC"
         style = 0
	 picture = "95typhoon"
 
           action_a = {
                  name = "This threat demands a response"
                  command = { }
           }

}
#############################################
###### Constitution changed
#############################################
event = {
         id = 69030
         random = no
         country = RUS
         trigger = {
                   atwar = no
		   headofstate = 69001

         }
 
         name = "EVT_69030_NAME"
         desc = "EVT_69030_DESC"
         style = 0
         picture = "duma"
 
         date = { day = 27 month = august year = 2007 }
 
           action_a = {
                  name = "Ok"
		  command = { type = domestic which = democratic value = -1 }
		  command = { type = sleepevent which = 69452 }
           }
}
#############################################
###### Anti-Putin protests
#############################################
event = {
         id = 69031
         random = no
         country = RUS
         trigger = {
                   event = 69030
		   headofstate = 69001
		   atwar = no

         }
 
         name = "EVT_69031_NAME"
         desc = "EVT_69031_DESC"
         style = 0
         picture = "belaruspol"
 
         date = { day = 2 month = september year = 2007 }
 
           action_a = {
                  name = "Those Western agents"
		  command = { type = dissent value = 5 }
		  command = { type = trigger which = 69032 }
		  command = { type = relation which = USA value = -5 }
           }
}
#############################################
###### Anti-Putin protests
#############################################
event = {
         id = 69032
         random = no
         country = USA
 
         name = "EVT_69032_NAME"
         desc = "EVT_69032_DESC"
         style = 0
         picture = "no"
 
           action_a = {
                  name = "Another dictator shouting"
		  command = { }
           }
}
#############################################
###### Russia acknowledged as a superpower
#############################################
event = {
         id = 69033
         random = no
         country = USA
         trigger = {
                   atwar = no
		   government = democratic

         }
 
         name = "EVT_69033_NAME"
         desc = "EVT_69033_DESC"
         style = 0
         picture = "rus"
 
         date = { day = 26 month = may year = 2007 }
 
           action_a = {
                  name = "The Bear is back"
		  command = { type = trigger which = 69034 }
           }
}
#############################################
###### Russia acknowledged as a superpower
#############################################
event = {
         id = 69034
         random = no
         country = RUS
 
         name = "EVT_69034_NAME"
         desc = "EVT_69034_DESC"
         style = 0
         picture = "rus"
 
           action_a = {
                  name = "We are back!"
		  command = { type = dissent value = -0.5 }
           }
}
#############################################
###### Naval exercise in Bay of Biscay
#############################################
event = {
         id = 69035
         random = no
         country = RUS
         trigger = {
		   headofstate = 69001
		   atwar = no
		   domestic = { type = defense_lobby value = 5 }


         }
 
         name = "EVT_69035_NAME"
         desc = "EVT_69035_DESC"
         style = 0
         picture = "blackjack"
 
         date = { day = 22 month = january year = 2008 }
 
           action_a = {
                  name = "Our military is quite capable indeed"
		  command = { type = dissent value = -1 }
		  command = { type = supplies value = -500 }
		  command = { type = relation which = FRA value = -5 }
		  command = { type = relation which = SPA value = -5 }
		  command = { type = relation which = ENG value = -5 }
		  command = { type = trigger which = 69036 }
		  command = { type = trigger which = 69037 }
		  command = { type = trigger which = 69038 }
		  command = { type = trigger which = 69039 }
           }
}
#############################################
###### Russian naval exercise in Bay of Biscay
#############################################
event = {
         id = 69036
         random = no
         country = USA
 
         name = "EVT_69036_NAME"
         desc = "EVT_69036_DESC"
         style = 0
         picture = "blackjack"
 
           action_a = {
                  name = "Another demonstration of might"
		  command = { }
           }
}
#############################################
###### Russian naval exercise in Bay of Biscay
#############################################
event = {
         id = 69037
         random = no
         country = ENG
 
         name = "EVT_69037_NAME"
         desc = "EVT_69037_DESC"
         style = 0
         picture = "blackjack"
 
           action_a = {
                  name = "Another demonstration of might"
		  command = { }
           }
}
#############################################
###### Russian naval exercise in Bay of Biscay
#############################################
event = {
         id = 69038
         random = no
         country = FRA
 
         name = "EVT_69038_NAME"
         desc = "EVT_69038_DESC"
         style = 0
         picture = "blackjack"
 
           action_a = {
                  name = "Another demonstration of might"
		  command = { }
           }
}
#############################################
###### Russian naval exercise in Bay of Biscay
#############################################
event = {
         id = 69039
         random = no
         country = SPA
 
         name = "EVT_69039_NAME"
         desc = "EVT_69039_DESC"
         style = 0
         picture = "blackjack"
 
           action_a = {
                  name = "Another demonstration of might"
		  command = { }
           }
}
#############################################
###### V-Day military parade
#############################################
event = {
         id = 69040
         random = no
         country = RUS
         trigger = {
		   headofstate = 69086
		   atwar = no
		   domestic = { type = defense_lobby value = 5 }


         }
 
         name = "EVT_69040_NAME"
         desc = "EVT_69040_DESC"
         style = 0
         picture = "vdayparade"
 
         date = { day = 8 month = may year = 2008 }
 
           action_a = {
                  name = "Hold the parade"
		  ai_chance = 100
		  command = { type = dissent value = -1 }
		  command = { type = supplies value = -1000 }
		  command = { type = trigger which = 69041 }
           }
	   action_b = {
                  name = "We can't afford such a parade"
		  ai_chance = 0
		  command = { type = dissent value = 1 }
		  command = { type = domestic which = defense_lobby value = -1 }
           }
}
#############################################
###### Russian V-Day military parade
#############################################
event = {
         id = 69041
         random = no
         country = USA
 
         name = "EVT_69041_NAME"
         desc = "EVT_69041_DESC"
         style = 0
         picture = "vdayparade"
 
           action_a = {
                  name = "Their military is getting stronger"
		  command = { }
           }
}
#############################################
###### Russian Church reunited
#############################################
event = {
         id = 69042
         random = no
         country = RUS
         trigger = {
		   atwar = no

         }
 
         name = "EVT_69042_NAME"
         desc = "EVT_69042_DESC"
         style = 0
         picture = "no"
 
         date = { day = 27 month = may year = 2006 }
 
           action_a = {
                  name = "Great!"
		  command = { type = dissent value = -1 }
           }
}
#############################################
###### WW3: invasion of Europe begins
#############################################
event = {
         id = 69043
         random = no
         country = RUS #

         name = "EVT_69043_NAME"
         desc = "EVT_69043_DESC"
         style = 0
	 picture = "russiantanks"
 
           action_a = {
                  name = "Begin the invasion!"
		  command = { type = war which = U06 }

		  command = { type = trigger which = 69044 }
		  command = { type = trigger which = 69045 }

		  command = { type = ambush value = 50 }
		  command = { type = surprise which = land value = 50 }
		  command = { type = surprise which = naval value = 50 }
		  command = { type = surprise which = air value = 50 }

		  command = { type = trigger which = 69046 }
		  command = { type = trigger which = 69047 }
		  command = { type = trigger which = 69048 }
		  command = { type = trigger which = 69049 }
		  command = { type = trigger which = 69050 }
		  command = { type = trigger which = 69051 }
		  command = { type = trigger which = 69052 }
		  command = { type = trigger which = 69053 }
		  command = { type = trigger which = 69054 }
		  command = { type = trigger which = 69055 }
		  command = { type = trigger which = 69056 }
		  command = { type = trigger which = 69057 }
		  command = { type = trigger which = 69058 }
		  command = { type = trigger which = 69059 }
		  command = { type = trigger which = 69060 }
		  command = { type = trigger which = 69061 }
		  command = { type = trigger which = 69062 }
		  command = { type = trigger which = 69063 }
		  command = { type = trigger which = 69064 }
		  command = { type = trigger which = 69065 }
		  command = { type = trigger which = 69066 }
		  command = { type = trigger which = 69067 }
		  command = { type = trigger which = 69068 }
		  command = { type = trigger which = 69069 }
		  command = { type = trigger which = 69070 }
		  command = { type = trigger which = 69097 }
		  command = { type = trigger which = 69098 }
		  command = { type = trigger which = 69100 }
		  command = { type = trigger which = 69101 }
		  command = { type = trigger which = 69110 }
                  command = { type = setflag which = oil_war }

	   }
}
#############################################
###### Russian claims on Estonia
#############################################
event = {
         id = 69044
         random = no
         country = RUS
 
         name = "EVT_69297_NAME"
         desc = "EVT_69297_DESC"
         style = 0
         picture = "estonia"
 
           action_a = {
                  name = "Ok"
                  command = { type = addcore which = 193 }
                  command = { type = addcore which = 199 }
           }

}
#############################################
###### Russian claims on Latvia
#############################################
event = {
         id = 69045
         random = no
         country = RUS
 
         name = "EVT_69298_NAME"
         desc = "EVT_69298_DESC"
         style = 0
         picture = "latvia"
 
           action_a = {
                  name = "Ok"
                  command = { type = addcore which = 202 }
           }

}
#############################################
###### WW3: Russian invasion of Europe begins
#############################################
event = {
         id = 69046
         random = no
         country = POL
 
         name = "EVT_69046_NAME"
         desc = "EVT_69046_DESC"
         style = 0
         picture = "russiantanks"
 
           action_a = {
                  name = "Damn"
		  command = { type = alliance which = USA }
                  command = { type = radar_eff value = -25 }
		  command = { type = max_organization which = land value = -20 }
		  command = { type = max_organization which = naval value = -20 }
		  command = { type = max_organization which = air value = -20 }
           }

}
#############################################
###### WW3: Russian invasion of Europe begins
#############################################
event = {
         id = 69047
         random = no
         country = EST
 
         name = "EVT_69046_NAME"
         desc = "EVT_69046_DESC"
         style = 0
         picture = "russiantanks"
 
           action_a = {
                  name = "Damn"
		  command = { type = alliance which = USA }
                  command = { type = radar_eff value = -25 }
		  command = { type = max_organization which = land value = -20 }
		  command = { type = max_organization which = naval value = -20 }
		  command = { type = max_organization which = air value = -20 }
           }

}
#############################################
###### WW3: Russian invasion of Europe begins
#############################################
event = {
         id = 69048
         random = no
         country = LIT
 
         name = "EVT_69046_NAME"
         desc = "EVT_69046_DESC"
         style = 0
         picture = "russiantanks"
 
           action_a = {
                  name = "Damn"
		  command = { type = alliance which = USA }
                  command = { type = radar_eff value = -25 }
		  command = { type = max_organization which = land value = -20 }
		  command = { type = max_organization which = naval value = -20 }
		  command = { type = max_organization which = air value = -20 }
           }

}
#############################################
###### WW3: Russian invasion of Europe begins
#############################################
event = {
         id = 69049
         random = no
         country = LAT
 
         name = "EVT_69046_NAME"
         desc = "EVT_69046_DESC"
         style = 0
         picture = "russiantanks"
 
           action_a = {
                  name = "Damn"
		  command = { type = alliance which = USA }
                  command = { type = radar_eff value = -25 }
		  command = { type = max_organization which = land value = -20 }
		  command = { type = max_organization which = naval value = -20 }
		  command = { type = max_organization which = air value = -20 }
           }

}
#############################################
###### WW3: Russian invasion of Europe begins
#############################################
event = {
         id = 69050
         random = no
         country = GER
 
         name = "EVT_69046_NAME"
         desc = "EVT_69046_DESC"
         style = 0
         picture = "russiantanks"
 
           action_a = {
                  name = "Damn"
		  command = { type = alliance which = USA }
                  command = { type = radar_eff value = -25 }
		  command = { type = max_organization which = land value = -20 }
		  command = { type = max_organization which = naval value = -20 }
		  command = { type = max_organization which = air value = -20 }
           }

}
#############################################
###### WW3: Russian invasion of Europe begins
#############################################
event = {
         id = 69051
         random = no
         country = CZE
 
         name = "EVT_69046_NAME"
         desc = "EVT_69046_DESC"
         style = 0
         picture = "russiantanks"
 
           action_a = {
                  name = "Damn"
	  	  command = { type = alliance which = USA }
                  command = { type = radar_eff value = -25 }
		  command = { type = max_organization which = land value = -20 }
		  command = { type = max_organization which = naval value = -20 }
		  command = { type = max_organization which = air value = -20 }
           }

}
#############################################
###### WW3: Russian invasion of Europe begins
#############################################
event = {
         id = 69052
         random = no
         country = SLO
 
         name = "EVT_69046_NAME"
         desc = "EVT_69046_DESC"
         style = 0
         picture = "russiantanks"
 
           action_a = {
                  name = "Damn"		
		  command = { type = alliance which = USA }
                  command = { type = radar_eff value = -25 }
		  command = { type = max_organization which = land value = -20 }
		  command = { type = max_organization which = naval value = -20 }
		  command = { type = max_organization which = air value = -20 }
           }

}
#############################################
###### WW3: Russian invasion of Europe begins
#############################################
event = {
         id = 69053
         random = no
         country = HUN
 
         name = "EVT_69046_NAME"
         desc = "EVT_69046_DESC"
         style = 0
         picture = "russiantanks"
 
           action_a = {
                  name = "Damn"
		  command = { type = alliance which = USA }
                  command = { type = radar_eff value = -25 }
		  command = { type = max_organization which = land value = -20 }
		  command = { type = max_organization which = naval value = -20 }
		  command = { type = max_organization which = air value = -20 }
           }

}
#############################################
###### WW3: Russian invasion of Europe begins
#############################################
event = {
         id = 69054
         random = no
         country = ROM
 
         name = "EVT_69046_NAME"
         desc = "EVT_69046_DESC"
         style = 0
         picture = "russiantanks"
 
           action_a = {
                  name = "Damn"
		  command = { type = alliance which = USA }
                  command = { type = radar_eff value = -25 }
		  command = { type = max_organization which = land value = -20 }
		  command = { type = max_organization which = naval value = -20 }
		  command = { type = max_organization which = air value = -20 }
           }

}
#############################################
###### WW3: Russian invasion of Europe begins
#############################################
event = {
         id = 69055
         random = no
         country = BUL
 
         name = "EVT_69046_NAME"
         desc = "EVT_69046_DESC"
         style = 0
         picture = "russiantanks"
 
           action_a = {
                  name = "Damn"
		  command = { type = alliance which = USA }
                  command = { type = radar_eff value = -25 }
		  command = { type = max_organization which = land value = -20 }
		  command = { type = max_organization which = naval value = -20 }
		  command = { type = max_organization which = air value = -20 }
           }

}
#############################################
###### WW3: Russian invasion of Europe begins
#############################################
event = {
         id = 69056
         random = no
         country = SLV
 
         name = "EVT_69046_NAME"
         desc = "EVT_69046_DESC"
         style = 0
         picture = "russiantanks"
 
           action_a = {
                  name = "Damn"
		  command = { type = alliance which = USA }
                  command = { type = radar_eff value = -25 }
		  command = { type = max_organization which = land value = -20 }
		  command = { type = max_organization which = naval value = -20 }
		  command = { type = max_organization which = air value = -20 }
           }

}
#############################################
###### WW3: Russian invasion of Europe begins
#############################################
event = {
         id = 69057
         random = no
         country = CRO
 
         name = "EVT_69046_NAME"
         desc = "EVT_69046_DESC"
         style = 0
         picture = "russiantanks"
 
           action_a = {
                  name = "Damn"
		  command = { type = alliance which = USA }
                  command = { type = radar_eff value = -25 }
		  command = { type = max_organization which = land value = -20 }
		  command = { type = max_organization which = naval value = -20 }
		  command = { type = max_organization which = air value = -20 }
           }

}
#############################################
###### WW3: Russian invasion of Europe begins
#############################################
event = {
         id = 69058
         random = no
         country = ALB
 
         name = "EVT_69046_NAME"
         desc = "EVT_69046_DESC"
         style = 0
         picture = "russiantanks"
 
           action_a = {
                  name = "Damn"
		  command = { type = alliance which = USA }
                  command = { type = radar_eff value = -25 }
		  command = { type = max_organization which = land value = -20 }
		  command = { type = max_organization which = naval value = -20 }
		  command = { type = max_organization which = air value = -20 }
           }

}
#############################################
###### WW3: Russian invasion of Europe begins
#############################################
event = {
         id = 69059
         random = no
         country = GRE
 
         name = "EVT_69046_NAME"
         desc = "EVT_69046_DESC"
         style = 0
         picture = "russiantanks"
 
           action_a = {
                  name = "Damn"
		  command = { type = alliance which = USA }
                  command = { type = radar_eff value = -25 }
		  command = { type = max_organization which = land value = -20 }
		  command = { type = max_organization which = naval value = -20 }
		  command = { type = max_organization which = air value = -20 }
           }

}
#############################################
###### WW3: Russian invasion of Europe begins
#############################################
event = {
         id = 69060
         random = no
         country = ITA
 
         name = "EVT_69046_NAME"
         desc = "EVT_69046_DESC"
         style = 0
         picture = "russiantanks"
 
           action_a = {
                  name = "Damn"	
		  command = { type = alliance which = USA }
                  command = { type = radar_eff value = -25 }
		  command = { type = max_organization which = land value = -20 }
		  command = { type = max_organization which = naval value = -20 }
		  command = { type = max_organization which = air value = -20 }
           }

}
#############################################
###### WW3: Russian invasion of Europe begins
#############################################
event = {
         id = 69061
         random = no
         country = DEN
 
         name = "EVT_69046_NAME"
         desc = "EVT_69046_DESC"
         style = 0
         picture = "russiantanks"
 
           action_a = {
                  name = "Damn"
		  command = { type = alliance which = USA }
                  command = { type = radar_eff value = -25 }
		  command = { type = max_organization which = land value = -20 }
		  command = { type = max_organization which = naval value = -20 }
		  command = { type = max_organization which = air value = -20 }
           }

}
#############################################
###### WW3: Russian invasion of Europe begins
#############################################
event = {
         id = 69062
         random = no
         country = HOL
 
         name = "EVT_69046_NAME"
         desc = "EVT_69046_DESC"
         style = 0
         picture = "russiantanks"
 
           action_a = {
                  name = "Damn"
		  command = { type = alliance which = USA }
                  command = { type = radar_eff value = -25 }
		  command = { type = max_organization which = land value = -20 }
		  command = { type = max_organization which = naval value = -20 }
		  command = { type = max_organization which = air value = -20 }
           }

}
#############################################
###### WW3: Russian invasion of Europe begins
#############################################
event = {
         id = 69063
         random = no
         country = BEL
 
         name = "EVT_69046_NAME"
         desc = "EVT_69046_DESC"
         style = 0
         picture = "russiantanks"
 
           action_a = {
                  name = "Damn"
		  command = { type = alliance which = USA }
                  command = { type = radar_eff value = -25 }
		  command = { type = max_organization which = land value = -20 }
		  command = { type = max_organization which = naval value = -20 }
		  command = { type = max_organization which = air value = -20 }
           }

}
#############################################
###### WW3: Russian invasion of Europe begins
#############################################
event = {
         id = 69064
         random = no
         country = LUX
 
         name = "EVT_69046_NAME"
         desc = "EVT_69046_DESC"
         style = 0
         picture = "russiantanks"
 
           action_a = {
                  name = "Damn"
		  command = { type = alliance which = USA }
                  command = { type = radar_eff value = -25 }
		  command = { type = max_organization which = land value = -20 }
		  command = { type = max_organization which = naval value = -20 }
		  command = { type = max_organization which = air value = -20 }
           }

}
#############################################
###### WW3: Russian invasion of Europe begins
#############################################
event = {
         id = 69065
         random = no
         country = FRA
 
         name = "EVT_69046_NAME"
         desc = "EVT_69046_DESC"
         style = 0
         picture = "russiantanks"
 
           action_a = {
                  name = "Damn"
		  command = { type = alliance which = USA }
                  command = { type = radar_eff value = -25 }
		  command = { type = max_organization which = land value = -20 }
		  command = { type = max_organization which = naval value = -20 }
		  command = { type = max_organization which = air value = -20 }
           }

}
#############################################
###### WW3: Russian invasion of Europe begins
#############################################
event = {
         id = 69066
         random = no
         country = SPA
 
         name = "EVT_69046_NAME"
         desc = "EVT_69046_DESC"
         style = 0
         picture = "russiantanks"
 
           action_a = {
                  name = "Damn"
		  command = { type = alliance which = USA }
                  command = { type = radar_eff value = -25 }
		  command = { type = max_organization which = land value = -20 }
		  command = { type = max_organization which = naval value = -20 }
		  command = { type = max_organization which = air value = -20 }
           }

}
#############################################
###### WW3: Russian invasion of Europe begins
#############################################
event = {
         id = 69067
         random = no
         country = POR
 
         name = "EVT_69046_NAME"
         desc = "EVT_69046_DESC"
         style = 0
         picture = "russiantanks"
 
           action_a = {
                  name = "Damn"
		  command = { type = alliance which = USA }
                  command = { type = radar_eff value = -25 }
		  command = { type = max_organization which = land value = -20 }
		  command = { type = max_organization which = naval value = -20 }
		  command = { type = max_organization which = air value = -20 }
           }

}
#############################################
###### WW3: Russian invasion of Europe begins
#############################################
event = {
         id = 69068
         random = no
         country = NOR
 
         name = "EVT_69046_NAME"
         desc = "EVT_69046_DESC"
         style = 0
         picture = "russiantanks"
 
           action_a = {
                  name = "Damn"
		  command = { type = alliance which = USA }
                  command = { type = radar_eff value = -25 }
		  command = { type = max_organization which = land value = -20 }
		  command = { type = max_organization which = naval value = -20 }
		  command = { type = max_organization which = air value = -20 }
           }

}
#############################################
###### WW3: Russian invasion of Europe begins
#############################################
event = {
         id = 69069
         random = no
         country = TUR
 
         name = "EVT_69046_NAME"
         desc = "EVT_69046_DESC"
         style = 0
         picture = "russiantanks"
 
           action_a = {
                  name = "Damn"
		  command = { type = alliance which = USA }
                  command = { type = radar_eff value = -25 }
		  command = { type = max_organization which = land value = -20 }
		  command = { type = max_organization which = naval value = -20 }
		  command = { type = max_organization which = air value = -20 }
           }

}
#############################################
###### WW3: Russian invasion of Europe begins
#############################################
event = {
         id = 69070
         random = no
         country = UKR
 
         name = "EVT_69046_NAME"
         desc = "EVT_69046_DESC"
         style = 0
         picture = "russiantanks"
 
           action_a = {
                  name = "Damn"
		  command = { type = alliance which = USA }
                  command = { type = radar_eff value = -25 }
		  command = { type = max_organization which = land value = -20 }
		  command = { type = max_organization which = naval value = -20 }
		  command = { type = max_organization which = air value = -20 }
           }

}
#############################################
###### WW3: Russian invasion of Europe begins
#############################################
event = {
         id = 69110
         random = no
         country = ICL
 
         name = "EVT_69046_NAME"
         desc = "EVT_69046_DESC"
         style = 0
         picture = "russiantanks"
 
           action_a = {
                  name = "Damn"
		  command = { type = alliance which = USA }
                  command = { type = radar_eff value = -25 }
		  command = { type = max_organization which = land value = -20 }
		  command = { type = max_organization which = naval value = -20 }
		  command = { type = max_organization which = air value = -20 }
           }

}
#############################################
###### Surprise effect ends
#############################################
event = {
         id = 69071
         random = no
         country = RUS
         trigger = {
		   war = { country = RUS country = USA }
		   event = 69043

         }
 
         name = "EVT_69071_NAME"
         desc = "EVT_69071_DESC"
         style = 0
         picture = "no"
 
         date = { day = 20 month = may year = 2009 }
 
           action_a = {
                  name = "Ok"
		  command = { type = ambush value = -50 }
		  command = { type = surprise which = land value = -50 }
		  command = { type = surprise which = naval value = -50 }
		  command = { type = surprise which = air value = -50 }
		  command = { type = trigger which = 69072 }
		  command = { type = trigger which = 69073 }
		  command = { type = trigger which = 69074 }
		  command = { type = trigger which = 69075 }
		  command = { type = trigger which = 69076 }
		  command = { type = trigger which = 69077 }
		  command = { type = trigger which = 69078 }
		  command = { type = trigger which = 69079 }
		  command = { type = trigger which = 69080 }
		  command = { type = trigger which = 69081 }
		  command = { type = trigger which = 69082 }
		  command = { type = trigger which = 69083 }
		  command = { type = trigger which = 69084 }
		  command = { type = trigger which = 69085 }
		  command = { type = trigger which = 69086 }
		  command = { type = trigger which = 69087 }
		  command = { type = trigger which = 69088 }
		  command = { type = trigger which = 69089 }
		  command = { type = trigger which = 69090 }
		  command = { type = trigger which = 69091 }
		  command = { type = trigger which = 69092 }
		  command = { type = trigger which = 69093 }
		  command = { type = trigger which = 69094 }
		  command = { type = trigger which = 69095 }
		  command = { type = trigger which = 69096 }
		  command = { type = trigger which = 69099 }
		  command = { type = trigger which = 69111 }
           }
}
#############################################
###### Surprise effect ends
#############################################
event = {
         id = 69072
         random = no
         country = EST
 
         name = "EVT_69072_NAME"
         desc = "EVT_69072_DESC"
         style = 0
         picture = "no"
 
           action_a = {
                  name = "Finally"
                  command = { type = radar_eff value = 25 }
		  command = { type = max_organization which = land value = 20 }
		  command = { type = max_organization which = naval value = 20 }
		  command = { type = max_organization which = air value = 20 }
           }

}
#############################################
###### Surprise effect ends
#############################################
event = {
         id = 69073
         random = no
         country = LAT
 
         name = "EVT_69072_NAME"
         desc = "EVT_69072_DESC"
         style = 0
         picture = "no"
 
           action_a = {
                  name = "Finally"
                  command = { type = radar_eff value = 25 }
		  command = { type = max_organization which = land value = 20 }
		  command = { type = max_organization which = naval value = 20 }
		  command = { type = max_organization which = air value = 20 }
           }

}
#############################################
###### Surprise effect ends
#############################################
event = {
         id = 69074
         random = no
         country = LIT
 
         name = "EVT_69072_NAME"
         desc = "EVT_69072_DESC"
         style = 0
         picture = "no"
 
           action_a = {
                  name = "Finally"
                  command = { type = radar_eff value = 25 }
		  command = { type = max_organization which = land value = 20 }
		  command = { type = max_organization which = naval value = 20 }
		  command = { type = max_organization which = air value = 20 }
           }

}
#############################################
###### Surprise effect ends
#############################################
event = {
         id = 69075
         random = no
         country = POL
 
         name = "EVT_69072_NAME"
         desc = "EVT_69072_DESC"
         style = 0
         picture = "no"
 
           action_a = {
                  name = "Finally"
                  command = { type = radar_eff value = 25 }
		  command = { type = max_organization which = land value = 20 }
		  command = { type = max_organization which = naval value = 20 }
		  command = { type = max_organization which = air value = 20 }
           }

}
#############################################
###### Surprise effect ends
#############################################
event = {
         id = 69076
         random = no
         country = GER
 
         name = "EVT_69072_NAME"
         desc = "EVT_69072_DESC"
         style = 0
         picture = "no"
 
           action_a = {
                  name = "Finally"
                  command = { type = radar_eff value = 25 }
		  command = { type = max_organization which = land value = 20 }
		  command = { type = max_organization which = naval value = 20 }
		  command = { type = max_organization which = air value = 20 }
           }

}
#############################################
###### Surprise effect ends
#############################################
event = {
         id = 69077
         random = no
         country = CZE
 
         name = "EVT_69072_NAME"
         desc = "EVT_69072_DESC"
         style = 0
         picture = "no"
 
           action_a = {
                  name = "Finally"
                  command = { type = radar_eff value = 25 }
		  command = { type = max_organization which = land value = 20 }
		  command = { type = max_organization which = naval value = 20 }
		  command = { type = max_organization which = air value = 20 }
           }

}
#############################################
###### Surprise effect ends
#############################################
event = {
         id = 69078
         random = no
         country = SLO
 
         name = "EVT_69072_NAME"
         desc = "EVT_69072_DESC"
         style = 0
         picture = "no"
 
           action_a = {
                  name = "Finally"
                  command = { type = radar_eff value = 25 }
		  command = { type = max_organization which = land value = 20 }
		  command = { type = max_organization which = naval value = 20 }
		  command = { type = max_organization which = air value = 20 }
           }

}
#############################################
###### Surprise effect ends
#############################################
event = {
         id = 69079
         random = no
         country = HUN
 
         name = "EVT_69072_NAME"
         desc = "EVT_69072_DESC"
         style = 0
         picture = "no"
 
           action_a = {
                  name = "Finally"
                  command = { type = radar_eff value = 25 }
		  command = { type = max_organization which = land value = 20 }
		  command = { type = max_organization which = naval value = 20 }
		  command = { type = max_organization which = air value = 20 }
           }

}
#############################################
###### Surprise effect ends
#############################################
event = {
         id = 69080
         random = no
         country = ROM
 
         name = "EVT_69072_NAME"
         desc = "EVT_69072_DESC"
         style = 0
         picture = "no"
 
           action_a = {
                  name = "Finally"
                  command = { type = radar_eff value = 25 }
		  command = { type = max_organization which = land value = 20 }
		  command = { type = max_organization which = naval value = 20 }
		  command = { type = max_organization which = air value = 20 }
           }

}
#############################################
###### Surprise effect ends
#############################################
event = {
         id = 69081
         random = no
         country = BUL
 
         name = "EVT_69072_NAME"
         desc = "EVT_69072_DESC"
         style = 0
         picture = "no"
 
           action_a = {
                  name = "Finally"
                  command = { type = radar_eff value = 25 }
		  command = { type = max_organization which = land value = 20 }
		  command = { type = max_organization which = naval value = 20 }
		  command = { type = max_organization which = air value = 20 }
           }

}
#############################################
###### Surprise effect ends
#############################################
event = {
         id = 69082
         random = no
         country = SLV
 
         name = "EVT_69072_NAME"
         desc = "EVT_69072_DESC"
         style = 0
         picture = "no"
 
           action_a = {
                  name = "Finally"
                  command = { type = radar_eff value = 25 }
		  command = { type = max_organization which = land value = 20 }
		  command = { type = max_organization which = naval value = 20 }
		  command = { type = max_organization which = air value = 20 }
           }

}
#############################################
###### Surprise effect ends
#############################################
event = {
         id = 69083
         random = no
         country = CRO
 
         name = "EVT_69072_NAME"
         desc = "EVT_69072_DESC"
         style = 0
         picture = "no"
 
           action_a = {
                  name = "Finally"
                  command = { type = radar_eff value = 25 }
		  command = { type = max_organization which = land value = 20 }
		  command = { type = max_organization which = naval value = 20 }
		  command = { type = max_organization which = air value = 20 }
           }

}
#############################################
###### Surprise effect ends
#############################################
event = {
         id = 69084
         random = no
         country = ITA
 
         name = "EVT_69072_NAME"
         desc = "EVT_69072_DESC"
         style = 0
         picture = "no"
 
           action_a = {
                  name = "Finally"
                  command = { type = radar_eff value = 25 }
		  command = { type = max_organization which = land value = 20 }
		  command = { type = max_organization which = naval value = 20 }
		  command = { type = max_organization which = air value = 20 }
           }

}
#############################################
###### Surprise effect ends
#############################################
event = {
         id = 69085
         random = no
         country = SPA
 
         name = "EVT_69072_NAME"
         desc = "EVT_69072_DESC"
         style = 0
         picture = "no"
 
           action_a = {
                  name = "Finally"
                  command = { type = radar_eff value = 25 }
		  command = { type = max_organization which = land value = 20 }
		  command = { type = max_organization which = naval value = 20 }
		  command = { type = max_organization which = air value = 20 }
           }

}
#############################################
###### Surprise effect ends
#############################################
event = {
         id = 69086
         random = no
         country = POR
 
         name = "EVT_69072_NAME"
         desc = "EVT_69072_DESC"
         style = 0
         picture = "no"
 
           action_a = {
                  name = "Finally"
                  command = { type = radar_eff value = 25 }
		  command = { type = max_organization which = land value = 20 }
		  command = { type = max_organization which = naval value = 20 }
		  command = { type = max_organization which = air value = 20 }
           }

}
#############################################
###### Surprise effect ends
#############################################
event = {
         id = 69087
         random = no
         country = FRA
 
         name = "EVT_69072_NAME"
         desc = "EVT_69072_DESC"
         style = 0
         picture = "no"
 
           action_a = {
                  name = "Finally"
                  command = { type = radar_eff value = 25 }
		  command = { type = max_organization which = land value = 20 }
		  command = { type = max_organization which = naval value = 20 }
		  command = { type = max_organization which = air value = 20 }
           }

}
#############################################
###### Surprise effect ends
#############################################
event = {
         id = 69088
         random = no
         country = NOR
 
         name = "EVT_69072_NAME"
         desc = "EVT_69072_DESC"
         style = 0
         picture = "no"
 
           action_a = {
                  name = "Finally"
                  command = { type = radar_eff value = 25 }
		  command = { type = max_organization which = land value = 20 }
		  command = { type = max_organization which = naval value = 20 }
		  command = { type = max_organization which = air value = 20 }
           }

}
#############################################
###### Surprise effect ends
#############################################
event = {
         id = 69089
         random = no
         country = TUR
 
         name = "EVT_69072_NAME"
         desc = "EVT_69072_DESC"
         style = 0
         picture = "no"
 
           action_a = {
                  name = "Finally"
                  command = { type = radar_eff value = 25 }
		  command = { type = max_organization which = land value = 20 }
		  command = { type = max_organization which = naval value = 20 }
		  command = { type = max_organization which = air value = 20 }
           }

}
#############################################
###### Surprise effect ends
#############################################
event = {
         id = 69090
         random = no
         country = BEL
 
         name = "EVT_69072_NAME"
         desc = "EVT_69072_DESC"
         style = 0
         picture = "no"
 
           action_a = {
                  name = "Finally"
                  command = { type = radar_eff value = 25 }
		  command = { type = max_organization which = land value = 20 }
		  command = { type = max_organization which = naval value = 20 }
		  command = { type = max_organization which = air value = 20 }
           }

}
#############################################
###### Surprise effect ends
#############################################
event = {
         id = 69091
         random = no
         country = LUX
 
         name = "EVT_69072_NAME"
         desc = "EVT_69072_DESC"
         style = 0
         picture = "no"
 
           action_a = {
                  name = "Finally"
                  command = { type = radar_eff value = 25 }
		  command = { type = max_organization which = land value = 20 }
		  command = { type = max_organization which = naval value = 20 }
		  command = { type = max_organization which = air value = 20 }
           }

}
#############################################
###### Surprise effect ends
#############################################
event = {
         id = 69092
         random = no
         country = HOL
 
         name = "EVT_69072_NAME"
         desc = "EVT_69072_DESC"
         style = 0
         picture = "no"
 
           action_a = {
                  name = "Finally"
                  command = { type = radar_eff value = 25 }
		  command = { type = max_organization which = land value = 20 }
		  command = { type = max_organization which = naval value = 20 }
		  command = { type = max_organization which = air value = 20 }
           }

}
#############################################
###### Surprise effect ends
#############################################
event = {
         id = 69093
         random = no
         country = DEN
 
         name = "EVT_69072_NAME"
         desc = "EVT_69072_DESC"
         style = 0
         picture = "no"
 
           action_a = {
                  name = "Finally"
                  command = { type = radar_eff value = 25 }
		  command = { type = max_organization which = land value = 20 }
		  command = { type = max_organization which = naval value = 20 }
		  command = { type = max_organization which = air value = 20 }
           }

}
#############################################
###### Surprise effect ends
#############################################
event = {
         id = 69094
         random = no
         country = GRE
 
         name = "EVT_69072_NAME"
         desc = "EVT_69072_DESC"
         style = 0
         picture = "no"
 
           action_a = {
                  name = "Finally"
                  command = { type = radar_eff value = 25 }
		  command = { type = max_organization which = land value = 20 }
		  command = { type = max_organization which = naval value = 20 }
		  command = { type = max_organization which = air value = 20 }
           }

}
#############################################
###### Surprise effect ends
#############################################
event = {
         id = 69095
         random = no
         country = ALB
 
         name = "EVT_69072_NAME"
         desc = "EVT_69072_DESC"
         style = 0
         picture = "no"
 
           action_a = {
                  name = "Finally"
                  command = { type = radar_eff value = 25 }
		  command = { type = max_organization which = land value = 20 }
		  command = { type = max_organization which = naval value = 20 }
		  command = { type = max_organization which = air value = 20 }
           }

}
#############################################
###### Surprise effect ends
#############################################
event = {
         id = 69096
         random = no
         country = UKR
 
         name = "EVT_69072_NAME"
         desc = "EVT_69072_DESC"
         style = 0
         picture = "no"
 
           action_a = {
                  name = "Finally"
                  command = { type = radar_eff value = 25 }
		  command = { type = max_organization which = land value = 20 }
		  command = { type = max_organization which = naval value = 20 }
		  command = { type = max_organization which = air value = 20 }
           }

}
#############################################
###### WW3: Russian invasion of Europe begins
#############################################
event = {
         id = 69097
         random = no
         country = u06
 
         name = "EVT_69046_NAME"
         desc = "EVT_69046_DESC"
         style = 0
         picture = "russiantanks"
 
           action_a = {
                  name = "Damn"
                  command = { type = alliance which = USA }
           }

}
#############################################
###### WW3: Russian invasion of Europe begins
#############################################
event = {
         id = 69098
         random = no
         country = ENG
 
         name = "EVT_69046_NAME"
         desc = "EVT_69046_DESC"
         style = 0
         picture = "russiantanks"
 
           action_a = {
                  name = "Damn"
		  command = { type = alliance which = USA }
                  command = { type = radar_eff value = -25 }
		  command = { type = max_organization which = land value = -20 }
		  command = { type = max_organization which = naval value = -20 }
		  command = { type = max_organization which = air value = -20 }
           }

}
#############################################
###### Surprise effect ends
#############################################
event = {
         id = 69099
         random = no
         country = ENG
 
         name = "EVT_69072_NAME"
         desc = "EVT_69072_DESC"
         style = 0
         picture = "no"
 
           action_a = {
                  name = "Finally"
                  command = { type = radar_eff value = 25 }
		  command = { type = max_organization which = land value = 20 }
		  command = { type = max_organization which = naval value = 20 }
		  command = { type = max_organization which = air value = 20 }
           }

}
#############################################
###### Surprise effect ends
#############################################
event = {
         id = 69111
         random = no
         country = ICL
 
         name = "EVT_69072_NAME"
         desc = "EVT_69072_DESC"
         style = 0
         picture = "no"
 
           action_a = {
                  name = "Finally"
                  command = { type = radar_eff value = 25 }
		  command = { type = max_organization which = land value = 20 }
		  command = { type = max_organization which = naval value = 20 }
		  command = { type = max_organization which = air value = 20 }
           }

}
#############################################
###### WW3: Russian invasion of Europe begins
#############################################
event = {
         id = 69100
         random = no
         country = USA
 
         name = "EVT_69100_NAME"
         desc = "EVT_69100_DESC"
         style = 0
         picture = "russiantanks"
 
           action_a = {
                  name = "We will defend freedom"
		  command = { type = relation which = RUS value = -200 }
           }

}
#############################################
###### WW3: Russian invasion of Europe begins
#############################################
event = {
         id = 69101
         random = no
         country = CAN
 
         name = "EVT_69101_NAME"
         desc = "EVT_69101_DESC"
         style = 0
         picture = "russiantanks"
 
           action_a = {
                  name = "We will defend freedom"
		  command = { type = alliance which = USA }
		  command = { type = relation which = RUS value = -200 }
           }

}
#############################################
###### Revision of the CFE Treaty
#############################################
event = {
         id = 69102
         random = no
         country = RUS
         trigger = {
                   atwar = no

         }
 
         name = "EVT_69102_NAME"
         desc = "EVT_69102_DESC"
         style = 0
	 picture = "russianarmy"
 
         date = { day = 15 month = june year = 2007 }
 
           action_a = {
                  name = "Demand the revision of the treaty"
		  ai_chance = 99
                  command = { type = trigger which = 69103 }
           }
           action_b = {
                  name = "Not needed"
                  ai_chance = 1
                  command = { type = dissent value = 1 }
           }

}
#############################################
###### Russia demands revision of the CFE treaty
#############################################
event = {
         id = 69103
         random = no
         country = USA
 
         name = "EVT_69103_NAME"
         desc = "EVT_69103_DESC"
         style = 0
 	 picture = "russianarmy"
 
           action_a = {
                  name = "We refuse"
		  ai_chance = 99
                  command = { type = trigger which = 69104 }
		  command = { type = sleepevent which = 69108 }
           }
           action_b = {
                  name = "We agree"
                  ai_chance = 1
                  command = { type = dissent value = 1 }
		  command = { type = trigger which = 69105 }
		  command = { type = sleepevent which = 69106 }
           }

}
#############################################
###### Revision of the CFE Treaty - Americans refuse
#############################################
event = {
         id = 69104
         random = no
         country = RUS
 
         name = "EVT_69104_NAME"
         desc = "EVT_69104_DESC"
         style = 0
 	 picture = "russianarmy"
 
           action_a = {
                  name = "Very well then..."
		  command = { type = relation which = USA value = -5 }
           }

}
#############################################
###### Revision of the CFE Treaty - Americans agree
#############################################
event = {
         id = 69105
         random = no
         country = RUS
 
         name = "EVT_69105_NAME"
         desc = "EVT_69105_DESC"
         style = 0
 	 picture = "russianarmy"
 
           action_a = {
                  name = "Excellent"
		  command = { type = relation which = USA value = 5 }
           }

}
#############################################
###### Suspend the CFE treaty?
#############################################
event = {
         id = 69106
         random = no
         country = RUS

	 trigger = {
                   atwar = no
		   event = 69104

         }
 
         name = "EVT_69106_NAME"
         desc = "EVT_69106_DESC"
         style = 0
 	 picture = "russianarmy"

	 date = { day = 13 month = july year = 2007 }
 
           action_a = {
                  name = "Suspend it"
		  ai_chance = 99
		  command = { type = domestic which = defense_lobby value = 1 }
                  command = { type = trigger which = 69107 }
		  command = { type = belligerence value = 1 }
		  command = { type = relation which = USA value = -5 }
		  command = { type = relation which = ENG value = -5 }
		  command = { type = relation which = FRA value = -5 }
		  command = { type = relation which = GER value = -5 }
           }
           action_b = {
                  name = "Do not raise tensions"
                  ai_chance = 1
                  command = { type = dissent value = 1 }
           }

}
#############################################
###### Russia suspends the CFE Treaty
#############################################
event = {
         id = 69107
         random = no
         country = USA
 
         name = "EVT_69107_NAME"
         desc = "EVT_69107_DESC"
         style = 0
 	 picture = "russianarmy"
 
           action_a = {
                  name = "Not good"
		  command = { type = relation which = RUS value = -5 }
           }

}
#############################################
###### The Vienna conference
#############################################
event = {
         id = 69108
         random = no
         country = RUS

	 trigger = {
                   atwar = no
		   event = 69105

         }
 
         name = "EVT_69108_NAME"
         desc = "EVT_69108_DESC"
         style = 0
 	 picture = "russianarmy"

	 date = { day = 13 month = july year = 2007 }
 
           action_a = {
                  name = "Excellent"
		  command = { type = domestic which = defense_lobby value = -1 }
                  command = { type = trigger which = 69109 }
		  command = { type = relation which = USA value = 15 }
		  command = { type = relation which = ENG value = 15 }
		  command = { type = relation which = FRA value = 15 }
		  command = { type = relation which = GER value = 15 }
		  command = { type = belligerence which = RUS value = -3 }
           }

}
#############################################
###### The Vienna conference (110 and 111 reserved)
#############################################
event = {
         id = 69109
         random = no
         country = USA
 
         name = "EVT_69109_NAME"
         desc = "EVT_69109_DESC"
         style = 0
 	 picture = "russianarmy"
 
           action_a = {
                  name = "Excellent"
		  command = { type = domestic which = defense_lobby value = -1 }
		  command = { type = belligerence which = USA value = -1 }
           }

}
#############################################
###### Operation 'Northern Approach' - Norway at war with Russia
#############################################
event = {
         id = 69251
         random = no
         country = RUS
         trigger = {
		   war = { country = USA country = RUS }
		   war = { country = NOR country = RUS }
		   exists = NOR
		   NOT = {
			war = { country = SWE country = RUS }
			war = { country = FIN country = RUS }
			lost_national = { country = RUS value = 1 } #not if Russian soil is being invaded
			puppet = { country = NOR country = RUS } #not if Norway has already been invaded and occupied
		   }

         }
 
         name = "EVT_69251_NAME"
         desc = "EVT_69251_DESC"
         style = 0
         picture = "scandinavia"
 
         date = { day = 1 month = april year = 2003 }
	 offset = 5
	 deathdate = { day = 30 month = december year = 2019 }
 
           action_a = {
                  name = "Begin the operation"
		  ai_chance = 100
                  command = { type = war which = FIN }
		  command = { type = war which = SWE }
		  command = { type = trigger which = 69253 }
		  command = { type = trigger which = 69254 }
		  command = { type = sleepevent which = 69252 } #just in case
           }
	   action_b = {
                  name = "Cancel the operation, we have other plans"
		  ai_chance = 0
                  command = { type = sleepevent which = 69252 } #just in case
           }

}
#############################################
###### Operation 'Northern Approach' - Norway not at war
#############################################
event = {
         id = 69252
         random = no
         country = RUS
         trigger = {
		   war = { country = USA country = RUS }
		   NOT = {
			war = { country = SWE country = RUS }
			war = { country = FIN country = RUS }
			war = { country = NOR country = RUS }
			lost_national = { country = RUS value = 1 } #not if Russian soil is being invaded
		   }

         }
 
         name = "EVT_69252_NAME"
         desc = "EVT_69252_DESC"
         style = 0
         picture = "scandinavia"
 
         date = { day = 1 month = april year = 2003 }
	 offset = 5
	 deathdate = { day = 30 month = december year = 2019 }
 
           action_a = {
                  name = "Begin the operation"
		  ai_chance = 100
                  command = { type = war which = FIN }
		  command = { type = war which = SWE }
		  command = { type = war which = NOR }
		  command = { type = trigger which = 69253 }
		  command = { type = trigger which = 69254 }
		  command = { type = trigger which = 69255 }
		  command = { type = sleepevent which = 69251 } #just in case
           }
	   action_b = {
                  name = "Cancel the operation, we have other plans"
		  ai_chance = 0
                  command = { type = sleepevent which = 69251 } #just in case
           }

}
#############################################
###### Russia invades!
#############################################
event = {
         id = 69253
         random = no
         country = FIN
 
         name = "EVT_69253_NAME"
         desc = "EVT_69253_DESC"
         style = 0
         picture = "russiantanks"
 
           action_a = {
                  name = "We must prepare for defense!"
                  command = { type = alliance which = USA }
           }

}
#############################################
###### Russia invades!
#############################################
event = {
         id = 69254
         random = no
         country = SWE
 
         name = "EVT_69254_NAME"
         desc = "EVT_69254_DESC"
         style = 0
         picture = "russiantanks"
 
           action_a = {
                  name = "We must prepare for defense!"
                  command = { type = alliance which = USA }
           }

}
#############################################
###### Russia invades!
#############################################
event = {
         id = 69255
         random = no
         country = NOR
 
         name = "EVT_69255_NAME"
         desc = "EVT_69255_DESC"
         style = 0
         picture = "russiantanks"
 
           action_a = {
                  name = "We must prepare for defense!"
                  command = { type = alliance which = USA }
           }

}
#############################################
###### Fate of the 'Admiral Gorshkov'
#############################################
event = {
         id = 69256
         random = no
         country = IND
         trigger = {
		   NOT = {
			war = { country = IND country = RUS }
			war = { country = IND country = CHC }
			war = { country = IND country = USA }
			war = { country = IND country = PAK }
			war = { country = USA country = RUS }
		  	war = { country = CHC country = RUS }
			war = { country = GER country = RUS }
			ispuppet = RUS
			ispuppet = IND
		   }

         }
 
         name = "EVT_69256_NAME"
         desc = "EVT_69256_DESC"
         style = 0
         picture = "gorshkov"
 
         date = { day = 1 month = january year = 2004 }
	 offset = 20
	 deathdate = { day = 30 month = december year = 2004 }
 
           action_a = {
                  name = "We want the 'Admiral Gorshkov'"
		  ai_chance = 99
                  command = { type = trigger which = 69257 } # Russian event
           }
	   action_b = {
                  name = "We don't need old ships"
		  ai_chance = 1
                  command = { type = relation which = RUS value = -10 }
		  command = { type = dissent value = 1 } # naval lobby unhappy
           }

}
#############################################
###### Fate of the 'Admiral Gorshkov'
#############################################
event = {
         id = 69257
         random = no
         country = RUS
 
         name = "EVT_69256_NAME"
         desc = "EVT_69256_DESC"
         style = 0
         picture = "gorshkov"
 
           action_a = {
                  name = "Sell the ship to India"
		  ai_chance = 90
                  command = { type = trigger which = 69258 } # Indian event
		  command = { type = money value = 1000 }
		  command = { type = relation which = IND value = 20 }
           }
	   action_b = {
                  name = "Cancel the deal and sell the ship to scrap"
		  ai_chance = 6
                  command = { type = relation which = IND value = -20 }
		  command = { type = money value = 1000 }
           }
	   action_c = {
                  name = "Cancel the deal and put the ship back in service"
		  ai_chance = 4
                  command = { type = relation which = IND value = -20 }
		  command = { type = add_corps value = naval where = 133 }
		  command = { type = add_division which = "Admiral Gorshkov" value = escort_carrier when = 7 }
		  command = { type = trigger which = 69260 }
           }

}
#############################################
###### Purchase of 'Admiral Gorshkov'
#############################################
event = {
         id = 69258
         random = no
         country = IND
 
         name = "EVT_69258_NAME"
         desc = "EVT_69258_DESC"
         style = 0
         picture = "gorshkov"
 
           action_a = {
                  name = "Excellent"
                  command = { type = trigger which = 69259 }
		  command = { type = add_division which = "INS Vikramaditya" value = escort_carrier when = 2 }
		  command = { type = money value = -1000 }
           }

}
#############################################
###### INS Vikramaditya deployed
#############################################
event = {
         id = 69259
         random = no
         country = IND
 
         name = "EVT_69259_NAME"
         desc = "EVT_69259_DESC"
         style = 0
         picture = "gorshkov"
 
           action_a = {
                  name = "Ok"
                  command = { damage_division which = "INS Vikramaditya" value = escort_carrier where = 99 }
           }

}
#############################################
###### 'Admiral Gorshkov' deployed
#############################################
event = {
         id = 69260
         random = no
         country = RUS
 
         name = "EVT_69260_NAME"
         desc = "EVT_69260_DESC"
         style = 0
         picture = "gorshkov"
 
           action_a = {
                  name = "Ok"
		  command = { type = money value = 1000 }
		  command = { damage_division which = "Admiral Gorshkov" value = escort_carrier where = 99 }
           }

}

#############################################
###### Terrorist attack
#############################################
event = {
         id = 69299
         random = no
         country = RUS
         trigger = {
                   NOT = { 
			OR = {
                            ispuppet = RUS
			    ideology = social_liberal
			    ideology = social_democrat
			}
                   }
		   OR = {
			headofstate = 69001
			headofstate = 69086
		   }
		   random = 10
		   control = { province = 3 data = RUS }

         }
 
         name = "EVT_69299_NAME"
         desc = "EVT_69299_DESC"
         style = 0
         picture = "caucasusattack"
	 persistent = yes
 
         date = { day = 1 month = april year = 2004 }
	 offset = 40
	 deathdate = { day = 30 month = december year = 2019 }
 
           action_a = {
                  name = "Oh no"
                  command = { type = dissent value = 1 }
           }

}
#############################################
###### Russian weapons export
#############################################
event = {
         id = 69300
         random = no
         country = RUS
         trigger = {
                   atwar = no
                   NOT = { 
                            ispuppet = RUS
                   }
		   OR = {
			headofstate = 69001
			headofstate = 69086
		   }

         }
 
         name = "EVT_69300_NAME"
         desc = "EVT_69300_DESC"
         style = 0
         picture = "rus_export"
	 persistent = yes
 
         date = { day = 2 month = january year = 2004 }
	 offset = 360
	 deathdate = { day = 30 month = december year = 2019 }
 
           action_a = {
                  name = "Continue to sell weapons"
		  ai_chance = 100
                  command = { type = money value = 800 }
		  command = { type = supplies value = -3000 }
           }
	   action_b = {
                  name = "End the arms trade"
		  ai_chance = 0
                  command = { type = relation which = USA value = 10 }
		  command = { type = relation which = ENG value = 10 }
		  command = { type = relation which = FRA value = 10 }
		  command = { type = relation which = GER value = 10 }
		  command = { type = dissent value = 1 }
		  command = { type = domestic which = defense_lobby value = -1 }
		  command = { type = domestic which = interventionism value = -1 }
		  command = { type = sleepevent which = 69300 }
		  command = { type = sleepevent which = 89701 }
		  command = { type = sleepevent which = 89702 }
		  command = { type = sleepevent which = 89703 }
		  command = { type = sleepevent which = 89704 }
		  command = { type = sleepevent which = 37518 }
           }

}



#############################################
###### Election events
#############################################

#############################################
###### 2004 Russian presidential election
#############################################
event = {
         id = 69451
         random = no
         country = RUS
         trigger = {
		   atwar = no
		   headofstate = 69001
                   NOT = { 
                            ispuppet = RUS
                   }

         }
 
         name = "EVT_69451_NAME"
         desc = "EVT_69451_DESC"
         style = 0
	 picture = "elections"
 
         date = { day = 14 month = march year = 2004 }
 
           action_a = {
                  name = "Vladimir Putin - United Russia"
                  ai_chance = 100
                  command = { type = headofstate which = 69001 }
		  command = { type = headofgovernment which = 69020 }
		  command = { type = foreignminister which = 69031 }
		  command = { type = armamentminister which = 69004 }
		  command = { type = dissent which = -1 }

           }
           action_b = {
                  name = "Nikolay Kharitonov - Communist Party of Russia"
                  ai_chance = 0
                  command = { type = headofstate which = 69015 }
		  command = { type = headofgovernment which = 69030 }
		  command = { type = foreignminister which = 69033 }
		  command = { type = armamentminister which = 69043 }
		  command = { type = ministerofsecurity which = 69048 }
		  command = { type = ministerofintelligence which = 69054 } 
		  command = { type = set_domestic which = political_left value = 8 }
		  command = { type = set_domestic which = democratic value = 3 }
		  command = { type = set_domestic which = free_market value = 3 }
		  command = { type = set_domestic which = freedom value = 4 }		  

           }

}
#############################################
###### 2008 Russian presidential election
#############################################
event = {
         id = 69452
         random = no
         country = RUS
         trigger = {
		   atwar = no
		   headofstate = 69001
                   NOT = { 
                            ispuppet = RUS
                   }

         }
 
         name = "EVT_69452_NAME"
         desc = "EVT_69452_DESC"
         style = 0
	 picture = "elections"
 
         date = { day = 2 month = march year = 2008 }
 
           action_a = {
                  name = "Dmitry Medvedev - United Russia"
                  ai_chance = 100
                  command = { type = headofstate which = 69086 }
		  command = { type = headofgovernment which = 69089 }
		  command = { type = armamentminister which = 69087 }
		  command = { type = foreignminister which = 69031 }
		  command = { type = dissent which = -1 }

           }
           action_b = {
                  name = "Gennady Zyuganov - Communist Party of Russia"
                  ai_chance = 0
                  command = { type = headofstate which = 69012 }
		  command = { type = headofgovernment which = 69029 }
		  command = { type = foreignminister which = 69035 }
		  command = { type = armamentminister which = 69043 }
		  command = { type = ministerofsecurity which = 69048 }
		  command = { type = set_domestic which = political_left value = 8 }
		  command = { type = set_domestic which = democratic value = 3 }
		  command = { type = set_domestic which = free_market value = 3 }
		  command = { type = set_domestic which = freedom value = 4 }			  

           }

}
#############################################
###### 2008 Russian presidential election - Putin contests
#############################################
event = {
         id = 69453
         random = no
         country = RUS
         trigger = {
		   atwar = no
		   headofstate = 69001
                   NOT = { 
                            ispuppet = RUS
                   }

         }
 
         name = "EVT_69453_NAME"
         desc = "EVT_69453_DESC"
         style = 0
	 picture = "elections"
 
         date = { day = 2 month = march year = 2008 }
 
           action_a = {
                  name = "Vladimir Putin - United Russia"
                  ai_chance = 100
                  command = { type = headofstate which = 69001 }
		  command = { type = headofgovernment which = 69090 }
		  command = { type = armamentminister which = 69087 }
		  command = { type = foreignminister which = 69031 }
		  command = { type = dissent which = -1 }

           }
           action_b = {
                  name = "Gennady Zyuganov - Communist Party of Russia"
                  ai_chance = 0
                  command = { type = headofstate which = 69012 }
		  command = { type = headofgovernment which = 69029 }
		  command = { type = foreignminister which = 69035 }
		  command = { type = armamentminister which = 69043 }
		  command = { type = ministerofsecurity which = 69048 }
		  command = { type = set_domestic which = political_left value = 8 }
		  command = { type = set_domestic which = democratic value = 3 }
		  command = { type = set_domestic which = free_market value = 3 }
		  command = { type = set_domestic which = freedom value = 4 }		  

           }

}