#########################################################################
#  Theoretical Breakthrough - Secret Weapon
#########################################################################
event = {
	id = 2000
	random = no

#Will be triggered by another event

	name = "Licence Tank Production"#
	desc = "We will now be allowed to licence produce Tanks."
	picture = "no"
	style = 0


	action_a = {
		name = "OK"
		command = {  type = activate which = 2270 }
	}
}
event = {
	id = 2001
	random = no

#Will be triggered by another event

	name = "Domestic Tank Production"
	desc = "We will be allowed to develop and produce new tank-models all by ourself."
	picture = "no"
	style = 0


	action_a = {
		name = "OK"
		command = {  type = activate which = 2280 }
	}
}
event = {
	id = 2002
	random = no

#Will be triggered by another event

	name = "Licence Tank Production"
	desc = "We will be allowed to develop and produce new tank-models all by ourself."
	picture = "no"
	style = 0


	action_a = {
		name = "OK"
		command = {  type = activate which = 1000 }
	}
}
event = {
	id = 2003
	random = no

#Will be triggered by another event

	name = "Domestic Tank Production"
	desc = "We will be allowed to develop and produce new tank-models all by ourself."
	picture = "no"
	style = 0


	action_a = {
		name = "OK"
		command = {  type = activate which = 1050 }
	}
}
event = {
	id = 2004
	random = no

#Will be triggered by another event

	name = "Domestic Tank Production"
	desc = "We will be allowed to develop and produce new tank-models all by ourself."
	picture = "no"
	style = 0


	action_a = {
		name = "OK"
		command = {  type = activate which = 1110 }
	}
}
event = {
	id = 2005
	random = no

#Will be triggered by another event

	name = "Domestic Tank Production"
	desc = "We will be allowed to develop and produce new tank-models all by ourself."
	picture = "no"
	style = 0


	action_a = {
		name = "OK"
		command = {  type = activate which = 1150 }
	}
}
event = {
	id = 2006
	random = no

#Will be triggered by another event

	name = "Domestic Tank Production"
	desc = "We will be allowed to develop and produce new tank-models all by ourself."
	picture = "no"
	style = 0


	action_a = {
		name = "OK"
		command = {  type = activate which = 1180 }
	}
}
event = {
	id = 2007
	random = no

#Will be triggered by another event

	name = "New aircraft-model to be built"
	desc = "We will be allowed to licence produce a new aircraft model"
	picture = "no"
	style = 0


	action_a = {
		name = "OK"
		command = {  type = activate which = 4000 }
	}
}
event = {
	id = 2008
	random = no

#Will be triggered by another event

	name = "New aircraft-model to be built"
	desc = "We will be allowed to licence produce a new aircraft model"
	picture = "no"
	style = 0


	action_a = {
		name = "OK"
		command = {  type = activate which = 4010 }
	}
}
event = {
	id = 2009
	random = no

#Will be triggered by another event

	name = "New aircraft-model to be built"
	desc = "We will be allowed to licence produce a new aircraft model"
	picture = "no"
	style = 0


	action_a = {
		name = "OK"
		command = {  type = activate which = 4020 }
	}
}
event = {
	id = 2010
	random = no

#Will be triggered by another event

	name = "New aircraft-model to be built"
	desc = "We will be allowed to licence produce a new aircraft model"
	picture = "no"
	style = 0


	action_a = {
		name = "OK"
		command = {  type = activate which = 4030 }
	}
}
event = {
	id = 2011
	random = no

#Will be triggered by another event

	name = "New aircraft-model to be built"
	desc = "We will be allowed to licence produce a new aircraft model"
	picture = "no"
	style = 0


	action_a = {
		name = "OK"
		command = {  type = activate which = 4040 }
	}
}
event = {
	id = 2012
	random = no

#Will be triggered by another event

	name = "New aircraft-model to be built"
	desc = "We will be allowed to licence produce a new aircraft model"
	picture = "no"
	style = 0


	action_a = {
		name = "OK"
		command = {  type = activate which = 4050 }
	}
}
event = {
	id = 2013
	random = no

#Will be triggered by another event

	name = "New aircraft-model to be built"
	desc = "We will be allowed to licence produce a new aircraft model"
	picture = "no"
	style = 0


	action_a = {
		name = "OK"
		command = {  type = activate which = 4100 }
	}
}
event = {
	id = 2014
	random = no

#Will be triggered by another event

	name = "New aircraft-model to be built"
	desc = "We will be allowed to licence produce a new aircraft model"
	picture = "no"
	style = 0


	action_a = {
		name = "OK"
		command = {  type = activate which = 4110 }
	}
}
event = {
	id = 2015
	random = no

#Will be triggered by another event

	name = "New aircraft-model to be built"
	desc = "We will be allowed to licence produce a new aircraft model"
	picture = "no"
	style = 0


	action_a = {
		name = "OK"
		command = {  type = activate which = 4120 }
	}
}
event = {
	id = 2016
	random = no

#Will be triggered by another event

	name = "New aircraft-model to be built"
	desc = "We will be allowed to licence produce a new aircraft model"
	picture = "no"
	style = 0


	action_a = {
		name = "OK"
		command = {  type = activate which = 4130 }
	}
}
event = {
	id = 2017
	random = no

#Will be triggered by another event

	name = "New aircraft-model to be built"
	desc = "We will be allowed to licence produce a new aircraft model"
	picture = "no"
	style = 0


	action_a = {
		name = "OK"
		command = {  type = activate which = 4140 }
	}
}
event = {
	id = 2018
	random = no

#Will be triggered by another event

	name = "New aircraft-model to be built"
	desc = "We will be allowed to licence produce a new aircraft model"
	picture = "no"
	style = 0


	action_a = {
		name = "OK"
		command = {  type = activate which = 4150 }
	}
}
event = {
	id = 2019
	random = no

#Will be triggered by another event

	name = "Licence Producing abillity"
	desc = "We will be allowed to licence produce new aircraft models"
	picture = "no"
	style = 0


	action_a = {
		name = "OK"
		command = { type = activate which = 4070 }
	}
}
event = {
	id = 2020
	random = no

#Will be triggered by another event

	name = "Domestic Aircraft Production"
	desc = "We will be allowed to research and develop new aircraft models."
	picture = "no"
	style = 0


	action_a = {
		name = "OK"
		command = {  type = activate which = 4080 }
	}
}
event = {
	id = 8000
	random = no
	invention = yes

	trigger = {
		technology = 5200
		NOT = {
			is_tech_active = 7010
		}
	}

	name = "EVT_8000_NAME"#Nanotechnology
	desc = "EVT_8000_DESC"
	picture = "no"
	style = 0


	action_a = {
		name = "OK" # OK
		command = {  type = activate which = 7010 }# 
		command = {  type = activate which = 7020 }
		command = {  type = activate which = 7030 }
		command = {  type = activate which = 7040 }
		command = {  type = activate which = 7050 }
		command = {  type = activate which = 7060 }
	}
}


event = {
	id = 8001
	random = no
	invention = yes

	trigger = {
		technology = 5340
		NOT = {
			is_tech_active = 7070
		}
	}

	name = "EVT_8001_NAME"#Computer techs
	desc = "EVT_8001_DESC"
	picture = "no"
	style = 0


	action_a = {
		name = "OK" # 
		command = {  type = activate which = 7070 }# 
		command = {  type = activate which = 7080 }
		command = {  type = activate which = 7090 }
		command = {  type = activate which = 7100 }
		command = {  type = activate which = 7110 }
		command = {  type = activate which = 7120 }
		command = {  type = activate which = 7130 }
		command = {  type = activate which = 7140 }
		command = {  type = activate which = 7150 }
	}
}

event = {
	id = 8002
	random = no
	invention = yes

	trigger = {
		technology = 5520
		NOT = {
			is_tech_active = 7160
		}
	}

	name = "EVT_8002_NAME"#Fusion
	desc = "EVT_8002_DESC"
	picture = "fusion"
	style = 0


	action_a = {
		name = "OK" # OK
		command = {  type = activate which = 7160 }
		command = {  type = activate which = 7170 }
		command = {  type = activate which = 7180 }
		command = {  type = activate which = 7190 }
	}
}

event = {
	id = 8003
	random = no
	invention = yes

	trigger = {
		technology = 5490
		NOT = {
			is_tech_active = 7200
		}
	}

	name = "EVT_8003_NAME"#High energy lasers
	desc = "EVT_8003_DESC"
	picture = "no"
	style = 0


	action_a = {
		name = "OK" # OK
		command = {  type = activate which = 7200 }
		command = {  type = activate which = 7210 }
		command = {  type = activate which = 7220 }
		command = {  type = activate which = 7230 }
		command = {  type = activate which = 7240 }
		command = {  type = activate which = 7250 }
		command = {  type = activate which = 7260 }
		command = {  type = activate which = 7270 }
		command = {  type = activate which = 7280 }
		command = {  type = activate which = 7290 }
		command = {  type = activate which = 7300 }
		command = {  type = activate which = 7310 }
		command = {  type = activate which = 7320 }
		command = {  type = activate which = 7330 }
		command = {  type = activate which = 7340 }
	}
}

event = {
	id = 8004
	random = no
	invention = yes

	trigger = {
		technology = 1160
		NOT = {
			is_tech_active = 7350
		}
	}

	name = "EVT_8004_NAME"#Future Solider
	desc = "EVT_8004_DESC"
	picture = "no"
	style = 0


	action_a = {
		name = "OK" # OK
		command = {  type = activate which = 7350 }
		command = {  type = activate which = 7360 }
		command = {  type = activate which = 7370 }
		command = {  type = activate which = 7380 }
		command = {  type = activate which = 7390 }
	}
}

event = {
	id = 8005
	random = no
	invention = yes

	trigger = {
		technology = 3300
		NOT = {
			is_tech_active = 7400
		}
	}

	name = "EVT_8005_NAME"#Naval tech
	desc = "EVT_8005_DESC"
	picture = "no"
	style = 0


	action_a = {
		name = "OK" # OK
		command = {  type = activate which = 7400 }
		command = {  type = activate which = 7410 }
		command = {  type = activate which = 7420 }
		command = {  type = activate which = 7430 }
		command = {  type = activate which = 7440 }
		command = {  type = activate which = 7450 }
		command = {  type = activate which = 7460 }
		command = {  type = activate which = 7470 }
		command = {  type = activate which = 7480 }
	}
}

event = {
	id = 8006
	random = no
	invention = yes

	trigger = {
		technology = 4211
		NOT = {
			is_tech_active = 7500
		}
	}

	name = "EVT_8006_NAME"#UCAVS
	desc = "EVT_8006_DESC"
	picture = "no"
	style = 0


	action_a = {
		name = "OK" # OK
		command = {  type = activate which = 7500 }
		command = {  type = activate which = 7510 }
		command = {  type = activate which = 7520 }
		command = {  type = activate which = 7530 }
	}
}

		