focus_tree = {

	id = norway_focus

	country = {
		factor = 0

		modifier = {
			add = 20
			original_tag = NOR
		}
	}

	continuous_focus_position = { x = 2300 y = 500 }

	#Motion of Confidence Tree
	focus = {
		id = NOR_bondevik_motion_of_confidence
		icon = giant_wakes

		x = 1
		y = 0

		cost = 10

		prerequisite = { }

		mutually_exclusive = { }

		available = {

		}

		bypass = { }

		search_filters = { FOCUS_FILTER_STABILITY }
		completion_reward = {
			log = "[GetDateText]: [Root.GetName]: Focus NOR_bondevik_motion_of_confidence"
			country_event = { id = Norway.2 days = 1 }
			add_stability = 0.01
		}

		ai_will_do = {
			factor = 1
		}
	}

	focus = {
		id = NOR_stoltenberg_cabinet
		icon = race_relations2

		x = -1
		y = 1
		relative_position_id = NOR_bondevik_motion_of_confidence

		cost = 5

		prerequisite = {
			focus = NOR_bondevik_motion_of_confidence
		}

		mutually_exclusive = { }

		available = {
			has_country_leader = { name = "" }
		}

		bypass = { }

		search_filters = { FOCUS_FILTER_STABILITY FOCUS_FILTER_POLITICAL }
		completion_reward = {
			log = "[GetDateText]: [Root.GetName]: Focus NOR_stoltenberg_cabinet"
			add_political_power = 150
			add_stability = 0.02
		}

		ai_will_do = {
			factor = 1
		}
	}

	#NATO/EU Tree
	focus = {
		id = NOR_stay_in_nato
		icon = align_to_nato

		x = 2
		y = 1

		cost = 10

		prerequisite = {
			focus = NOR_bondevik_motion_of_confidence
		}

		mutually_exclusive = {
			focus = NOR_leave_nato
		}

		available = {
			has_idea = NATO_member
			has_government = democratic
		}

		bypass = { }

		search_filters = { FOCUS_FILTER_STABILITY FOCUS_FILTER_NATO }
		completion_reward = {
			log = "[GetDateText]: [Root.GetName]: Focus NOR_stay_in_nato"
			add_stability = 0.02
			every_country = {
				limit = { has_idea = NATO_member }
				add_opinion_modifier = {
					target = NOR
					modifier = reaffirmed_NATO
				}
			}
		}

		ai_will_do = {
			factor = 1
		}
	}

	focus = {
		id = NOR_leave_nato
		icon = attack_nato

		x = 2
		y = 0
		relative_position_id = NOR_stay_in_nato

		cost = 15

		prerequisite = {
			focus = NOR_bondevik_motion_of_confidence
		}

		mutually_exclusive = {
			focus = NOR_stay_in_nato
		}

		available = { }

		bypass = {
			NOT = { has_idea = NATO_member }
		}

		search_filters = { FOCUS_FILTER_NATO }
		completion_reward = {
			log = "[GetDateText]: [Root.GetName]: Focus NOR_leave_nato"
			every_other_country = {
				limit = {
					has_idea = NATO_member 
				}
				add_opinion_modifier = { target = NOR modifier = left_nato }
			}
			remove_ideas = NATO_member
		}

		ai_will_do = {
			factor = 1
			modifier = {
				factor = 0
				is_historical_focus_on = yes
			}
		}
	}



	###Haakon's Marriage Question

	##Support

	focus = {
		id = NOR_support_haakons_marriage
		icon = aristocratic_funding

		x = 6
		y = 1

		cost = 10

		prerequisite = {
			focus = NOR_bondevik_motion_of_confidence
		}

		mutually_exclusive = {
			focus = NOR_oppose_haakons_marriage
		}

		available = {
			has_country_flag = haakons_marriage_announced
		}

		bypass = { }

		search_filters = { FOCUS_FILTER_STABILITY }
		completion_reward = {
			log = "[GetDateText]: [Root.GetName]: Focus NOR_support_haakons_marriage"
			add_stability = 0.02
		}

		ai_will_do = {
			factor = 1
		}
	}

	focus = {
		id = NOR_reinforce_the_constitutional_monarchy
		icon = improve_relations_green

		x = 0
		y = 1
		relative_position_id = NOR_support_haakons_marriage

		cost = 10

		prerequisite = {
			focus = NOR_support_haakons_marriage
		}

		mutually_exclusive = {
			focus = NOR_defund_the_monarchy
		}

		available = { }

		bypass = { }

		search_filters = { FOCUS_FILTER_STABILITY FOCUS_FILTER_POLITICAL }
		completion_reward = {
			log = "[GetDateText]: [Root.GetName]: Focus NOR_reinforce_the_constitutional_monarchy"
			add_stability = 0.02
			add_ideas = political_power_bonus2
		}

		ai_will_do = {
			factor = 1
		}
	}

	focus = {
		id = NOR_economic_growth_1
		icon = money

		x = 0
		y = 2
		relative_position_id = NOR_support_haakons_marriage

		cost = 10

		prerequisite = {
			focus = NOR_reinforce_the_constitutional_monarchy
		}

		mutually_exclusive = { }

		available = { }

		bypass = { }

		search_filters = { FOCUS_FILTER_POLITICAL FOCUS_FILTER_INDUSTRY }
		completion_reward = {
			log = "[GetDateText]: [Root.GetName]: Focus NOR_economic_growth_1"
			add_political_power = 40
			random_owned_state = {
				limit = {
					free_building_slots = {
						building = industrial_complex
						size > 0
						include_locked = yes
					}
				}
				add_extra_state_shared_building_slots = 1
				add_building_construction = {
					type = industrial_complex
					level = 1
					instant_build = yes
				}
			}
			hidden_effect = {
				add_to_variable = {
					treasury = -4
				}
			}
			custom_effect_tooltip = 4_billion_expense_tt
		}

		ai_will_do = {
			factor = 1
		}
	}

	focus = {
		id = NOR_government_expansion_plans
		icon = intelligence_exchange

		x = -1
		y = 3
		relative_position_id = NOR_support_haakons_marriage

		cost = 10

		prerequisite = {
			focus = NOR_economic_growth_1
		}

		mutually_exclusive = { }

		available = { }

		bypass = { }

		search_filters = { FOCUS_FILTER_POLITICAL }
		completion_reward = {
			log = "[GetDateText]: [Root.GetName]: Focus NOR_government_expansion_plans"
			add_political_power = 100
		}

		ai_will_do = {
			factor = 1
		}
	}

	focus = {
		id = NOR_expand_the_industrial_base
		icon = industry_civilian

		x = 1
		y = 3
		relative_position_id = NOR_support_haakons_marriage

		cost = 10

		prerequisite = {
			focus = NOR_economic_growth_1
			focus = NOR_encourage_republican_sentiment
		}

		mutually_exclusive = { }

		available = { }

		bypass = { }

		search_filters = { FOCUS_FILTER_INDUSTRY }
		completion_reward = {
			log = "[GetDateText]: [Root.GetName]: Focus NOR_expand_the_industrial_base"
			add_ideas = civilian_industry_project
		}

		ai_will_do = {
			factor = 1
		}
	}

	focus = {
		id = NOR_economic_growth_2
		icon = money

		x = 0
		y = 4
		relative_position_id = NOR_support_haakons_marriage

		cost = 10

		prerequisite = {
			focus = NOR_government_expansion_plans
			focus = NOR_expand_the_industrial_base
		}
		prerequisite = {
			focus = NOR_economic_growth_1
		}

		mutually_exclusive = { }

		available = { }

		bypass = { }

		search_filters = { FOCUS_FILTER_POLITICAL FOCUS_FILTER_INDUSTRY }
		completion_reward = {
			log = "[GetDateText]: [Root.GetName]: Focus NOR_economic_growth_2"
			add_political_power = 40
			random_owned_state = {
				limit = {
					free_building_slots = {
						building = industrial_complex
						size > 0
						include_locked = yes
					}
				}
				add_extra_state_shared_building_slots = 1
				add_building_construction = {
					type = industrial_complex
					level = 1
					instant_build = yes
				}
			}
			hidden_effect = {
				add_to_variable = {
					treasury = -4
				}
			}
			custom_effect_tooltip = 4_billion_expense_tt
		}

		ai_will_do = {
			factor = 1
		}
	}

	focus = {
		id = NOR_invest_in_the_ministry_of_education_and_research
		icon = research

		x = -1
		y = 5
		relative_position_id = NOR_support_haakons_marriage

		cost = 10

		prerequisite = {
			focus = NOR_government_expansion_plans
		}

		mutually_exclusive = { }

		available = { }

		bypass = { }

		search_filters = { FOCUS_FILTER_RESEARCH }
		completion_reward = {
			log = "[GetDateText]: [Root.GetName]: Focus NOR_invest_in_the_ministry_of_education_and_research"
			add_research_slot = 1
		}

		ai_will_do = {
			factor = 1
		}
	}

	focus = {
		id = NOR_further_research_investments
		icon = tech_sharing

		x = -1
		y = 6
		relative_position_id = NOR_support_haakons_marriage

		cost = 10

		prerequisite = {
			focus = NOR_invest_in_the_ministry_of_education_and_research
		}

		mutually_exclusive = { }

		available = { }

		bypass = { }

		search_filters = { FOCUS_FILTER_RESEARCH }
		completion_reward = {
			log = "[GetDateText]: [Root.GetName]: Focus NOR_further_research_investments"
			add_ideas = scientific_advances2
		}

		ai_will_do = {
			factor = 1
		}
	}

	##Oppose

	focus = {
		id = NOR_oppose_haakons_marriage
		icon = anti_establishment

		x = 3
		y = 0
		relative_position_id = NOR_support_haakons_marriage

		cost = 10

		cancel_if_invalid = yes

		prerequisite = {
			focus = NOR_bondevik_motion_of_confidence
		}

		mutually_exclusive = {
			focus = NOR_support_haakons_marriage
		}

		available = {
			has_country_flag = haakons_marriage_announced
			NOT = { has_country_flag = haakon_married }
		}

		bypass = { }

		completion_reward = {
			log = "[GetDateText]: [Root.GetName]: Focus NOR_oppose_haakons_marriage"
			add_stability = -0.03
		}

		ai_will_do = {
			factor = 1
			modifier = {
				factor = 0
				is_historical_focus_on = yes
			}
		}
	}

	#Radical Left Wing

	focus = {
		id = NOR_defund_the_monarchy
		icon = stolen_papers

		x = -1
		y = 1
		relative_position_id = NOR_oppose_haakons_marriage

		cost = 10

		prerequisite = {
			focus = NOR_support_haakons_marriage
			focus = NOR_oppose_haakons_marriage
		}

		mutually_exclusive = {
			focus = NOR_reinforce_the_constitutional_monarchy
		}
		mutually_exclusive = {
			focus = NOR_find_a_better_bride
		}

		available = { }

		bypass = { }

		search_filters = { FOCUS_FILTER_STABILITY FOCUS_FILTER_POLITICAL }
		completion_reward = {
			log = "[GetDateText]: [Root.GetName]: Focus NOR_defund_the_monarchy"
			add_war_support = -0.05
			add_political_power = 40
			add_stability = 0.03
		}

		ai_will_do = {
			factor = 1
			modifier = {
				factor = 0
				is_historical_focus_on = yes
			}
		}
	}

	focus = {
		id = NOR_encourage_republican_sentiment
		icon = democracy

		x = 0
		y = 1
		relative_position_id = NOR_defund_the_monarchy

		cost = 10

		prerequisite = {
			focus = NOR_defund_the_monarchy
		}

		mutually_exclusive = { }

		available = {

		NOT = { has_government = nationalist }
		NOT = { has_government = fascism }

		}

		bypass = { }

		search_filters = { FOCUS_FILTER_POLITICAL }
		completion_reward = {
			log = "[GetDateText]: [Root.GetName]: Focus NOR_encourage_republican_sentiment"
			add_political_power = 150
				add_popularity = { ideology = communism popularity = 0.05 }
				add_popularity = { ideology = democratic popularity = 0.05 }
				recalculate_party = yes
			}


		ai_will_do = {
			factor = 1
		}
	}

	focus = {
		id = NOR_republican_militias
		icon = entente

		x = 1
		y = 2
		relative_position_id = NOR_defund_the_monarchy

		cost = 10

		prerequisite = {
			focus = NOR_encourage_republican_sentiment
		}

		mutually_exclusive = { }

		available = {

		NOT = { has_government = nationalist }
		NOT = { has_government = fascism }

		}

		bypass = { }

		search_filters = { FOCUS_FILTER_MANPOWER }
		completion_reward = {
			log = "[GetDateText]: [Root.GetName]: Focus NOR_republican_militias"
			add_ideas = additional_recruits2
		}

		ai_will_do = {
			factor = 1
		}
	}

	focus = {
		id = NOR_abolish_the_monarchy
		icon = anti_monarchism4

		x = 0
		y = 2
		relative_position_id = NOR_encourage_republican_sentiment

		cost = 10

		prerequisite = {
			focus = NOR_encourage_republican_sentiment
		}

		mutually_exclusive = { }

		available = {
			NOT = { has_government = nationalist }
		  NOT = { has_government = fascism }


		}

		bypass = { }

		search_filters = { FOCUS_FILTER_POLITICAL }
		completion_reward = {
			log = "[GetDateText]: [Root.GetName]: Focus NOR_abolish_the_monarchy"
			add_political_power = 150
			add_popularity = { 
				ideology = nationalist 
				popularity = -0.05 
			}
			add_to_variable = { party_pop_array^23 = -0.05 }
			recalculate_party = yes
		}

		ai_will_do = {
			factor = 1
		}
	}



	focus = {
		id = NOR_democratic_socialism
		icon = democracy6

		x = -1
		y = 3
		relative_position_id = NOR_encourage_republican_sentiment

		cost = 10

		prerequisite = {
			focus = NOR_abolish_the_monarchy
		}

		mutually_exclusive = {
			focus = NOR_radical_socialism
		}

		available = { }

		bypass = { }

		search_filters = { FOCUS_FILTER_POLITICAL }
		completion_reward = {
			log = "[GetDateText]: [Root.GetName]: Focus NOR_democratic_socialism"
			add_popularity = {
				ideology = democratic
				popularity = 0.15
			}
			recalculate_party = yes
		}

		ai_will_do = {
			factor = 1
		}
	}

	focus = {
		id = NOR_radical_socialism
		icon = communism2

		x = 1
		y = 3
		relative_position_id = NOR_encourage_republican_sentiment

		cost = 10

		prerequisite = {
			focus = NOR_abolish_the_monarchy
		}

		mutually_exclusive = {
			focus = NOR_democratic_socialism
		}

		available = {
			OR = {
				is_puppet = no
				has_government = communism
			}
		}

		bypass = { }

		search_filters = { FOCUS_FILTER_POLITICAL FOCUS_FILTER_INTERNAL_FACTION }
		completion_reward = {
			log = "[GetDateText]: [Root.GetName]: Focus NOR_radical_socialism"
			add_war_support = -0.25
			add_popularity = {
				ideology = communism
				popularity = 0.25
			}
			add_to_variable = { party_pop_array^5 = 0.25 }
			hidden_effect = {
				clear_array = ruling_party
				clear_array = gov_coalition_array
				add_to_array = { ruling_party = 5 }
				update_government_coalition_strength = yes
				update_party_name = yes
				set_coalition_drift = yes
				meta_effect = {
					text = {
						set_country_flag = [META_SET_RULING_PARTY]
					}
					META_SET_RULING_PARTY = "[meta_set_ruling_leader]"
				}
				set_leader = yes
			}			
			set_politics = {
				ruling_party = communism
				elections_allowed = no
			}
			recalculate_party = yes
			if = { 
				limit = { has_idea = labour_unions }
				visually_display_opinion_rise_labour_unions = yes
				set_country_flag = current_labour_unions
				increase_internal_faction_opinion = yes
			}			
		}

		ai_will_do = {
			factor = 1
			modifier = {
				factor = 0
				is_historical_focus_on = yes
			}
		}
	}


	#Monarchist

	focus = {
		id = NOR_find_a_better_bride
		icon = monarchism2

		x = 5
		y = 1
		relative_position_id = NOR_oppose_haakons_marriage

		cost = 10

		prerequisite = {
			focus = NOR_oppose_haakons_marriage
		}

		mutually_exclusive = {
			focus = NOR_defund_the_monarchy
		}

		available = { }

		bypass = { }

		search_filters = { FOCUS_FILTER_POLITICAL }
		completion_reward = {
			log = "[GetDateText]: [Root.GetName]: Focus NOR_find_a_better_bride"
			add_popularity = {
				ideology = nationalist
				popularity = 0.1
			}
			add_to_variable = { party_pop_array^23 = 0.10 }
			add_to_variable = { party_pop_array^21 = -0.10 }			
			recalculate_party = yes
		}

		ai_will_do = {
			factor = 1
		}
	}

	focus = {
		id = NOR_british_princess
		icon = british_monarchy

		x = -3
		y = 1
		relative_position_id = NOR_find_a_better_bride

		cost = 10

		prerequisite = {
			focus = NOR_find_a_better_bride
		}

		mutually_exclusive = {
			focus = NOR_belgian_princess
		}
		mutually_exclusive = {
			focus = NOR_swedish_princess
		}
		mutually_exclusive = {
			focus = NOR_japanese_princess
		}

		available = {
			NOT = { has_war_with = ENG }
			NOT = { ENG = { has_government = communism } }
		}


		bypass = { }

		search_filters = { FOCUS_FILTER_POLITICAL }
		completion_reward = {
			log = "[GetDateText]: [Root.GetName]: Focus NOR_british_princess"
			ENG = {
				news_event = { id = Norway.5 hours = 4 }
				add_opinion_modifier = {
					target = NOR
					modifier = declaration_of_friendship
				}
			}
		}

		ai_will_do = {
			factor = 1
		}
	}

	focus = {
		id = NOR_belgian_princess
		icon = belgian_monarchy

		x = -1
		y = 1
		relative_position_id = NOR_find_a_better_bride

		cost = 10

		prerequisite = {
			focus = NOR_find_a_better_bride
		}

		mutually_exclusive = {
			focus = NOR_british_princess
		}
		mutually_exclusive = {
			focus = NOR_swedish_princess
		}
		mutually_exclusive = {
			focus = NOR_japanese_princess
		}

		available = {
			NOT = { has_war_with = BEL }
			NOT = { BEL = { has_government = communism } }
		}

		bypass = { }

		search_filters = { FOCUS_FILTER_POLITICAL }
		completion_reward = {
			log = "[GetDateText]: [Root.GetName]: Focus NOR_belgian_princess"
			BEL = {
				news_event = { id = Norway.5 hours = 4 }
				add_opinion_modifier = {
					target = NOR
					modifier = declaration_of_friendship
				}
			}
		}

		ai_will_do = {
			factor = 1
		}
	}



	focus = {
		id = NOR_swedish_princess
		icon = swedish_monarchy

		x = 1
		y = 1
		relative_position_id = NOR_find_a_better_bride

		cost = 10

		prerequisite = {
			focus = NOR_find_a_better_bride
		}

		mutually_exclusive = {
			focus = NOR_british_princess
		}
		mutually_exclusive = {
			focus = NOR_belgian_princess
		}
		mutually_exclusive = {
			focus = NOR_japanese_princess
		}

		available = {
			NOT = { has_war_with = SWE }
			NOT = { SWE = { has_government = communism } }
		}

		bypass = { }

		search_filters = { FOCUS_FILTER_POLITICAL }
		completion_reward = {
			log = "[GetDateText]: [Root.GetName]: Focus NOR_swedish_princess"
			SWE = {
				news_event = { id = Norway.5 hours = 4 }
				add_opinion_modifier = {
					target = NOR
					modifier = declaration_of_friendship
				}
			}
		}

		ai_will_do = {
			factor = 1
		}
	}

	focus = {
		id = NOR_japanese_princess
		icon = japanese_monarchy

		x = 3
		y = 1
		relative_position_id = NOR_find_a_better_bride

		cost = 10

		prerequisite = {
			focus = NOR_find_a_better_bride
		}

		mutually_exclusive = {
			focus = NOR_british_princess
		}
		mutually_exclusive = {
			focus = NOR_belgian_princess
		}
		mutually_exclusive = {
			focus = NOR_swedish_princess
		}

		available = {
			NOT = { has_war_with = JAP }
			NOT = { JAP = { has_government = communism } }
		}

		bypass = { }

		search_filters = { FOCUS_FILTER_POLITICAL }
		completion_reward = {
			log = "[GetDateText]: [Root.GetName]: Focus NOR_japanese_princess"
			JAP = {
				news_event = { id = Norway.5 hours = 4 }
				add_opinion_modifier = {
					target = NOR
					modifier = declaration_of_friendship
				}
			}
		}

		ai_will_do = {
			factor = 1
		}
	}

	focus = {
		id = NOR_the_future_queen_of_norway
		icon = norwegian_monarchy

		x = 0
		y = 2
		relative_position_id = NOR_find_a_better_bride

		cost = 10

		prerequisite = {
			focus = NOR_british_princess
			focus = NOR_belgian_princess
			focus = NOR_swedish_princess
			focus = NOR_japanese_princess
		}

		mutually_exclusive = { }

		available = { }

		bypass = { }

		search_filters = { FOCUS_FILTER_POLITICAL }
		completion_reward = {
			log = "[GetDateText]: [Root.GetName]: Focus NOR_the_future_queen_of_norway"
			add_popularity = {
				ideology = nationalist
				popularity = 0.15
			}
			recalculate_party = yes
			add_to_variable = { party_pop_array^23 = 0.15 }
			add_to_variable = { party_pop_array^21 = -0.15 }			
			recalculate_party = yes
		}

		ai_will_do = {
			factor = 1
		}
	}

	focus = {
		id = NOR_royal_government_decree
		icon = monarchism

		x = 0
		y = 3
		relative_position_id = NOR_find_a_better_bride

		cost = 10

		prerequisite = {
			focus = NOR_the_future_queen_of_norway
		}

		mutually_exclusive = { }

		available = {
			#NOT = {
			#	has_idea = EU_member
			#}
		}

		bypass = { }

		search_filters = { FOCUS_FILTER_POLITICAL }
		completion_reward = {
			log = "[GetDateText]: [Root.GetName]: Focus NOR_royal_government_decree"
			add_popularity = {
				ideology = nationalist
				popularity = 0.25
			}
			add_to_variable = { party_pop_array^23 = 0.25 }
			add_to_variable = { party_pop_array^21 = -0.25 }
			recalculate_party = yes
			hidden_effect = {
				clear_array = ruling_party
				clear_array = gov_coalition_array
				add_to_array = { ruling_party = 23 }
				update_government_coalition_strength = yes
				update_party_name = yes
				set_coalition_drift = yes
				meta_effect = {
					text = {
						set_country_flag = [META_SET_RULING_PARTY]
					}
					META_SET_RULING_PARTY = "[meta_set_ruling_leader]"
				}
				set_leader = yes
			}
			set_politics = {
				ruling_party = nationalist
				elections_allowed = no
			}
			recalculate_party = yes
		}

		ai_will_do = {
			factor = 1
		}
	}

	focus = {
		id = NOR_joint_oil_drills
		icon = oil_trade

		x = -3
		y = 4
		relative_position_id = NOR_find_a_better_bride

		cost = 10

		prerequisite = {
			focus = NOR_royal_government_decree
		}
		prerequisite = {
			focus = NOR_british_princess
		}

		mutually_exclusive = { }

		available = {
			NOT = { has_war_with = ENG }
		}

		bypass = { }

		search_filters = { FOCUS_FILTER_INTERNAL_FACTION FOCUS_FILTER_POLITICAL FOCUS_FILTER_RESOURCE }
		completion_reward = {
			log = "[GetDateText]: [Root.GetName]: Focus NOR_joint_oil_drills"
			ENG = { country_event = { id = Norway.4 days = 1 } }
			NOR = { country_event = { id = Norway.4 days = 1 } }
			if = { 
				limit = { has_idea = fossil_fuel_industry }
				visually_display_opinion_rise_fossil_fuel_industry = yes
				set_country_flag = current_fossil_fuel_industry
				increase_internal_faction_opinion = yes
			}
		}

		ai_will_do = {
			factor = 1
		}
	}

	focus = {
		id = NOR_additional_european_trade
		icon = euro

		x = -1
		y = 4
		relative_position_id = NOR_find_a_better_bride

		cost = 10

		prerequisite = {
			focus = NOR_royal_government_decree
		}
		prerequisite = {
			focus = NOR_belgian_princess
		}

		mutually_exclusive = { }

		available = {
			NOT = { has_war_with = BEL }
		}

		bypass = { }

		search_filters = { FOCUS_FILTER_POLITICAL }
		completion_reward = {
			log = "[GetDateText]: [Root.GetName]: Focus NOR_additional_european_trade"
			every_country = {
				limit = {
					NOT = { original_tag = NOR }

				}
				add_opinion_modifier = {
					target = NOR
					modifier = european_commitment
				}
				add_opinion_modifier = {
					target = NOR
					modifier = declaration_of_friendship
				}
			}
		}

		ai_will_do = {
			factor = 1
		}
	}

	focus = {
		id = NOR_the_union_of_sweden_norway
		icon = major_alliance

		x = 1
		y = 4
		relative_position_id = NOR_find_a_better_bride

		cost = 10

		prerequisite = {
			focus = NOR_royal_government_decree
		}
		prerequisite = {
			focus = NOR_swedish_princess
		}

		mutually_exclusive = { }

		available = {
			NOT = { has_war_with = SWE }
			is_puppet = no
			has_government = nationalist
			SWE = { is_puppet = no }
			SWE = { has_government = nationalist }
			SWE = {
				#NOT = {
				#	has_idea = EU_member
				#}
			}
			OR = {
				is_in_faction_with = SWE
				AND = {
					is_in_faction = no
					SWE = { is_in_faction = no }
				}
			}
		}

		bypass = { }

		search_filters = { FOCUS_FILTER_ANNEXATION }
		completion_reward = {
			log = "[GetDateText]: [Root.GetName]: Focus NOR_the_union_of_sweden_norway"
			annex_country = { target = SWE transfer_troops = yes }
			set_cosmetic_tag = Norway_Sweden
			clr_country_flag = dynamic_flag
		}

		ai_will_do = {
			factor = 1
		}
	}

	focus = {
		id = NOR_expand_the_navy
		icon = navy2

		x = 3
		y = 4
		relative_position_id = NOR_find_a_better_bride

		cost = 10

		prerequisite = {
			focus = NOR_royal_government_decree
		}
		prerequisite = {
			focus = NOR_japanese_princess
		}

		mutually_exclusive = { }

		available = {
			NOT = { has_war_with = JAP }
		}

		bypass = { }

		search_filters = { FOCUS_FILTER_POLITICAL FOCUS_FILTER_WAR_SUPPORT }
		completion_reward = {
			log = "[GetDateText]: [Root.GetName]: Focus NOR_expand_the_navy"

			add_political_power = 150
			add_war_support = 0.05
			navy_experience = 50
		}

		ai_will_do = {
			factor = 1
		}
	}

	#Import German Tanks Tree
	focus = {
		id = NOR_import_german_tanks
		icon = leopard_2a4

		x = 18
		y = 0

		cost = 10

		prerequisite = { }

		mutually_exclusive = {
			focus = NOR_import_american_tanks
		}
		mutually_exclusive = {
			focus = NOR_import_russian_tanks
		}

		available = {
			NOT = { has_war_with = GER }
			OR = {
				is_in_faction_with = GER
				is_in_faction = no
			}
		}

		bypass = { }

		search_filters = { FOCUS_FILTER_EQUIPMENT }
		completion_reward = {
			log = "[GetDateText]: [Root.GetName]: Focus NOR_import_german_tanks"
			add_political_power = -30
			add_equipment_to_stockpile = {
				type = MBT_4
				amount = 100
				producer = GER
			}
			GER = {
				add_opinion_modifier = { target = NOR modifier = military_deals }
			}
		}

		ai_will_do = {
			factor = 1
		}
	}

	focus = {
		id = NOR_import_american_tanks
		icon = m1a1_abrams

		x = 2
		y = 0
		relative_position_id = NOR_import_german_tanks

		cost = 10

		prerequisite = { }

		mutually_exclusive = {
			focus = NOR_import_german_tanks
		}
		mutually_exclusive = {
			focus = NOR_import_russian_tanks
		}

		available = {
			NOT = { has_war_with = USA }
			OR = {
				is_in_faction_with = USA
				is_in_faction = no
			}
		}

		bypass = { }

		search_filters = { FOCUS_FILTER_EQUIPMENT }
		completion_reward = {
			log = "[GetDateText]: [Root.GetName]: Focus NOR_import_american_tanks"
			add_political_power = -45
			add_equipment_to_stockpile = {
				type = MBT_4
				amount = 100
				producer = USA
			}
			USA = {
				add_opinion_modifier = { target = NOR modifier = military_deals }
			}
		}

		ai_will_do = {
			factor = 1
			modifier = {
				factor = 0
				is_historical_focus_on = yes
			}
		}
	}

	focus = {
		id = NOR_import_russian_tanks
		icon = t90

		x = 4
		y = 0
		relative_position_id = NOR_import_german_tanks

		cost = 10

		prerequisite = { }

		mutually_exclusive = {
			focus = NOR_import_german_tanks
		}
		mutually_exclusive = {
			focus = NOR_import_american_tanks
		}

		available = {
			NOT = { has_war_with = SOV }
			OR = {
				is_in_faction_with = SOV
				is_in_faction = no
			}
		}

		bypass = { }

		search_filters = { FOCUS_FILTER_EQUIPMENT }
		completion_reward = {
			log = "[GetDateText]: [Root.GetName]: Focus NOR_import_russian_tanks"
			add_political_power = -60
			add_equipment_to_stockpile = {
				type = MBT_4
				amount = 100
				producer = SOV
			}
			SOV = {
				add_opinion_modifier = { target = NOR modifier = military_deals }
			}
		}

		ai_will_do = {
			factor = 1
			modifier = {
				factor = 0
				is_historical_focus_on = yes
			}
		}
	}


	focus = {
		id = NOR_artillery_models
		icon = artillery

		x = 2
		y = 1
		relative_position_id = NOR_import_german_tanks

		cost = 10

		prerequisite = {
			focus = NOR_import_american_tanks
			focus = NOR_import_german_tanks
			focus = NOR_import_russian_tanks
		}

		mutually_exclusive = { }

		available = { }

		bypass = { }

		search_filters = { FOCUS_FILTER_RESEARCH }
		completion_reward = {
			log = "[GetDateText]: [Root.GetName]: Focus NOR_artillery_models"
			add_tech_bonus = {
				name = artillery_bonus
				bonus = 0.4
				uses = 1
				category = Cat_ARTY
			}
		}

		ai_will_do = {
			factor = 1
		}
	}

	focus = {
		id = NOR_infantry_weapons
		icon = small_arms2

		x = 1
		y = 2
		relative_position_id = NOR_import_german_tanks

		cost = 10

		prerequisite = {
			focus = NOR_artillery_models
		}

		mutually_exclusive = { }

		available = { }

		bypass = { }

		search_filters = { FOCUS_FILTER_RESEARCH }
		completion_reward = {
			log = "[GetDateText]: [Root.GetName]: Focus NOR_infantry_weapons"
			add_tech_bonus = {
				name = infantry_bonus
				bonus = 0.3
				uses = 2
				category = Cat_INF_WEP
			}
		}

		ai_will_do = {
			factor = 1
		}
	}

	focus = {
		id = NOR_production_efficiency_focus
		icon = industry_military

		x = 3
		y = 2
		relative_position_id = NOR_import_german_tanks

		cost = 10

		prerequisite = {
			focus = NOR_artillery_models
		}

		mutually_exclusive = { }

		available = { }

		bypass = { }

		search_filters = { FOCUS_FILTER_INDUSTRY }
		completion_reward = {
			log = "[GetDateText]: [Root.GetName]: Focus NOR_production_efficiency_focus"
		add_ideas = economic_autonomy
		}

		ai_will_do = {
			factor = 1
		}
	}

	#Expand Haakonsvern
	focus = {
		id = NOR_expand_haakonsvern
		icon = amphibious_assault

		x = 24
		y = 0

		cost = 10

		prerequisite = { }

		mutually_exclusive = { }

		available = { }

		bypass = { }

		search_filters = { FOCUS_FILTER_INDUSTRY }
		completion_reward = {
			log = "[GetDateText]: [Root.GetName]: Focus NOR_expand_haakonsvern"

			30 = {
				add_extra_state_shared_building_slots = 4
				add_building_construction = {
					type = naval_base
					level = 4
					instant_build = yes
				}
			}
			hidden_effect = {
				add_to_variable = {
					treasury = -4
				}
			}
			custom_effect_tooltip = 4_billion_expense_tt
		}

		ai_will_do = {
			factor = 1
		}
	}

	focus = {
		id = NOR_additional_dockyards
		icon = naval_dockyard

		x = 0
		y = 1
		relative_position_id = NOR_expand_haakonsvern

		cost = 10

		prerequisite = {
			focus = NOR_expand_haakonsvern
		}

		mutually_exclusive = { }

		available = { }

		bypass = { }

		search_filters = { FOCUS_FILTER_INDUSTRY }
		completion_reward = {
			log = "[GetDateText]: [Root.GetName]: Focus NOR_additional_dockyards"
			31 = {
				add_extra_state_shared_building_slots = 2
				add_building_construction = {
					type = dockyard
					level = 2
					instant_build = yes
				}
			}
			hidden_effect = {
				add_to_variable = {
					treasury = -8
				}
			}
			custom_effect_tooltip = 8_billion_expense_tt
		}

		ai_will_do = {
			factor = 1
		}
	}

	focus = {
		id = NOR_expand_the_naval_industrial_base
		icon = navy3

		x = 0
		y = 2
		relative_position_id = NOR_expand_haakonsvern

		cost = 10

		prerequisite = {
			focus = NOR_additional_dockyards
		}

		mutually_exclusive = { }

		available = { }

		bypass = { }

		search_filters = { FOCUS_FILTER_INDUSTRY FOCUS_FILTER_INTERNAL_FACTION  }
		completion_reward = {
			log = "[GetDateText]: [Root.GetName]: Focus NOR_expand_the_naval_industrial_base"

			navy_experience = 25

			32 = {

				add_extra_state_shared_building_slots = 2
				add_building_construction = {
				type = dockyard
				level = 2
				instant_build = yes
				}
			}
			hidden_effect = {
				add_to_variable = {
					treasury = -8
				}
			}
			custom_effect_tooltip = 8_billion_expense_tt		
			if = { 
				limit = { has_idea = maritime_industry }
				visually_display_opinion_rise_maritime_industry = yes
				set_country_flag = current_maritime_industry
				increase_internal_faction_opinion = yes
			}
		}
		ai_will_do = {
			factor = 1
		}

}

	#Northern Oil Investments Tree
	focus = {
		id = NOR_northern_oil_investments
		icon = oil_production

		x = 0
		y = 3

		cost = 10

		prerequisite = { }

		mutually_exclusive = { }

		available = {
			has_full_control_of_state = 31
		}

		bypass = { }

		search_filters = { FOCUS_FILTER_RESOURCE }
		completion_reward = {
			log = "[GetDateText]: [Root.GetName]: Focus NOR_northern_oil_investments"
			31 = {
				add_resource = {
					type = oil
					amount = 10
				}
			}
			hidden_effect = { add_to_variable = { treasury = -4 } }
			custom_effect_tooltip = 4_billion_expense_tt
		}

		ai_will_do = {
			factor = 1
		}
	}

	focus = {
		id = NOR_western_oil_investments
		icon = oil_production

		x = 2
		y = 0
		relative_position_id = NOR_northern_oil_investments

		cost = 10

		prerequisite = { }

		mutually_exclusive = { }

		available = {
			has_full_control_of_state = 30
		}

		bypass = { }

		search_filters = { FOCUS_FILTER_RESOURCE }
		completion_reward = {
			log = "[GetDateText]: [Root.GetName]: Focus NOR_western_oil_investments"
			30 = {
				add_resource = {
					type = oil
					amount = 10
				}
			}
			hidden_effect = { add_to_variable = { treasury = -5 } }
			custom_effect_tooltip = 5_billion_expense_tt
		}

		ai_will_do = {
			factor = 1
		}
	}

	focus = {
		id = NOR_southern_oil_investments
		icon = oil_production

		x = 4
		y = 0
		relative_position_id = NOR_northern_oil_investments

		cost = 10

		prerequisite = { }

		mutually_exclusive = { }

		available = {
			has_full_control_of_state = 32
		}

		bypass = { }

		search_filters = { FOCUS_FILTER_RESOURCE }
		completion_reward = {
			log = "[GetDateText]: [Root.GetName]: Focus NOR_southern_oil_investments"
			32 = {
				add_resource = {
					type = oil
					amount = 10
				}
			}
			hidden_effect = { add_to_variable = { treasury = -4 } }
			custom_effect_tooltip = 4_billion_expense_tt
		}

		ai_will_do = {
			factor = 1
		}
	}

	focus = {
		id = NOR_expand_e6_and_e39
		icon = infrastructure

		x = 0
		y = 1
		relative_position_id = NOR_northern_oil_investments

		cost = 20

		prerequisite = { }

		mutually_exclusive = { }

		available = { has_full_control_of_state = 30
								 has_full_control_of_state = 31
								 has_full_control_of_state = 32
								 has_full_control_of_state = 542 }

		bypass = { }

		search_filters = { FOCUS_FILTER_INDUSTRY }
		completion_reward = {
			log = "[GetDateText]: [Root.GetName]: Focus NOR_expand_e6_and_e39"

				30 = {
					add_building_construction = {
						type = infrastructure
						level = 2
						instant_build = yes
					}
				}


				31 = {
					add_building_construction = {
						type = infrastructure
						level = 2
						instant_build = yes
					}
			}

				32 = {
					add_building_construction = {
						type = infrastructure
						level = 2
						instant_build = yes
					}
				}
				542 = {
					add_building_construction = {
						type = infrastructure
						level = 2
						instant_build = yes
					}
				}
				hidden_effect = {
					add_to_variable = {
						treasury = -4
					}
				}
				custom_effect_tooltip = 4_billion_expense_tt
			}


		ai_will_do = {
			factor = 1
		}
	}

	focus = {
		id = NOR_resource_production_program
		icon = production

		x = 2
		y = 1
		relative_position_id = NOR_northern_oil_investments

		cost = 10

		prerequisite = {
			focus = NOR_northern_oil_investments
		}
		prerequisite = {
			focus = NOR_western_oil_investments
		}
		prerequisite = {
			focus = NOR_southern_oil_investments
		}

		mutually_exclusive = { }

		available = { }

		bypass = { }

		search_filters = { FOCUS_FILTER_RESOURCE }
		completion_reward = {
			log = "[GetDateText]: [Root.GetName]: Focus NOR_resource_production_program"
			add_ideas = resource_production_bonus2
			if = { 
				limit = { has_idea = fossil_fuel_industry }
				visually_display_opinion_rise_fossil_fuel_industry = yes
				set_country_flag = current_fossil_fuel_industry
				increase_internal_faction_opinion = yes
			}
		}

		ai_will_do = {
			factor = 1
		}
	}

	focus = {
		id = NOR_invest_in_ostlandet
		icon = industry_civilian

		x = 1
		y = 2
		relative_position_id = NOR_northern_oil_investments

		cost = 10

		prerequisite = {
			focus = NOR_expand_e6_and_e39
		}
		prerequisite = {
			focus = NOR_resource_production_program
		}

		mutually_exclusive = { }

		available = {
			has_full_control_of_state = 31
		}

		bypass = { }

		search_filters = { FOCUS_FILTER_INDUSTRY }
		completion_reward = {
			log = "[GetDateText]: [Root.GetName]: Focus NOR_invest_in_ostlandet"

				31 = {
					add_extra_state_shared_building_slots = 2
					add_building_construction = {
						type = industrial_complex
						level = 2
						instant_build = yes
					}
				}
				hidden_effect = {
					add_to_variable = {
						treasury = -8
					}
				}
				custom_effect_tooltip = 8_billion_expense_tt
		}

		ai_will_do = {
			factor = 1
		}
	}

	focus = {
		id = NOR_invest_in_vestlandet
		icon = industry_civilian

		x = 1
		y = 3
		relative_position_id = NOR_northern_oil_investments

		cost = 10

		prerequisite = {
			focus = NOR_invest_in_ostlandet
		}

		mutually_exclusive = { }

		available = {
			has_full_control_of_state = 30
		}

		bypass = { }

		search_filters = { FOCUS_FILTER_INDUSTRY }
		completion_reward = {
			log = "[GetDateText]: [Root.GetName]: Focus NOR_invest_in_vestlandet"

				30 = {
					add_extra_state_shared_building_slots = 2
					add_building_construction = {
						type = industrial_complex
						level = 2
						instant_build = yes
					}
				}
				hidden_effect = {
					add_to_variable = {
						treasury = -8
					}
				}
				custom_effect_tooltip = 8_billion_expense_tt
		}

		ai_will_do = {
			factor = 1
		}
	}


##############################
###	Start of EU Focus Tree ###	x = 15 y = 12
##############################

shared_focus = EU001
	
############################	
### End of EU Focus Tree ###	
############################

  }
