###Jumaron and Angriest Bird

focus_tree = {

	id = united_kingdom_focus

	country = {
		factor = 0

		modifier = {
			add = 20
			original_tag = ENG
		}
	}
	continuous_focus_position = { x = 300 y = 300 }

	focus = {
		id = ENG_vitalize_westminster
		icon = demand_territory2
		x = 6
		y = 0
		cost = 10

		search_filters = {FOCUS_FILTER_POLITICAL}

		completion_reward = {
			log = "[GetDateText]: [Root.GetName]: Focus ENG_vitalize_westminster"
			add_political_power = 50
			add_popularity = {
				ideology = democratic
				popularity = 0.03
			}
			add_popularity = {
				ideology = communism
				popularity = 0.03
			}
			recalculate_party = yes
		}

		ai_will_do = {
			factor = 1
		}
	}

	focus = {
		id = ENG_the_future_of_britain
		icon = propaganda
		x = 27
		y = 0
		cost = 10

		search_filters = {FOCUS_FILTER_POLITICAL}

		completion_reward = {
			log = "[GetDateText]: [Root.GetName]: Focus ENG_the_future_of_britain"
			add_political_power = 50
		}

		ai_will_do = {
			factor = 1
		}
	}

	focus = {
		id = ENG_british_armed_forces
		icon = army_logistics
		x = 46
		y = 0
		cost = 10

		completion_reward = {
			log = "[GetDateText]: [Root.GetName]: Focus ENG_british_armed_forces"
			army_experience = 5
			navy_experience = 5
		}

		ai_will_do = {
			factor = 1
		}
	}

	focus = {
		id = ENG_economic_stimulus
		icon = consumer_goods
		x = 2
		y = 1
		cost = 10

		prerequisite = {
			focus = ENG_vitalize_westminster
		}

		search_filters = {FOCUS_FILTER_POLITICAL FOCUS_FILTER_RESEARCH}

		completion_reward = {
			log = "[GetDateText]: [Root.GetName]: Focus ENG_economic_stimulus"
			add_tech_bonus = {
				name = industrial_bonus
				bonus = 0.4
				uses = 1
				category = industry
			}
			add_2_popularity = yes
		}

		ai_will_do = {
			factor = 1
		}
	}

	focus = {
		id = ENG_political_reform
		icon = demand_territory
		x = 10
		y = 1
		cost = 10

		prerequisite = {
			focus = ENG_vitalize_westminster
		}

		search_filters = {FOCUS_FILTER_POLITICAL}

		completion_reward = {
			log = "[GetDateText]: [Root.GetName]: Focus ENG_political_reform"
			add_political_power = 50
		}

		ai_will_do = {
			factor = 1
		}
	}

	focus = {
		id = ENG_democratic_tradition
		icon = democracy
		x = 22
		y = 1
		cost = 10

		prerequisite = {
			focus = ENG_the_future_of_britain
		}

		search_filters = {FOCUS_FILTER_EUROPEAN_UNION FOCUS_FILTER_POLITICAL}

		mutually_exclusive = { }

		completion_reward = {
			log = "[GetDateText]: [Root.GetName]: Focus ENG_democratic_tradition"
			EU_eurosceptic_decline_3_percent = yes
			ROOT_eurosceptic_decline_5_percent = yes
			add_5_popularity = yes
		}

		ai_will_do = {
			factor = 1
		}
	}

	focus = {
		id = ENG_a_new_path
		icon = anti_democracy
		x = 32
		y = 1
		cost = 10

		prerequisite = {
			focus = ENG_the_future_of_britain
		}

		mutually_exclusive = { }

		search_filters = {FOCUS_FILTER_POLITICAL}

		available = {
			#NOT = {
			#	has_idea = EU_member
			#}
		}

		completion_reward = {
			log = "[GetDateText]: [Root.GetName]: Focus ENG_a_new_path"
			add_popularity = {
				ideology = democratic
				popularity = -0.05
			}
			recalculate_party = yes
		}

		ai_will_do = {
			factor = 1
			modifier = {
				factor = 0
				is_historical_focus_on = yes
			}
		}
	}

	focus = {
		id = ENG_focus_on_the_army
		icon = infantry_commonwealth
		x = 44
		y = 1
		cost = 10

		prerequisite = {
			focus = ENG_british_armed_forces
		}

		completion_reward = {
			log = "[GetDateText]: [Root.GetName]: Focus ENG_focus_on_the_army"
			army_experience = 20
		}

		ai_will_do = {
			factor = 1
		}
	}

	focus = {
		id = ENG_focus_on_the_navy
		icon = navy2
		x = 48
		y = 1
		cost = 10

		prerequisite = {
			focus = ENG_british_armed_forces
		}

		completion_reward = {
			log = "[GetDateText]: [Root.GetName]: Focus ENG_focus_on_the_navy"
			navy_experience = 20
		}

		ai_will_do = {
			factor = 1
		}
	}

	focus = {
		id = ENG_english_industry
		icon = industry_civilian
		x = 0
		y = 2
		cost = 10

		prerequisite = {
			focus = ENG_economic_stimulus
		}

		search_filters = {FOCUS_FILTER_INDUSTRY}


		completion_reward = {
			log = "[GetDateText]: [Root.GetName]: Focus ENG_english_industry"
			random_owned_state = {
				limit = {
					OR = {
						region = 1
						region = 2
					}
					free_building_slots = {
						building = industrial_complex
						size > 1
						include_locked = yes
					}
				}
				add_building_construction = {
					type = industrial_complex
					level = 2
					instant_build = yes
				}
				add_extra_state_shared_building_slots = 2
			}
			random_owned_state = {
				limit = {
					OR = {
						region = 1
						region = 2
					}
					free_building_slots = {
						building = industrial_complex
						size > 1
						include_locked = yes
					}
				}
				add_building_construction = {
					type = industrial_complex
					level = 2
					instant_build = yes
				}
				add_extra_state_shared_building_slots = 2
			}
			subtract_from_variable = { treasury = 20.0 }
			custom_effect_tooltip = 20_billion_expense_tt
		}
	}

	focus = {
		id = ENG_scottish_industry
		icon = industry_civilian
		x = 2
		y = 2
		cost = 10

		prerequisite = {
			focus = ENG_economic_stimulus
		}

		bypass = {
			NOT = { owns_state = 9 }
			NOT = { owns_state = 437 }
		}

		search_filters = {FOCUS_FILTER_INDUSTRY}


		completion_reward = {
			log = "[GetDateText]: [Root.GetName]: Focus ENG_scottish_industry"
			random_owned_state = {
				limit = {
					region = 3
					free_building_slots = {
						building = industrial_complex
						size > 1
						include_locked = yes
					}
				}
				add_building_construction = {
					type = industrial_complex
					level = 2
					instant_build = yes
				}
				add_extra_state_shared_building_slots = 2
			}
			random_owned_state = {
				limit = {
					region = 3
					free_building_slots = {
						building = industrial_complex
						size > 0
						include_locked = yes
					}
				}
				add_building_construction = {
					type = industrial_complex
					level = 1
					instant_build = yes
				}
				add_extra_state_shared_building_slots = 1
			}
			subtract_from_variable = { treasury = 15.0 }
			custom_effect_tooltip = 15_billion_expense_tt
		}
	}

	focus = {
		id = ENG_imperial_industry
		icon = industry_civilian
		x = 4
		y = 2
		cost = 10

		prerequisite = {
			focus = ENG_economic_stimulus
		}

		search_filters = {FOCUS_FILTER_INDUSTRY}

		available = {
			custom_trigger_tooltip = {
				OR = {
					is_ai = yes
					check_variable = { treasury > 9.99 }
				}
				tooltip = 1_billion_currently_in_treasury_tt
			}
		}

		completion_reward = {
			log = "[GetDateText]: [Root.GetName]: Focus ENG_imperial_industry"
			random_owned_state = {
				limit = {
					NOT = { region = 1 }
					NOT = { region = 2 }
					NOT = { region = 3 }
					NOT = { region = 4 }
					state_population > 3000
					free_building_slots = {
						building = industrial_complex
						size > 0
						include_locked = yes
					}
				}
				add_building_construction = {
					type = industrial_complex
					level = 1
					instant_build = yes
				}
				add_extra_state_shared_building_slots = 1
			}
			subtract_from_variable = { treasury = 10.0 }
			custom_effect_tooltip = 10_billion_expense_tt
		}
	}

	focus = {
		id = ENG_expand_the_home_ministry
		icon = race_relations2
		x = 8
		y = 2
		cost = 10

		prerequisite = {
			focus = ENG_political_reform
		}

		search_filters = {FOCUS_FILTER_POLITICAL}

		completion_reward = {
			log = "[GetDateText]: [Root.GetName]: Focus ENG_expand_the_home_ministry"
			add_political_power = 50
		}

		ai_will_do = {
			factor = 1
		}
	}

	focus = {
		id = ENG_expand_the_foreign_ministry
		icon = alliance
		x = 13
		y = 2
		cost = 10

		prerequisite = {
			focus = ENG_political_reform
		}

		search_filters = {FOCUS_FILTER_POLITICAL}

		completion_reward = {
			log = "[GetDateText]: [Root.GetName]: Focus ENG_expand_the_foreign_ministry"
			add_political_power = 50
		}

		ai_will_do = {
			factor = 1
		}
	}

	focus = {
		id = ENG_the_future_of_the_NHS
		icon = generic_healthcare
		x = 15
		y = 2
		cost = 10

		prerequisite = {
			focus = ENG_political_reform
		}

		search_filters = {FOCUS_FILTER_EXPENDITURE FOCUS_FILTER_POLITICAL FOCUS_FILTER_STABILITY}

		completion_reward = {
			log = "[GetDateText]: [Root.GetName]: Focus ENG_the_future_of_the_NHS"
			country_event = britain_md.2
		}

		ai_will_do = {
			factor = 1
		}
	}

	focus = {
		id = ENG_europe_is_the_future
		icon = align_to_europe
		x = 18
		y = 2
		cost = 10

		prerequisite = {
			focus = ENG_democratic_tradition
		}

		mutually_exclusive = {
			focus = ENG_careful_cooperation
		}
		mutually_exclusive = {
			focus = ENG_distance_from_europe
		}

		search_filters = {FOCUS_FILTER_EUROPEAN_UNION FOCUS_FILTER_POLITICAL}

		available = {
			has_idea = EU_member
		}

		completion_reward = {
			log = "[GetDateText]: [Root.GetName]: Focus ENG_europe_is_the_future"
			EU_eurosceptic_decline_5_percent = yes
			ROOT_eurosceptic_decline_10_percent = yes
			add_political_power = 25
			add_popularity = {
				popularity = 0.05
				ideology = democratic
			}
			recalculate_party = yes
		}

		ai_will_do = {
			factor = 1
			modifier = {
				factor = 0
				is_historical_focus_on = yes
			}
			modifier = {
				factor = 0
				gov_is_eurosceptical = yes
			}
		}
	}

	focus = {
		id = ENG_careful_cooperation
		icon = molotov_ribbentrop_pact
		x = 22
		y = 2
		cost = 10

		prerequisite = {
			focus = ENG_democratic_tradition
		}

		mutually_exclusive = {
			focus = ENG_europe_is_the_future
		}
		mutually_exclusive = {
			focus = ENG_distance_from_europe
		}

		search_filters = {FOCUS_FILTER_EUROPEAN_UNION FOCUS_FILTER_POLITICAL}

		completion_reward = {
			log = "[GetDateText]: [Root.GetName]: Focus ENG_careful_cooperation"
			EU_eurosceptic_decline_3_percent = yes
			ROOT_eurosceptic_decline_5_percent = yes
			add_political_power = 25
			add_popularity = {
				popularity = 0.05
				ideology = democratic
			}
			recalculate_party = yes
		}

		ai_will_do = {
			factor = 1
		}
	}

	focus = {
		id = ENG_distance_from_europe
		icon = align_to_britain
		x = 26
		y = 2
		cost = 10

		prerequisite = {
			focus = ENG_democratic_tradition
		}

		mutually_exclusive = {
			focus = ENG_europe_is_the_future
		}
		mutually_exclusive = {
			focus = ENG_careful_cooperation
		}

		search_filters = {FOCUS_FILTER_EUROPEAN_UNION FOCUS_FILTER_POLITICAL}

		completion_reward = {
			log = "[GetDateText]: [Root.GetName]: Focus ENG_distance_from_europe"
			EU_eurosceptic_rise_5_percent = yes
			ROOT_eurosceptic_rise_10_percent = yes
			add_political_power = 50
			add_popularity = {
				popularity = 0.05
				ideology = communism
			}
		}

		ai_will_do = {
			factor = 1
			modifier = {
				factor = 0
				is_historical_focus_on = yes
			}
		}
	}

	focus = {
		id = ENG_towards_the_left
		icon = communism
		x = 29
		y = 2
		cost = 10

		prerequisite = {
			focus = ENG_a_new_path
		}

		mutually_exclusive = {
			focus = ENG_towards_the_right
		}

		search_filters = {FOCUS_FILTER_NATO FOCUS_FILTER_POLITICAL}

		completion_reward = {
			log = "[GetDateText]: [Root.GetName]: Focus ENG_towards_the_left"
			news_event = britain_news.59
			add_popularity = {
				ideology = democratic
				popularity = -0.03
			}
			add_popularity = {
				ideology = communism
				popularity = 0.15
			}
			recalculate_party = yes
			if = {
				limit = { has_idea = NATO_member }
				remove_ideas = NATO_member
			}
		}

		ai_will_do = {
			factor = 1
		}
	}

	focus = {
		id = ENG_towards_the_right
		icon = fascism
		x = 35
		y = 2
		cost = 10

		prerequisite = {
			focus = ENG_a_new_path
		}

		mutually_exclusive = {
			focus = ENG_towards_the_left
		}

		search_filters = {FOCUS_FILTER_NATO FOCUS_FILTER_POLITICAL}

		completion_reward = {
			log = "[GetDateText]: [Root.GetName]: Focus ENG_towards_the_right"

			news_event = britain_news.60
			add_popularity = {
				ideology = fascism
				popularity = 0.03
			}
			add_popularity = {
				ideology = nationalist
				popularity = 0.15
			}
			recalculate_party = yes
			if = {
				limit = { has_idea = NATO_member }
				remove_ideas = NATO_member
			}
		}

		ai_will_do = {
			factor = 1
		}
	}

	focus = {
		id = ENG_industry_in_manchester
		icon = industry_military
		x = 40
		y = 2
		cost = 10

		prerequisite = {
			focus = ENG_focus_on_the_army
		}

		search_filters = {FOCUS_FILTER_INDUSTRY}

		bypass = {
			11 = {
				free_building_slots = {
					building = arms_factory
					size < 2
					include_locked = yes
				}
			}
		}

		completion_reward = {
			log = "[GetDateText]: [Root.GetName]: Focus ENG_industry_in_manchester"
			11 = {
				add_building_construction = {
					type = arms_factory
					level = 2
					instant_build = yes
				}
				add_extra_state_shared_building_slots = 2
			}
				subtract_from_variable = { treasury = 20.0 }
				custom_effect_tooltip = 20_billion_expense_tt
		}

		ai_will_do = {
			factor = 1
		}
	}

	focus = {
		id = ENG_army_training
		icon = infantry_axis
		x = 42
		y = 2
		cost = 10

		prerequisite = {
			focus = ENG_focus_on_the_army
		}

		completion_reward = {
			log = "[GetDateText]: [Root.GetName]: Focus ENG_army_training"
			army_experience = 15
		}

		ai_will_do = {
			factor = 1
		}
	}

	focus = {
		id = ENG_expand_the_air_force
		icon = air_force
		x = 46
		y = 2
		cost = 10

		prerequisite = {
			focus = ENG_focus_on_the_army
			focus = ENG_focus_on_the_navy
		}

		completion_reward = {
			log = "[GetDateText]: [Root.GetName]: Focus ENG_expand_the_air_force"
			air_experience = 15
		}

		ai_will_do = {
			factor = 1
		}
	}

	focus = {
		id = ENG_naval_prototypes
		icon = navy
		x = 50
		y = 2
		cost = 10

		prerequisite = {
			focus = ENG_focus_on_the_navy
		}

		completion_reward = {
			log = "[GetDateText]: [Root.GetName]: Focus ENG_naval_prototypes"
			navy_experience = 15
		}

		ai_will_do = {
			factor = 1
		}
	}

	focus = {
		id = ENG_industry_in_liverpool
		icon = naval_dockyard
		x = 52
		y = 2
		cost = 10

		prerequisite = {
			focus = ENG_focus_on_the_navy
		}

		bypass = {
			11 = {
				free_building_slots = {
					building = dockyard
					size < 2
					include_locked = yes
				}
			}
		}

		search_filters = {FOCUS_FILTER_INDUSTRY}

		completion_reward = {
			log = "[GetDateText]: [Root.GetName]: Focus ENG_industry_in_liverpool"
			11 = {
				add_building_construction = {
					type = dockyard
					level = 2
					instant_build = yes
				}
				add_extra_state_shared_building_slots = 2
			}

			subtract_from_variable = { treasury = 20.0 }
			custom_effect_tooltip = 20_billion_expense_tt
		}

		ai_will_do = {
			factor = 1
		}
	}

	focus = {
		id = ENG_dockyards_1
		icon = naval_dockyard
		x = 1
		y = 3
		cost = 10

		prerequisite = {
			focus = ENG_english_industry
			focus = ENG_scottish_industry
		}

		search_filters = {FOCUS_FILTER_INDUSTRY}

		completion_reward = {
			log = "[GetDateText]: [Root.GetName]: Focus ENG_dockyards_1"
			navy_experience = 5
			random_owned_state = {
				limit = {
					OR = {
						region = 1
						region = 2
						region = 3
						region = 4
					}
					free_building_slots = {
						building = dockyard
						size > 0
						include_locked = yes
					}
				}
				add_building_construction = {
					type = dockyard
					level = 1
					instant_build = yes
				}
				add_extra_state_shared_building_slots = 1
			}
			random_owned_state = {
				limit = {
					OR = {
						region = 1
						region = 2
						region = 3
						region = 4
					}
					free_building_slots = {
						building = dockyard
						size > 0
						include_locked = yes
					}
				}
				add_building_construction = {
					type = dockyard
					level = 1
					instant_build = yes
				}
				add_extra_state_shared_building_slots = 1
			}
				subtract_from_variable = { treasury = 20.0 }
					custom_effect_tooltip = 20_billion_expense_tt
		}

		ai_will_do = {
			factor = 1
		}
	}

	focus = {
		id = ENG_north_sea_oil
		icon = oil_production
		x = 3
		y = 3
		cost = 10

		prerequisite = {
			focus = ENG_scottish_industry
		}

		search_filters = {FOCUS_FILTER_RESOURCE}

		completion_reward = {
			log = "[GetDateText]: [Root.GetName]: Focus ENG_north_sea_oil"
			if = {
				limit = {
					OR = {
						owns_state = 14
						any_of_scopes = {
							array = subjects
							owns_state = 14
						}
					}
				}
				add_resource = {	#Aberdeenshire
					type = oil
					amount = 5
					state = 14
				}
			}
			if = {
				limit = {
					OR = {
						owns_state = 276
						any_of_scopes = {
							array = subjects
							owns_state = 276
						}
					}
				}
				add_resource = { 	#Lothian
					type = oil
					amount = 7
					state = 276
				}
			}
			if = {
				limit = {
					OR = {
						owns_state = 8
						any_of_scopes = {
							array = subjects
							owns_state = 8
						}
					}
				}
				add_resource = {	#Northern England
					type = oil
					amount = 5
					state = 8
				}
			}

			subtract_from_variable = { treasury = 7.0 }
			custom_effect_tooltip = 7_billion_expense_tt
		}

		ai_will_do = {
			factor = 1
		}
	}

	focus = {
		id = ENG_imperial_dockyards
		icon = naval_dockyard
		x = 5
		y = 3
		cost = 10

		prerequisite = {
			focus = ENG_imperial_industry
		}

		search_filters = {FOCUS_FILTER_INDUSTRY}

		completion_reward = {
			log = "[GetDateText]: [Root.GetName]: Focus ENG_imperial_dockyards"
			navy_experience = 5
			random_owned_state = {
				limit = {
					NOT = {
						region = 1
						region = 2
						region = 3
						region = 4
					}
					free_building_slots = {
						building = dockyard
						size > 0
						include_locked = yes
					}
				}
				add_building_construction = {
					type = dockyard
					level = 1
					instant_build = yes
				}
				add_extra_state_shared_building_slots = 1
			}
			subtract_from_variable = { treasury = 10.0 }
					custom_effect_tooltip = 10_billion_expense_tt
		}

		ai_will_do = {
			factor = 1
		}
	}

	focus = {
		id = ENG_freedom_first
		icon = democracy
		x = 7
		y = 3
		cost = 10

		prerequisite = {
			focus = ENG_expand_the_home_ministry
		}

		mutually_exclusive = {
			focus = ENG_security_first
		}

		search_filters = {FOCUS_FILTER_POLITICAL FOCUS_FILTER_WAR_SUPPORT}

		completion_reward = {
			log = "[GetDateText]: [Root.GetName]: Focus ENG_freedom_first"
			add_war_support = 0.05
			add_popularity = {
				ideology = democratic
				popularity = 0.02
			}
			recalculate_party = yes
		}

		ai_will_do = {
			factor = 1
			modifier = {
				factor = 0
				is_historical_focus_on = yes
			}
		}
	}

	focus = {
		id = ENG_security_first
		icon = neutrality
		x = 9
		y = 3
		cost = 10

		prerequisite = {
			focus = ENG_expand_the_home_ministry
		}

		mutually_exclusive = {
			focus = ENG_freedom_first
		}

		search_filters = {FOCUS_FILTER_POLITICAL}

		completion_reward = {
			log = "[GetDateText]: [Root.GetName]: Focus ENG_security_first"
			add_political_power = 75
			add_popularity = {
				ideology = democratic
				popularity = 0.02
			}
			recalculate_party = yes
		}

		ai_will_do = {
			factor = 1
		}
	}

	focus = {
		id = ENG_go_with_europe
		icon = align_to_europe
		x = 11
		y = 3
		cost = 10

		prerequisite = {
			focus = ENG_expand_the_foreign_ministry
		}

		mutually_exclusive = {
			focus = ENG_go_with_the_commonwealth
		}
		mutually_exclusive = {
			focus = ENG_britain_first
		}
		search_filters = {FOCUS_FILTER_EUROPEAN_UNION}
		available = {
			has_idea = EU_member
		}


		completion_reward = {
			log = "[GetDateText]: [Root.GetName]: Focus ENG_go_with_europe"
			EU_eurosceptic_decline_3_percent = yes
			ROOT_eurosceptic_decline_5_percent = yes
			every_country = {
				limit = {
					OR = {
						tag = ENG
						tag = USA
						has_idea = EU_member
						is_in_faction_with = ENG
					}
				}
				news_event = britain_news.55
			}
		}

		ai_will_do = {
			factor = 1
			modifier = {
				factor = 0
				has_completed_focus = ENG_distance_from_europe
			}
		}
	}

	focus = {
		id = ENG_go_with_the_commonwealth
		icon = infantry_commonwealth
		x = 13
		y = 3
		cost = 10

		prerequisite = {
			focus = ENG_expand_the_foreign_ministry
		}

		mutually_exclusive = {
			focus = ENG_go_with_europe
		}
		mutually_exclusive = {
			focus = ENG_britain_first
		}

		completion_reward = {
			log = "[GetDateText]: [Root.GetName]: Focus ENG_go_with_the_commonwealth"
			every_country = {
				limit = {
					OR = {
						tag = ENG
						tag = USA
						has_idea = EU_member
						is_in_faction_with = ENG
					}
				}
				news_event = britain_news.56
			}
		}

		ai_will_do = {
			factor = 1
			modifier = {
				factor = 0
				is_historical_focus_on = yes
			}
		}
	}

	focus = {
		id = ENG_britain_first
		icon = align_to_britain
		x = 15
		y = 3
		cost = 10

		prerequisite = {
			focus = ENG_expand_the_foreign_ministry
		}

		mutually_exclusive = {
			focus = ENG_go_with_europe
		}
		mutually_exclusive = {
			focus = ENG_go_with_the_commonwealth
		}
		search_filters = {FOCUS_FILTER_EUROPEAN_UNION FOCUS_FILTER_POLITICAL}

		completion_reward = {
			log = "[GetDateText]: [Root.GetName]: Focus ENG_britain_first"
			EU_eurosceptic_rise_3_percent = yes
			ROOT_eurosceptic_rise_5_percent = yes
			add_political_power = 20
			every_country = {
				limit = {
					OR = {
						tag = ENG
						tag = USA
						has_idea = EU_member
						is_in_faction_with = ENG
					}
				}
				news_event = britain_news.57
			}
		}

		ai_will_do = {
			factor = 1
			modifier = {
				factor = 0
				is_historical_focus_on = yes
			}
		}
	}

	focus = {
		id = ENG_european_cooperation_1
		icon = major_alliance
		x = 18
		y = 3
		cost = 10

		prerequisite = {
			focus = ENG_europe_is_the_future
		}

		search_filters = {FOCUS_FILTER_EUROPEAN_UNION}

		available = {
			has_idea = EU_member
		}

		completion_reward = {
			log = "[GetDateText]: [Root.GetName]: Focus ENG_european_cooperation_1"
			random_country = {
				limit = {
					NOT = { tag = GER }
					NOT = { tag = ENG }
					NOT = { tag = FRA }
					NOT = { tag = ITA }
					NOT = { has_country_flag = ENG_european_cooperation_received }
					has_idea = EU_member
				}
				invest_in_EU_single_market_cic = yes
				set_country_flag = ENG_european_cooperation_received
			}
			random_country = {
				limit = {
					NOT = { tag = GER }
					NOT = { tag = ENG }
					NOT = { tag = FRA }
					NOT = { tag = ITA }
					NOT = { has_country_flag = ENG_european_cooperation_received }
					has_idea = EU_member
				}
				invest_in_EU_single_market_cic = yes
				set_country_flag = ENG_european_cooperation_received
			}
			random_country = {
				limit = {
					NOT = { tag = GER }
					NOT = { tag = ENG }
					NOT = { tag = FRA }
					NOT = { tag = ITA }
					NOT = { has_country_flag = ENG_european_cooperation_received }
					has_idea = EU_member
				}
				invest_in_EU_single_market_cic = yes
				set_country_flag = ENG_european_cooperation_received
			}
			random_country = {
				limit = {
					NOT = { tag = GER }
					NOT = { tag = ENG }
					NOT = { tag = FRA }
					NOT = { tag = ITA }
					NOT = { has_country_flag = ENG_european_cooperation_received }
					has_idea = EU_member
				}
				invest_in_EU_single_market_cic = yes
				set_country_flag = ENG_european_cooperation_received
			}
		}

		ai_will_do = {
			factor = 1
				modifier = {
					factor = 0
					gov_is_eurosceptical = yes
				}
		}
	}

	focus = {
		id = ENG_special_treatment
		icon = intelligence_exchange
		x = -1
		y = 1
		relative_position_id = ENG_careful_cooperation
		cost = 10

		prerequisite = {
			focus = ENG_careful_cooperation
		}

		search_filters = {FOCUS_FILTER_EUROPEAN_UNION FOCUS_FILTER_POLITICAL}

		completion_reward = {
			log = "[GetDateText]: [Root.GetName]: Focus ENG_special_treatment"
			add_political_power = 150
			EU_eurosceptic_rise_5_percent = yes
			ROOT_eurosceptic_decline_10_percent = yes
			every_country = {
				limit = {
					NOT = { tag = ENG }
					has_idea = EU_member
				}
				country_event = britain_md.3
				add_opinion_modifier = {
					target = ENG
					modifier = has_demanded_special_treatment
				}
			}
		}

		ai_will_do = {
			factor = 1
		}
	}

	focus = {
		id = ENG_brexit_referendum
		icon = brexit #Election
		x = -2
		y = 4
		relative_position_id = ENG_distance_from_europe
		cost = 10

		prerequisite = {
			focus = ENG_careful_cooperation
			focus = ENG_distance_from_europe
		}

		bypass = {
			OR = {
				has_country_flag = brexit_referendum
				NOT = {
					has_idea = EU_member
				}
			}
		}

		search_filters = {FOCUS_FILTER_EUROPEAN_UNION}

		available = {
				has_idea = EU_member
		}

		completion_reward = {
			log = "[GetDateText]: [Root.GetName]: Focus ENG_brexit_referendum"
			set_country_flag = brexit_referendum
			if = {
				limit = {
					check_variable = {
						var = eurosceptic
						value = 0.5
						compare = greater_than_or_equals
					}
				}
				EU_eurosceptic_rise_5_percent = yes
				ROOT_eurosceptic_rise_20_percent = yes
				every_country = {
					limit = {
						has_idea = EU_member
					}
					news_event = {
						id = britain_md.22
					}
				}
			}

			else = {
				random_list = {
					60 = {
						EU_eurosceptic_rise_5_percent = yes
						ROOT_eurosceptic_rise_20_percent = yes
						every_country = {
							limit = {
								has_idea = EU_member
							}
							news_event = {
								id = britain_md.22
							}
						}
					}
					40 = {
						EU_eurosceptic_decline_5_percent = yes
						ROOT_eurosceptic_decline_20_percent = yes
						every_country = {
							limit = {
								has_idea = EU_member
							}
							news_event = {
								id = britain_md.23
							}
						}
					}
				}
			}
		}

		ai_will_do = {
			factor = 0
			modifier = {
				add = 2.5
				is_historical_focus_on = yes
				date > 2016.1.1
			}
			modifier = {
				add = 1
				is_historical_focus_on = no
			}
		}
	}

	focus = {
		id = ENG_new_diplomatic_initiatives
		icon = national_unity
		x = -1
		y = 1
		relative_position_id = ENG_distance_from_europe
		cost = 10

		prerequisite = {
			focus = ENG_distance_from_europe
		}

		search_filters = {FOCUS_FILTER_EUROPEAN_UNION FOCUS_FILTER_POLITICAL FOCUS_FILTER_WAR_SUPPORT}

		completion_reward = {
			log = "[GetDateText]: [Root.GetName]: Focus ENG_new_diplomatic_initiatives"
			ROOT_eurosceptic_rise_5_percent = yes
			add_war_support = 0.05
			add_political_power = 25
		}

		ai_will_do = {
			factor = 1
		}
	}

	focus = {
		id = ENG_abolish_the_monarchy
		icon = communism2
		x = 29
		y = 3
		cost = 10

		prerequisite = {
			focus = ENG_towards_the_left
		}

		completion_reward = {
			log = "[GetDateText]: [Root.GetName]: Focus ENG_abolish_the_monarchy"
			country_event = britain_md.5
		}

		ai_will_do = {
			factor = 1
		}
	}

	focus = {
		id = ENG_empower_the_throne
		icon = monarchism
		x = 33
		y = 3
		cost = 10

		prerequisite = {
			focus = ENG_towards_the_right
		}

		mutually_exclusive = {
			focus = ENG_empower_the_government
		}

		search_filters = {FOCUS_FILTER_POLITICAL}

		completion_reward = {
			log = "[GetDateText]: [Root.GetName]: Focus ENG_empower_the_throne"
			add_political_power = 25
			add_popularity = {
				ideology = nationalist
				popularity = 0.2
			}
			recalculate_party = yes
			set_country_flag = elizabeth_abdicates_monarchist
			if = {
				limit = { has_idea = ENG_queen_elizabeth_2 }
				hidden_effect = {
					random_list = {
						80 = { }
						20 = { country_event = britain_md.6 }
					}
				}
			}
		}

		ai_will_do = {
			factor = 15
		}
	}

	focus = {
		id = ENG_empower_the_government
		icon = demand_territory2
		x = 37
		y = 3
		cost = 10

		prerequisite = {
			focus = ENG_towards_the_right
		}

		mutually_exclusive = {
			focus = ENG_empower_the_throne
		}

		search_filters = {FOCUS_FILTER_POLITICAL}

		completion_reward = {
			log = "[GetDateText]: [Root.GetName]: Focus ENG_empower_the_government"
			add_political_power = 50
			set_country_flag = elizabeth_abdicates_nationalist
			if = {
				limit = { has_idea = ENG_queen_elizabeth_2 }
				hidden_effect = {
					random_list = {
						20 = { }
						80 = { country_event = britain_md.6 }
					}
				}
			}
		}

		ai_will_do = {
			factor = 5
		}
	}

	focus = {
		id = ENG_artillery_for_britain
		icon = artillery2
		x = 41
		y = 3
		cost = 10

		prerequisite = {
			focus = ENG_army_training
		}

		search_filters = {FOCUS_FILTER_RESEARCH}

		completion_reward = {
			log = "[GetDateText]: [Root.GetName]: Focus ENG_artillery_for_britain"
			add_tech_bonus = {
				name = artillery_bonus
				bonus = 0.5
				uses = 2
				category = Cat_ARTILLERY
			}
		}

		ai_will_do = {
			factor = 1
		}
	}

	focus = {
		id = ENG_tanks_for_britain
		icon = tanks4
		x = 43
		y = 3
		cost = 10

		prerequisite = {
			focus = ENG_army_training
		}

		search_filters = {FOCUS_FILTER_RESEARCH}

		completion_reward = {
			log = "[GetDateText]: [Root.GetName]: Focus ENG_tanks_for_britain"
			add_tech_bonus = {
				name = armor_bonus
				bonus = 0.35
				uses = 3
				category = Cat_ARMOR
			}
		}

		ai_will_do = {
			factor = 1
		}
	}

	focus = {
		id = ENG_develop_our_fighters
		icon = modern_fighter
		x = 45
		y = 3
		cost = 10

		prerequisite = {
			focus = ENG_expand_the_air_force
		}

		search_filters = {FOCUS_FILTER_RESEARCH}

		completion_reward = {
			log = "[GetDateText]: [Root.GetName]: Focus ENG_develop_our_fighters"
			add_tech_bonus = {
				name = fighter_bonus
				bonus = 0.4
				uses = 2
				category = Cat_FIGHTER
			}
		}

		ai_will_do = {
			factor = 1
		}
	}

	focus = {
		id = ENG_develop_heavy_planes
		icon = modern_bomber
		x = 47
		y = 3
		cost = 10

		prerequisite = {
			focus = ENG_expand_the_air_force
		}

		search_filters = {FOCUS_FILTER_RESEARCH}

		completion_reward = {
			log = "[GetDateText]: [Root.GetName]: Focus ENG_develop_heavy_planes"
			add_tech_bonus = {
				name = bomber_bonus
				bonus = 0.6
				uses = 1
				category = Cat_H_AIR
			}
		}

		ai_will_do = {
			factor = 1
		}
	}

	focus = {
		id = ENG_develop_submarines
		icon = submarines
		x = 49
		y = 3
		cost = 10

		prerequisite = {
			focus = ENG_naval_prototypes
		}

		search_filters = {FOCUS_FILTER_RESEARCH}

		completion_reward = {
			log = "[GetDateText]: [Root.GetName]: Focus ENG_develop_submarines"
			add_tech_bonus = {
				name = sub_bonus
				bonus = 0.25
				uses = 2
				category = Cat_SUB
			}
		}

		ai_will_do = {
			factor = 1
		}
	}

	focus = {
		id = ENG_develop_carriers
		icon = carriers
		x = 51
		y = 3
		cost = 10

		prerequisite = {
			focus = ENG_naval_prototypes
		}

		search_filters = {FOCUS_FILTER_RESEARCH}

		completion_reward = {
			log = "[GetDateText]: [Root.GetName]: Focus ENG_develop_carriers"
			add_tech_bonus = {
				name = carrier_bonus
				bonus = 0.35
				uses = 3
				category = Cat_CARRIER
			}
		}

		ai_will_do = {
			factor = 1
		}
	}

	focus = {
		id = ENG_dockyards_2
		icon = naval_dockyard
		x = 1
		y = 4
		cost = 10

		prerequisite = {
			focus = ENG_dockyards_1
		}

		search_filters = {FOCUS_FILTER_INDUSTRY}

		completion_reward = {
			log = "[GetDateText]: [Root.GetName]: Focus ENG_dockyards_2"
			navy_experience = 10
			random_owned_state = {
				limit = {
					OR = {
						region = 1
						region = 2
						region = 3
						region = 4
					}
					free_building_slots = {
						building = dockyard
						size > 0
						include_locked = yes
					}
				}
				add_building_construction = {
					type = dockyard
					level = 1
					instant_build = yes
				}
				add_extra_state_shared_building_slots = 1
			}
			random_owned_state = {
				limit = {
					OR = {
						region = 1
						region = 2
						region = 3
						region = 4
					}
					free_building_slots = {
						building = dockyard
						size > 0
						include_locked = yes
					}
				}
				add_building_construction = {
					type = dockyard
					level = 1
					instant_build = yes
				}
				add_extra_state_shared_building_slots = 1
			}
			subtract_from_variable = { treasury = 20.0 }
					custom_effect_tooltip = 20_billion_expense_tt
		}

		ai_will_do = {
			factor = 1
		}
	}

	focus = {
		id = ENG_fortify_the_empire
		icon = coastal_fort
		x = 5
		y = 4
		cost = 10

		prerequisite = {
			focus = ENG_imperial_dockyards
		}

		completion_reward = {
			log = "[GetDateText]: [Root.GetName]: Focus ENG_fortify_the_empire"
			#Gibraltar
			if = {
				limit = { 19 = { is_owned_by = ENG } }
				19 = {
					add_building_construction = {
						type = bunker
						province = 4135
						level = 2
						instant_build = yes
					}
					add_building_construction = {
						type = coastal_bunker
						province = 4135
						level = 2
						instant_build = yes
					}
				}
			}
			#Falklands
			if = {
				limit = { 26 = { is_owned_by = ENG } }
				26 = {
					add_building_construction = {
						type = coastal_bunker
						province = 12960
						level = 3
						instant_build = yes
					}
				}
			}
			#South Georgia
			if = {
				limit = { 22 = { is_owned_by = ENG } }
				22 = {
					add_building_construction = {
						type = coastal_bunker
						province = 10995
						level = 3
						instant_build = yes
					}
				}
			}
		}

		ai_will_do = {
			factor = 1
		}
	}

	focus = {
		id = ENG_assure_individual_freedoms
		icon = industry_democratic
		x = 7
		y = 4
		cost = 10

		prerequisite = {
			focus = ENG_freedom_first
		}

		search_filters = {FOCUS_FILTER_INDUSTRY}

		completion_reward = {
			log = "[GetDateText]: [Root.GetName]: Focus ENG_assure_individual_freedoms"
			add_ideas = ENG_individual_freedoms
		}

		ai_will_do = {
			factor = 1
		}
	}

	focus = {
		id = ENG_public_CCTV_systems
		icon = propaganda
		x = 9
		y = 4
		cost = 10

		prerequisite = {
			focus = ENG_security_first
		}

		search_filters = {FOCUS_FILTER_INTERNAL_FACTION FOCUS_FILTER_POLITICAL}

		completion_reward = {
			log = "[GetDateText]: [Root.GetName]: Focus ENG_public_CCTV_systems"
			add_ideas = ENG_CCTV_systems

				if = {
				limit = { has_idea = intelligence_community }
					set_country_flag = current_intelligence_community
					visually_display_opinion_rise_intelligence_community = yes
					increase_internal_faction_opinion = yes
					}
		}

		ai_will_do = {
			factor = 1
		}
	}

	focus = {
		id = ENG_european_logistics
		icon = intelligence_exchange
		x = 18
		y = 4
		cost = 15

		prerequisite = {
			focus = ENG_european_cooperation_1
		}

		search_filters = {FOCUS_FILTER_EUROPEAN_UNION FOCUS_FILTER_POLITICAL}

		completion_reward = {
			log = "[GetDateText]: [Root.GetName]: Focus ENG_european_logistics"
			ROOT_eurosceptic_decline_3_percent = yes
			add_ideas = ENG_european_logistics_idea
		}

		ai_will_do = {
			factor = 1
				modifier = {
					factor = 0
					gov_is_eurosceptical = yes
				}
		}
	}

	### Kill Backstop - Empower Boris
	focus = {
		id = ENG_defy_remain ### old name, not changed
		icon = boris_johnson
		x = 1
		y = 1
		relative_position_id = ENG_brexit_referendum
		cost = 10

		prerequisite = {
			focus = ENG_brexit_referendum
		}

		bypass = {
			NOT = { has_idea = EU_member }
		}

		search_filters = {FOCUS_FILTER_EUROPEAN_UNION FOCUS_FILTER_POLITICAL}

		available = {
			has_idea = EU_member
			has_country_flag = brexit_referendum
			has_country_flag = Article_50
			is_in_array = { ruling_party = 1 } ### conservatism
		}

		completion_reward = {
			log = "[GetDateText]: [Root.GetName]: Focus ENG_defy_remain"
			EU_eurosceptic_rise_5_percent = yes
			ROOT_eurosceptic_rise_25_percent = yes
			add_ideas = {
				ENG_irish_nationalism_idea
			}
			add_ideas = {
				ENG_scottish_nationalism_idea
			}
			create_country_leader = {
				name = "Boris Johnson"
				picture = "Boris_Johnson.dds"
				expire = "2030.1.1"
				ideology = conservatism
				traits = {
					writer
					western_conservatism
					stubborn
					ruthless
					emotional
				}
			}
			set_country_flag = no_leader_change
			hidden_effect = {
				clear_array = ruling_party
				clear_array = gov_coalition_array
				add_to_array = { ruling_party = 1 }
				update_government_coalition_strength = yes
				update_party_name = yes
				set_coalition_drift = yes
				meta_effect = {
					text = {
						set_country_flag = [META_SET_RULING_PARTY]
					}
					META_SET_RULING_PARTY = "[meta_set_ruling_leader]"
				}
				set_leader = yes
			}
			set_politics = {
				ruling_party = democratic
				elections_allowed = yes
			}
			clr_country_flag = no_leader_change



		}

		ai_will_do = {
			factor = 1
				modifier = {
					factor = 5
					gov_is_eurosceptical = yes
				}
				modifier = {
					factor = 0
					NOT = { gov_is_eurosceptical = yes }
				}
		}
	}

	focus = {
		id = ENG_irish_referendum
		icon = irish_referendum
		x = -1
		y = 1
		relative_position_id = ENG_defy_remain
		cost = 10

		prerequisite = {
			focus = ENG_defy_remain
		}

		completion_reward = {
			log = "[GetDateText]: [Root.GetName]: Focus ENG_irish_referendum"
			custom_effect_tooltip = tooltip_ENG_irish_referendum
			hidden_effect = {
			if = {
				limit = {
					check_variable = {
						var = global.var_europeanism
						value = 0.6
						compare = less_than
					}
				}
				remove_ideas = {
					ENG_irish_nationalism_idea
				}
				news_event = {
					id = britain_news.65
				}
			}
			else_if = {
				limit = {
					check_variable = {
						var = global.var_europeanism
						value = 0.90
						compare = greater_than_or_equals
					}
				}
				random_list = {
					70 = {
						remove_ideas = {
							ENG_irish_nationalism_idea
						}
						news_event = {
							id = britain_news.65
						}
					}
					30 = {
						IRE = {
							transfer_state = 17
						}
						remove_ideas = {
							ENG_irish_nationalism_idea
						}
						news_event = {
							id = britain_news.66
						}
					}
				}
			}
			else = {
				random_list = {
					90 = {
						remove_ideas = {
							ENG_irish_nationalism_idea
						}
						news_event = {
							id = britain_news.65
						}
					}
					10 = {
						IRE = {
							transfer_state = 17
						}
						remove_ideas = {
							ENG_irish_nationalism_idea
						}
						news_event = {
							id = britain_news.66
						}
					}
				}
			}
			} ### End of hidden_effect
		}

		ai_will_do = {
			factor = 1
		}
	}

	focus = {
		id = ENG_scottish_referendum
		icon = scottish_referendum
		x = 1
		y = 1
		relative_position_id = ENG_defy_remain
		cost = 10

		prerequisite = {
			focus = ENG_defy_remain
		}

		completion_reward = {
			log = "[GetDateText]: [Root.GetName]: Focus ENG_scottish_referendum"
			custom_effect_tooltip = tooltip_ENG_scottish_referendum
			hidden_effect = {
			if = {
				limit = {
					check_variable = {
						var = global.var_europeanism
						value = 0.6
						compare = less_than
					}
				}
				remove_ideas = {
					ENG_scottish_nationalism_idea
				}
				news_event = {
					id = britain_news.67
				}
			}
			else_if = {
				limit = {
					check_variable = {
						var = global.var_europeanism
						value = 0.90
						compare = greater_than_or_equals
					}
				}
				random_list = {
					70 = {
						remove_ideas = {
							ENG_scottish_nationalism_idea
						}
						news_event = {
							id = britain_news.67
						}
					}
					30 = {
						release = SCO
						remove_ideas = {
							ENG_scottish_nationalism_idea
						}
						news_event = {
							id = britain_news.68
						}
					}
				}
			}
			else = {
				random_list = {
					90 = {
						remove_ideas = {
							ENG_scottish_nationalism_idea
						}
						news_event = {
							id = britain_news.67
						}
					}
					10 = {
						release = SCO
						remove_ideas = {
							ENG_scottish_nationalism_idea
						}
						news_event = {
							id = britain_news.68
						}
					}
				}
			}
			} ### End of hidden_effect
		}

		ai_will_do = {
			factor = 1
		}
	}

	focus = {
		id = ENG_global_britain
		icon = global_britain
		x = -1
		y = 1
		relative_position_id = ENG_scottish_referendum
		cost = 15

		prerequisite = {
			focus = ENG_irish_referendum
		}
		prerequisite = {
			focus = ENG_scottish_referendum
		}
		search_filters = {FOCUS_FILTER_POLITICAL FOCUS_FILTER_STABILITY}
		available = {
			NOT = {
				has_idea = EU_member
			}
			NOT = {
				has_idea = no_deal_exit
			}
		}
		completion_reward = {
			log = "[GetDateText]: [Root.GetName]: Focus ENG_global_britain"
			add_ideas = ENG_global_britain_idea
		}

		ai_will_do = {
			factor = 1
		}
	}

	focus = {
		id = ENG_investments_abroad_1
		icon = trade_with_europe
		x = 0
		y = 2
		relative_position_id = ENG_careful_cooperation
		cost = 10

		prerequisite = {
			focus = ENG_careful_cooperation
		}

		search_filters = {FOCUS_FILTER_EUROPEAN_UNION FOCUS_FILTER_POLITICAL}

		completion_reward = {
			log = "[GetDateText]: [Root.GetName]: Focus ENG_investments_abroad_1"
			add_political_power = 15
			every_country = {
				limit = {
					NOT = { tag = ENG }
					has_idea = EU_member
					capital_scope = { is_on_continent = europe }
				}
				THIS_eurosceptic_decline_3_percent = yes
				country_event = britain_md.8
			}
			every_country = {
				limit = {
					NOT = { tag = ENG }
					#NOT = { has_idea = EU_member }
					capital_scope = { is_on_continent = europe }
				}
				country_event = britain_md.8
			}
		}

		ai_will_do = {
			factor = 1
		}
	}

	focus = {
		id = ENG_national_development_1
		icon = construction3
		x = 1
		y = 1
		relative_position_id = ENG_distance_from_europe
		cost = 10

		prerequisite = {
			focus = ENG_distance_from_europe
		}

		search_filters = {FOCUS_FILTER_INDUSTRY}

		completion_reward = {
			log = "[GetDateText]: [Root.GetName]: Focus ENG_national_development_1"
			country_event = britain_md.9
		}

		ai_will_do = {
			factor = 1
		}
	}

	focus = {
		id = ENG_fight_capitalism
		icon = communism4
		x = 29
		y = 4
		cost = 10

		available = {
			communism > 0.35
		}

		prerequisite = {
			focus = ENG_abolish_the_monarchy
		}

		search_filters = {FOCUS_FILTER_POLITICAL}

		completion_reward = {
			log = "[GetDateText]: [Root.GetName]: Focus ENG_fight_capitalism"
			every_country = {
				limit = {
					OR = {
						is_in_faction_with = ENG
						has_idea = EU_member
					}
					NOT = { has_government = communism }
				}
				country_event = britain_md.10
			}
			add_popularity = {
				ideology = communism
				popularity = 0.10
			}
			recalculate_party = yes
			custom_effect_tooltip = ENG_fight_capitalism_TT
					if = {
					limit = { has_idea = international_bankers }
						set_country_flag = current_international_bankers
						visually_display_opinion_fall_international_bankers = yes
						decrease_internal_faction_opinion = yes
						}
			hidden_effect = {
				clear_array = ruling_party
				clear_array = gov_coalition_array
				add_to_array = { ruling_party = 4 }
				update_government_coalition_strength = yes
				update_party_name = yes
				set_coalition_drift = yes
				meta_effect = {
						text = {
							set_country_flag = [META_SET_RULING_PARTY]
						}
						META_SET_RULING_PARTY = "[meta_set_ruling_leader]"
					}
					set_leader = yes
			}
			set_politics = {
				ruling_party = communism
				elections_allowed = no
			}
		}

		ai_will_do = {
			factor = 1
		}

	}
	focus = {
		id = ENG_benevolent_monarchy
		icon = god_save_the_king
		x = 32
		y = 4
		cost = 10

		prerequisite = {
			focus = ENG_empower_the_throne
		}

		search_filters = {FOCUS_FILTER_POLITICAL}

		completion_reward = {
			log = "[GetDateText]: [Root.GetName]: Focus ENG_benevolent_monarchy"
			add_popularity = { ideology = nationalist popularity = 0.10 }
			add_to_variable = { party_pop_array^23 = 0.25 }
			add_to_variable = { party_pop_array^20 = -0.15 }
			recalculate_party = yes
			hidden_effect = {
				clear_array = ruling_party
				clear_array = gov_coalition_array
				add_to_array = { ruling_party = 23 }
				add_to_array = { gov_coalition_array = 21 } #Populists/Fascists
				update_government_coalition_strength = yes
				update_party_name = yes
				set_coalition_drift = yes
				meta_effect = {
					text = {
						set_country_flag = [META_SET_RULING_PARTY]
					}
					META_SET_RULING_PARTY = "[meta_set_ruling_leader]"
				}
				set_leader = yes
			}
			set_politics = {
				ruling_party = nationalist
				elections_allowed = no
			}
		}

		ai_will_do = {
			factor = 15
		}
	}

	focus = {
		id = ENG_imperialism
		icon = colonialism
		x = 35
		y = 4
		cost = 10

		prerequisite = {
			focus = ENG_empower_the_throne
			focus = ENG_empower_the_government
		}

		search_filters = {FOCUS_FILTER_POLITICAL}

		completion_reward = {
			log = "[GetDateText]: [Root.GetName]: Focus ENG_imperialism"
			add_popularity = { ideology = nationalist popularity = 0.10 }
			recalculate_party = yes
		}

		ai_will_do = {
			factor = 1
		}
	}

	focus = {
		id = ENG_nationalism
		icon = fascism2
		x = 38
		y = 4
		cost = 10

		prerequisite = {
			focus = ENG_empower_the_government
		}

		search_filters = {FOCUS_FILTER_POLITICAL}

		completion_reward = {
			log = "[GetDateText]: [Root.GetName]: Focus ENG_nationalism"
			add_popularity = { ideology = nationalist popularity = 0.10 }
			add_to_variable = { party_pop_array^21 = 0.25 }
			subtract_from_variable = { party_pop_array^20 = 0.10 }
			recalculate_party = yes
			hidden_effect = {
				clear_array = ruling_party
				clear_array = gov_coalition_array
				add_to_array = { ruling_party = 21 }
				update_government_coalition_strength = yes
				update_party_name = yes
				set_coalition_drift = yes
				meta_effect = {
					text = {
						set_country_flag = [META_SET_RULING_PARTY]
					}
					META_SET_RULING_PARTY = "[meta_set_ruling_leader]"
				}
				set_leader = yes
			}
			set_politics = {
				ruling_party = nationalist
				elections_allowed = no
			}
		}

		ai_will_do = {
			factor = 1
		}
	}

	focus = {
		id = ENG_army_doctrine_1
		icon = army_doctrine
		x = 42
		y = 4
		cost = 10

		prerequisite = {
			focus = ENG_artillery_for_britain
			focus = ENG_tanks_for_britain
		}

		search_filters = {FOCUS_FILTER_RESEARCH}

		completion_reward = {
			log = "[GetDateText]: [Root.GetName]: Focus ENG_army_doctrine_1"
			add_tech_bonus = {
				name = land_doctrine
				bonus = 0.4
				uses = 1
				category = land_doctrine
			}
		}

		ai_will_do = {
			factor = 1
		}
	}

	focus = {
		id = ENG_air_force_doctrine_1
		icon = air_doctrine
		x = 46
		y = 4
		cost = 10

		prerequisite = {
			focus = ENG_develop_our_fighters
			focus = ENG_develop_heavy_planes
		}

		search_filters = {FOCUS_FILTER_RESEARCH}

		completion_reward = {
			log = "[GetDateText]: [Root.GetName]: Focus ENG_air_force_doctrine_1"
			add_tech_bonus = {
				name = air_doctrine
				bonus = 0.4
				uses = 1
				category = air_doctrine
			}
		}

		ai_will_do = {
			factor = 1
		}
	}

	focus = {
		id = ENG_naval_doctrine_1
		icon = naval_doctrine
		x = 50
		y = 4
		cost = 10

		prerequisite = {
			focus = ENG_develop_submarines
			focus = ENG_develop_carriers
		}

		search_filters = {FOCUS_FILTER_RESEARCH}

		completion_reward = {
			log = "[GetDateText]: [Root.GetName]: Focus ENG_naval_doctrine_1"
			add_tech_bonus = {
				name = Cat_NAVAL_EQP
				bonus = 0.2
				uses = 1
				category = Cat_NAVAL_EQP
			}
		}

		ai_will_do = {
			factor = 1
		}
	}

	focus = {
		id = ENG_english_factories
		icon = industry_military
		x = 0
		y = 5
		cost = 10

		prerequisite = {
			focus = ENG_english_industry
		}

		search_filters = {FOCUS_FILTER_INDUSTRY}

		completion_reward = {
			log = "[GetDateText]: [Root.GetName]: Focus ENG_english_factories"
			random_owned_state = {
				limit = {
					OR = {
						region = 1
						region = 2
					}
					free_building_slots = {
						building = arms_factory
						size > 1
						include_locked = yes
					}
				}
				add_building_construction = {
					type = arms_factory
					level = 2
					instant_build = yes
				}
				add_extra_state_shared_building_slots = 2
			}
			random_owned_state = {
				limit = {
					OR = {
						region = 1
						region = 2
					}
					free_building_slots = {
						building = arms_factory
						size > 1
						include_locked = yes
					}
				}
				add_building_construction = {
					type = arms_factory
					level = 2
					instant_build = yes
				}
				add_extra_state_shared_building_slots = 2
			}
					subtract_from_variable = { treasury = 40.0 }
					custom_effect_tooltip = 40_billion_expense_tt
		}

		ai_will_do = {
			factor = 1
		}
	}

	focus = {
		id = ENG_scottish_factories
		icon = industry_military
		x = 2
		y = 5
		cost = 10

		prerequisite = {
			focus = ENG_scottish_industry
		}

		bypass = {
			NOT = { owns_state = 437 }
			NOT = { owns_state = 9 }
		}

		search_filters = {FOCUS_FILTER_INDUSTRY}

		completion_reward = {
			log = "[GetDateText]: [Root.GetName]: Focus ENG_scottish_factories"
			random_owned_state = {
				limit = {
					region = 3
					free_building_slots = {
						building = arms_factory
						size > 1
						include_locked = yes
					}
				}
				add_building_construction = {
					type = arms_factory
					level = 2
					instant_build = yes
				}
				add_extra_state_shared_building_slots = 2
			}
			random_owned_state = {
				limit = {
					region = 3
					free_building_slots = {
						building = arms_factory
						size > 0
						include_locked = yes
					}
				}
				add_building_construction = {
					type = arms_factory
					level = 1
					instant_build = yes
				}
				add_extra_state_shared_building_slots = 1
			}

					subtract_from_variable = { treasury = 30.0 }
					custom_effect_tooltip = 30_billion_expense_tt
		}


		ai_will_do = {
			factor = 1
		}
	}

	focus = {
		id = ENG_liberal_economics
		icon = consumer_goods
		x = 7
		y = 5
		cost = 10

		prerequisite = {
			focus = ENG_assure_individual_freedoms
		}

		search_filters = {FOCUS_FILTER_INDUSTRY FOCUS_FILTER_POLITICAL}

		completion_reward = {
			log = "[GetDateText]: [Root.GetName]: Focus ENG_liberal_economics"
			add_ideas = ENG_liberal_economics_idea
			add_popularity = { ideology = democratic	popularity = 0.03	}
			recalculate_party = yes
		}

		ai_will_do = {
			factor = 1
		}
	}

	focus = {
		id = ENG_internet_surveillance
		icon = propaganda
		x = 9
		y = 5
		cost = 10

		prerequisite = {
			focus = ENG_public_CCTV_systems
		}

		search_filters = {FOCUS_FILTER_INTERNAL_FACTION FOCUS_FILTER_STABILITY}

		completion_reward = {
			log = "[GetDateText]: [Root.GetName]: Focus ENG_internet_surveillance"
			add_stability = 0.05

				if = {
					limit = { has_idea = intelligence_community }
						set_country_flag = current_intelligence_community
						visually_display_opinion_rise_intelligence_community = yes
						increase_internal_faction_opinion = yes
						}
		}

		ai_will_do = {
			factor = 1
		}
	}

	focus = {
		id = ENG_EU_border_compromise
		icon = align_to_europe
		x = 11
		y = 4
		cost = 10

		prerequisite = {
			focus = ENG_go_with_europe
		}

		search_filters = {FOCUS_FILTER_EUROPEAN_UNION FOCUS_FILTER_POLITICAL FOCUS_FILTER_STABILITY}

		completion_reward = {
			log = "[GetDateText]: [Root.GetName]: Focus ENG_EU_border_compromise"
			EU_eurosceptic_decline_3_percent = yes
			ROOT_eurosceptic_decline_5_percent = yes
			country_event = britain_md.11
		}

		ai_will_do = {
			factor = 1
		}
	}

	focus = {
		id = ENG_propose_the_CANZUK_alliance
		icon = improve_relations
		x = 13
		y = 4
		cost = 10

		prerequisite = {
			focus = ENG_go_with_the_commonwealth
		}

		available = {
			has_government = democratic

			OR = {
				is_faction_leader = yes
				is_in_faction = no
			}
		}

		completion_reward = {
			log = "[GetDateText]: [Root.GetName]: Focus ENG_propose_the_CANZUK_alliance"
			if = {
				limit = {
					is_in_faction = no
				}
				create_faction = british_commonwealth
			}
			CAN = { country_event = britain_md.12 }
			AST = { country_event = britain_md.12 }
			NZL = { country_event = britain_md.12 }
		}

		ai_will_do = {
			factor = 1
		}
	}

	focus = {
		id = ENG_the_british_alliance
		icon = tripartite_pact
		x = 15
		y = 4
		cost = 10

		prerequisite = {
			focus = ENG_britain_first
		}

		search_filters = {FOCUS_FILTER_EUROPEAN_UNION}

		completion_reward = {
			log = "[GetDateText]: [Root.GetName]: Focus ENG_the_british_alliance"
			EU_eurosceptic_rise_3_percent = yes
			ROOT_eurosceptic_rise_5_percent = yes
			create_faction = british_alliance
		}

		ai_will_do = {
			factor = 1
		}
	}

	focus = {
		id = ENG_european_cooperation_2
		icon = major_alliance
		x = 17
		y = 5
		cost = 10

		prerequisite = {
			focus = ENG_european_logistics
		}

		search_filters = {FOCUS_FILTER_EUROPEAN_UNION}

		available = {
			has_idea = EU_member
		}

		completion_reward = {
			log = "[GetDateText]: [Root.GetName]: Focus ENG_european_cooperation_2"
			random_country = {
				limit = {
					NOT = { tag = GER }
					NOT = { tag = ENG }
					NOT = { tag = FRA }
					NOT = { tag = ITA }
					NOT = { has_country_flag = ENG_european_cooperation_received }
					has_idea = EU_member
				}
				invest_in_EU_single_market_cic = yes
				set_country_flag = ENG_european_cooperation_received
			}
			random_country = {
				limit = {
					NOT = { tag = GER }
					NOT = { tag = ENG }
					NOT = { tag = FRA }
					NOT = { tag = ITA }
					NOT = { has_country_flag = ENG_european_cooperation_received }
					has_idea = EU_member
				}
				invest_in_EU_single_market_cic = yes
				set_country_flag = ENG_european_cooperation_received
			}
			random_country = {
				limit = {
					NOT = { tag = GER }
					NOT = { tag = ENG }
					NOT = { tag = FRA }
					NOT = { tag = ITA }
					NOT = { has_country_flag = ENG_european_cooperation_received }
					has_idea = EU_member
				}
				invest_in_EU_single_market_cic = yes
				set_country_flag = ENG_european_cooperation_received
			}
			random_country = {
				limit = {
					NOT = { tag = GER }
					NOT = { tag = ENG }
					NOT = { tag = FRA }
					NOT = { tag = ITA }
					NOT = { has_country_flag = ENG_european_cooperation_received }
					has_idea = EU_member
				}
				invest_in_EU_single_market_cic = yes
				set_country_flag = ENG_european_cooperation_received
			}
		}

		ai_will_do = {
			factor = 1
				modifier = {
					factor = 0.10
					gov_is_eurosceptical = yes
				}
		}
	}



	focus = {
		id = ENG_investments_at_home
		icon = construction2
		x = -1
		y = 1
		relative_position_id = ENG_investments_abroad_1
		cost = 10

		prerequisite = {
			focus = ENG_investments_abroad_1
		}

		mutually_exclusive = {
			focus = ENG_workforce_deal_with_ireland
		}

		search_filters = {FOCUS_FILTER_INDUSTRY}

		completion_reward = {
			log = "[GetDateText]: [Root.GetName]: Focus ENG_investments_at_home"
			EU_eurosceptic_rise_3_percent = yes
			random_owned_state = {
				limit = {
					free_building_slots = {
						building = industrial_complex
						size > 0
						include_locked = yes
					}
				}
				add_extra_state_shared_building_slots = 1
				add_building_construction = {
					type = industrial_complex
					level = 1
					instant_build = yes
				}
			}
			random_owned_state = {
				limit = {
					free_building_slots = {
						building = arms_factory
						size > 0
						include_locked = yes
					}
				}
				add_extra_state_shared_building_slots = 1
				add_building_construction = {
					type = arms_factory
					level = 1
					instant_build = yes
				}
			}
			random_owned_state = {
				limit = {
					free_building_slots = {
						building = dockyard
						size > 0
						include_locked = yes
					}
				}
				add_extra_state_shared_building_slots = 1
				add_building_construction = {
					type = dockyard
					level = 1
					instant_build = yes
				}
			}
			subtract_from_variable = { treasury = 15.0 }
			custom_effect_tooltip = 15_billion_expense_tt
		}

		ai_will_do = {
			factor = 1
				modifier = {
					factor = 10
					gov_is_eurosceptical = yes
				}
		}
	}

	focus = {
		id = ENG_workforce_deal_with_ireland
		icon = construction
		x = 1
		y = 1
		relative_position_id = ENG_investments_abroad_1
		cost = 10

		prerequisite = {
			focus = ENG_investments_abroad_1
		}

		mutually_exclusive = {
			focus = ENG_investments_at_home
		}

		search_filters = {FOCUS_FILTER_EUROPEAN_UNION}

		available = {
			owns_state = 17
			NOT = { has_war_with = IRE }
			NOT = { has_completed_focus = ENG_subjugate_ireland }
		}

		completion_reward = {
			log = "[GetDateText]: [Root.GetName]: Focus ENG_workforce_deal_with_ireland"
			ROOT_eurosceptic_decline_10_percent = yes
			IRE = { THIS_eurosceptic_decline_10_percent = yes }
			IRE = { country_event = britain_md.13 }
		}

		ai_will_do = {
			factor = 1
			modifier = {
				factor = 0
				is_historical_focus_on = yes
			}
			modifier = {
				add = 15
				NOT = { gov_is_eurosceptical = yes }
			}
		}
	}

	focus = {
		id = ENG_national_development_2
		icon = construction3
		x = 0
		y = 1
		relative_position_id = ENG_national_development_1
		cost = 10

		prerequisite = {
			focus = ENG_national_development_1
		}

		search_filters = {FOCUS_FILTER_INDUSTRY FOCUS_FILTER_POLITICAL}

		completion_reward = {
			log = "[GetDateText]: [Root.GetName]: Focus ENG_national_development_2"
			add_political_power = 20
			country_event = britain_md.9
		}

		ai_will_do = {
			factor = 1
		}
	}

	focus = {
		id = ENG_break_the_banks
		icon = communism3
		x = 28
		y = 5
		cost = 10

		prerequisite = {
			focus = ENG_fight_capitalism
		}

		search_filters = {FOCUS_FILTER_INTERNAL_FACTION FOCUS_FILTER_POLITICAL}

		completion_reward = {
			log = "[GetDateText]: [Root.GetName]: Focus ENG_break_the_banks"
			add_ideas = ENG_broken_the_banks
			hidden_effect = {
			if = {
					limit = { has_idea = international_bankers }
					swap_ideas = {
							remove_idea = international_bankers
							add_idea = labour_unions
					}
					clr_country_flag = enthusiastic_international_bankers
					clr_country_flag = positive_international_bankers
					clr_country_flag = indifferent_international_bankers
					clr_country_flag = negative_international_bankers
					clr_country_flag = hostile_international_bankers
					set_country_flag = positive_labour_unions
					}
					visually_display_opinion_fall_international_bankers = yes
					decrease_internal_faction_opinion = yes
					}
			custom_effect_tooltip = ENG_break_the_banks_TT
		}

		ai_will_do = {
			factor = 1
		}
	}

	focus = {
		id = ENG_persecute_lobbyists
		icon = communism
		x = 30
		y = 5
		cost = 10

		prerequisite = {
			focus = ENG_fight_capitalism
		}

		search_filters = {FOCUS_FILTER_POLITICAL FOCUS_FILTER_STABILITY FOCUS_FILTER_WAR_SUPPORT}

		completion_reward = {
			log = "[GetDateText]: [Root.GetName]: Focus ENG_persecute_lobbyists"
			add_war_support = 0.03
			add_ideas = ENG_persecuted_lobbyists

				if = {
					limit = { has_idea = international_bankers }
						set_country_flag = current_international_bankers
						visually_display_opinion_fall_international_bankers = yes
						decrease_internal_faction_opinion = yes
				}


		}

		ai_will_do = {
			factor = 1
		}
	}

	focus = {
		id = ENG_royal_office_of_employment
		icon = production2
		x = 32
		y = 5
		cost = 10

		prerequisite = {
			focus = ENG_benevolent_monarchy
		}

		search_filters = {FOCUS_FILTER_INDUSTRY FOCUS_FILTER_MANPOWER FOCUS_FILTER_WAR_SUPPORT}

		completion_reward = {
			log = "[GetDateText]: [Root.GetName]: Focus ENG_royal_office_of_employment"
			add_war_support = 0.05
			add_ideas = ENG_royal_office_of_employment_idea
		}

		ai_will_do = {
			factor = 1
		}
	}

	focus = {
		id = ENG_restore_the_british_empire
		icon = british_global_defense
		x = 34
		y = 5
		cost = 10

		prerequisite = {
			focus = ENG_imperialism
		}

		search_filters = {FOCUS_FILTER_POLITICAL}

		completion_reward = {
			log = "[GetDateText]: [Root.GetName]: Focus ENG_restore_the_british_empire"
			if = {
				limit = {
					has_completed_focus = ENG_empower_the_throne
				}
				hidden_effect = {
					add_popularity = {
						ideology = nationalist
						popularity = 0.1
					}
					add_to_variable = { party_pop_array^23 = 0.075 }
					add_to_variable = { party_pop_array^20 = 0.025 }
				}
				custom_effect_tooltip = ENG_gain_7_5_monarchist_support_TT
				recalculate_party = yes
			}
			if = {
				limit = {
					has_completed_focus = ENG_empower_the_government
				}
				hidden_effect = {
					add_popularity = {
						ideology = nationalist
						popularity = 0.1
					}
					add_to_variable = { party_pop_array^21 = 0.10 }
				}
				custom_effect_tooltip = ENG_gain_10_fascism_support_TT
				recalculate_party = yes
			}
		}

		ai_will_do = {
			factor = 1
		}
	}

	focus = {
		id = ENG_realm_of_britain
		icon = enemy_of_britain
		x = 36
		y = 5
		cost = 10

		prerequisite = {
			focus = ENG_imperialism
		}

		search_filters = {FOCUS_FILTER_POLITICAL}

		completion_reward = {
			log = "[GetDateText]: [Root.GetName]: Focus ENG_realm_of_britain"
			if = {
				limit = {
					has_completed_focus = ENG_empower_the_throne
				}
				hidden_effect = {
					add_popularity = {
						ideology = nationalist
						popularity = 0.1
					}
					add_to_variable = { party_pop_array^23 = 0.075 }
					add_to_variable = { party_pop_array^20 = 0.025 }
				}
				custom_effect_tooltip = ENG_gain_7_5_monarchist_support_TT
				recalculate_party = yes
			}
			if = {
				limit = {
					has_completed_focus = ENG_empower_the_government
				}
				hidden_effect = {
					add_popularity = {
						ideology = nationalist
						popularity = 0.1
					}
					add_to_variable = { party_pop_array^21 = 0.10 }
				}
				custom_effect_tooltip = ENG_gain_10_fascism_support_TT
				recalculate_party = yes
			}
		}

		ai_will_do = {
			factor = 1
		}
	}

	focus = {
		id = ENG_national_militarism
		icon = entente
		x = 38
		y = 5
		cost = 10

		prerequisite = {
			focus = ENG_nationalism
		}

		search_filters = {FOCUS_FILTER_MANPOWER FOCUS_FILTER_POLITICAL}

		completion_reward = {
			log = "[GetDateText]: [Root.GetName]: Focus ENG_national_militarism"
			add_ideas = ENG_national_militarism_idea
		}

		ai_will_do = {
			factor = 1
		}
	}

	focus = {
		id = ENG_school_for_strategic_warfare
		icon = general_staff
		x = 41
		y = 5
		cost = 10

		prerequisite = {
			focus = ENG_army_doctrine_1
		}

		completion_reward = {
			log = "[GetDateText]: [Root.GetName]: Focus ENG_school_for_strategic_warfare"
			add_ideas = ENG_school_for_strategic_warfare_idea
		}

		ai_will_do = {
			factor = 1
		}
	}

	focus = {
		id = ENG_ground_support_planes
		icon = bombs
		x = 44
		y = 5
		cost = 10

		prerequisite = {
			focus = ENG_army_doctrine_1
		}
		prerequisite = {
			focus = ENG_air_force_doctrine_1
		}

		completion_reward = {
			log = "[GetDateText]: [Root.GetName]: Focus ENG_ground_support_planes"
			add_ideas = ENG_ground_support_planes_idea
		}

		ai_will_do = {
			factor = 1
		}
	}

	focus = {
		id = ENG_air_force_doctrine_2
		icon = air_doctrine
		x = 46
		y = 5
		cost = 10

		prerequisite = {
			focus = ENG_air_force_doctrine_1
		}

		search_filters = {FOCUS_FILTER_RESEARCH}

		completion_reward = {
			log = "[GetDateText]: [Root.GetName]: Focus ENG_air_force_doctrine_2"
			add_tech_bonus = {
				name = air_doctrine
				bonus = 0.4
				uses = 2
				category = air_doctrine
			}
		}

		ai_will_do = {
			factor = 1
		}
	}

	focus = {
		id = ENG_naval_support_planes
		icon = naval_bombers
		x = 48
		y = 5
		cost = 10

		prerequisite = {
			focus = ENG_air_force_doctrine_1
		}
		prerequisite = {
			focus = ENG_naval_doctrine_1
		}

		completion_reward = {
			log = "[GetDateText]: [Root.GetName]: Focus ENG_naval_support_planes"
			add_ideas = ENG_naval_support_planes_idea
		}

		ai_will_do = {
			factor = 1
		}
	}

	focus = {
		id = ENG_extra_research_slot_1
		icon = research
		x = 1
		y = 6
		cost = 10

		prerequisite = {
			focus = ENG_english_factories
		}
		prerequisite = {
			focus = ENG_dockyards_2
		}
		prerequisite = {
			focus = ENG_scottish_factories
		}

		search_filters = {FOCUS_FILTER_RESEARCH}

		completion_reward = {
			log = "[GetDateText]: [Root.GetName]: Focus ENG_extra_research_slot_1"
			add_research_slot = 1
			SE_remove_10_treasury = yes
		}

		ai_will_do = {
			factor = 1
		}
	}

	focus = {
		id = ENG_air_travel_agreements_with_europe
		icon = air_defense
		x = 11
		y = 5
		cost = 10

		prerequisite = {
			focus = ENG_EU_border_compromise
		}

		search_filters = {FOCUS_FILTER_EUROPEAN_UNION}

		completion_reward = {
			log = "[GetDateText]: [Root.GetName]: Focus ENG_air_travel_agreements_with_europe"
			EU_eurosceptic_decline_3_percent = yes
			ROOT_eurosceptic_decline_5_percent = yes
			country_event = britain_md.14
		}

		ai_will_do = {
			factor = 1
		}
	}

	focus = {
		id = ENG_invite_the_united_states
		icon = align_to_america
		x = 13
		y = 5
		cost = 10

		prerequisite = {
			focus = ENG_propose_the_CANZUK_alliance
		}

		completion_reward = {
			log = "[GetDateText]: [Root.GetName]: Focus ENG_invite_the_united_states"
			USA = { country_event = britain_md.15 }
		}

		ai_will_do = {
			factor = 1
		}
	}

	focus = {
		id = ENG_diplomatic_sovereignity
		icon = political_pressure
		x = 15
		y = 5
		cost = 10

		prerequisite = {
			focus = ENG_the_british_alliance
		}
		search_filters = {FOCUS_FILTER_EUROPEAN_UNION}
		available = {
			#NOT = {
			#	has_idea = EU_member
			#}
		}

		completion_reward = {
			log = "[GetDateText]: [Root.GetName]: Focus ENG_diplomatic_sovereignity"
			EU_eurosceptic_rise_3_percent = yes
			ROOT_eurosceptic_rise_5_percent = yes
			add_ideas = ENG_diplomatic_sovereignity_idea
		}

		ai_will_do = {
			factor = 1
		}
	}



	focus = {
		id = ENG_investments_abroad_2
		icon = trade
		x = 1
		y = 1
		relative_position_id = ENG_investments_at_home
		cost = 10

		prerequisite = {
			focus = ENG_investments_at_home
			focus = ENG_workforce_deal_with_ireland
		}

		search_filters = {FOCUS_FILTER_EUROPEAN_UNION FOCUS_FILTER_POLITICAL}

		completion_reward = {
			log = "[GetDateText]: [Root.GetName]: Focus ENG_investments_abroad_2"
			EU_eurosceptic_rise_10_percent = yes
			add_political_power = 15
			every_country = {
				limit = {
					NOT = { tag = ENG }
					capital_scope = { is_on_continent = africa }

				}
				country_event = britain_md.8
			}
		}

		ai_will_do = {
			factor = 1
			modifier = {
				add = 15
				gov_is_eurosceptical = yes
			}
		}
	}

	focus = {
		id = ENG_defensive_constructions
		icon = military_fort
		x = -2
		y = 0
		relative_position_id = ENG_national_development_2
		cost = 10

		prerequisite = {
			focus = ENG_national_development_2
		}

		completion_reward = {
			log = "[GetDateText]: [Root.GetName]: Focus ENG_defensive_constructions"
			add_ideas = ENG_defensive_constructions_idea
		}

		ai_will_do = {
			factor = 1
		}
	}

	focus = {
		id = ENG_industrial_development_program
		icon = industry_civilian
		x = 27
		y = 6
		cost = 10

		prerequisite = {
			focus = ENG_national_development_2
		}

		search_filters = {FOCUS_FILTER_INDUSTRY}

		completion_reward = {
			log = "[GetDateText]: [Root.GetName]: Focus ENG_industrial_development_program"
			add_ideas = ENG_industrial_development_program_idea
		}

		ai_will_do = {
			factor = 1
		}
	}

	focus = {
		id = ENG_universal_employment
		icon = communism4
		x = 29
		y = 6
		cost = 10

		prerequisite = {
			focus = ENG_break_the_banks
		}
		prerequisite = {
			focus = ENG_persecute_lobbyists
		}

		search_filters = {FOCUS_FILTER_EXPENDITURE FOCUS_FILTER_INDUSTRY}

		completion_reward = {
			log = "[GetDateText]: [Root.GetName]: Focus ENG_universal_employment"
			add_ideas = ENG_universal_employment_idea
			max_social_spending = yes
		}

		ai_will_do = {
			factor = 1
		}
	}

	focus = {
		id = ENG_royal_industries
		icon = industry_civilian
		x = 32
		y = 6
		cost = 10

		prerequisite = {
			focus = ENG_royal_office_of_employment
		}

		search_filters = {FOCUS_FILTER_INDUSTRY}

		completion_reward = {
			log = "[GetDateText]: [Root.GetName]: Focus ENG_royal_industries"
			add_ideas = ENG_royal_industrial_construction
		}

		ai_will_do = {
			factor = 1
		}
	}

	focus = {
		id = ENG_colonial_outposts_in_africa
		icon = british_africa
		x = 34
		y = 6
		cost = 10

		prerequisite = {
			focus = ENG_restore_the_british_empire
		}

		search_filters = {FOCUS_FILTER_ANNEXATION}

		available = {
			OR = {
				NOT = { is_in_faction_with = GAM }
				NOT = { is_in_faction_with = BEN }
				NOT = { is_in_faction_with = SIE }
			}
		}

		completion_reward = {
			log = "[GetDateText]: [Root.GetName]: Focus ENG_colonial_outposts_in_africa"
			if = {
				limit = {
					NOT = { is_in_faction_with = GAM }
				}
				create_wargoal = {
					target = GAM
					type = annex_everything
				}
			}
			if = {
				limit = {
					NOT = { is_in_faction_with = SIE }
				}
				create_wargoal = {
					target = SIE
					type = annex_everything
				}
			}
			if = {
				limit = {
					NOT = { is_in_faction_with = BEN }
				}
				create_wargoal = {
					target = BEN
					type = annex_everything
				}
			}
		}

		ai_will_do = {
			factor = 1
		}
	}

	focus = {
		id = ENG_subjugate_ireland
		icon = war2
		x = 36
		y = 6
		cost = 10

		prerequisite = {
			focus = ENG_realm_of_britain
		}

		search_filters = {FOCUS_FILTER_ANNEXATION}

		available = {
			NOT = { has_completed_focus = ENG_workforce_deal_with_ireland }
		}

		completion_reward = {
			log = "[GetDateText]: [Root.GetName]: Focus ENG_subjugate_ireland"
			create_wargoal = {
				target = IRE
				type = annex_everything
			}
		}

		ai_will_do = {
			factor = 1
		}
	}

	focus = {
		id = ENG_reorganize_the_education_system
		icon = military_academy
		x = 38
		y = 6
		cost = 10

		prerequisite = {
			focus = ENG_national_militarism
		}

		search_filters = {FOCUS_FILTER_EXPENDITURE FOCUS_FILTER_MANPOWER FOCUS_FILTER_POLITICAL FOCUS_FILTER_RESEARCH}

		completion_reward = {
			log = "[GetDateText]: [Root.GetName]: Focus ENG_reorganize_the_education_system"
			country_event = britain_md.17
		}

		ai_will_do = {
			factor = 1
		}
	}

	focus = {
		id = ENG_army_doctrine_2
		icon = army_doctrine
		x = 42
		y = 6
		cost = 10

		prerequisite = {
			focus = ENG_army_doctrine_1
		}

		search_filters = {FOCUS_FILTER_RESEARCH}

		completion_reward = {
			log = "[GetDateText]: [Root.GetName]: Focus ENG_army_doctrine_2"
			add_tech_bonus = {
				name = land_doctrine
				bonus = 0.4
				uses = 1
				category = land_doctrine
			}
		}

		ai_will_do = {
			factor = 1
		}
	}

	focus = {
		id = ENG_ground_crew_training
		icon = special_air_service
		x = 46
		y = 6
		cost = 10

		prerequisite = {
			focus = ENG_air_force_doctrine_2
		}

		search_filters = {FOCUS_FILTER_RESEARCH}

		completion_reward = {
			log = "[GetDateText]: [Root.GetName]: Focus ENG_ground_crew_training"
			air_experience = 30
			add_tech_bonus = {
				name = air_doctrine
				bonus = 0.2
				uses = 1
				category = air_doctrine
			}
		}

		ai_will_do = {
			factor = 1
		}
	}

	focus = {
		id = ENG_naval_doctrine_2
		icon = naval_doctrine
		x = 50
		y = 6
		cost = 10

		prerequisite = {
			focus = ENG_naval_doctrine_1
		}

		search_filters = {FOCUS_FILTER_RESEARCH}

		completion_reward = {
			log = "[GetDateText]: [Root.GetName]: Focus ENG_naval_doctrine_2"
			air_experience = 10
			add_tech_bonus = {
				name = naval_bonus
				bonus = 0.2
				uses = 1
				category = Cat_NAVAL_EQP
			}
		}

		ai_will_do = {
			factor = 1
		}
	}

	focus = {
		id = ENG_european_cooperation_3
		icon = major_alliance
		x = 2
		y = 0
		relative_position_id = ENG_european_cooperation_2
		cost = 10

		prerequisite = {
			focus = ENG_european_cooperation_2
		}
		prerequisite = {
			focus = ENG_european_logistics
		}
		available = {
			has_idea = EU_member
		}

		search_filters = {FOCUS_FILTER_EUROPEAN_UNION}

		completion_reward = {
			log = "[GetDateText]: [Root.GetName]: Focus ENG_european_cooperation_3"
			random_country = {
				limit = {
					NOT = { tag = GER }
					NOT = { tag = ENG }
					NOT = { tag = FRA }
					NOT = { tag = ITA }
					NOT = { has_country_flag = ENG_european_cooperation_received }
					has_idea = EU_member
				}
				invest_in_EU_single_market_cic = yes
				set_country_flag = ENG_european_cooperation_received
			}
			random_country = {
				limit = {
					NOT = { tag = GER }
					NOT = { tag = ENG }
					NOT = { tag = FRA }
					NOT = { tag = ITA }
					NOT = { has_country_flag = ENG_european_cooperation_received }
					has_idea = EU_member
				}
				invest_in_EU_single_market_cic = yes
				set_country_flag = ENG_european_cooperation_received
			}
			random_country = {
				limit = {
					NOT = { tag = GER }
					NOT = { tag = ENG }
					NOT = { tag = FRA }
					NOT = { tag = ITA }
					NOT = { has_country_flag = ENG_european_cooperation_received }
					has_idea = EU_member
				}
				invest_in_EU_single_market_cic = yes
				set_country_flag = ENG_european_cooperation_received
			}
			random_country = {
				limit = {
					NOT = { tag = GER }
					NOT = { tag = ENG }
					NOT = { tag = FRA }
					NOT = { tag = ITA }
					NOT = { has_country_flag = ENG_european_cooperation_received }
					has_idea = EU_member
				}
				invest_in_EU_single_market_cic = yes
				set_country_flag = ENG_european_cooperation_received
			}
		}

		ai_will_do = {
			factor = 1
				modifier = {
					factor = 0.10
					gov_is_eurosceptical = yes
				}
		}
	}



	focus = {
		id = ENG_develop_infrastructure
		icon = infrastructure
		x = -1
		y = 1
		relative_position_id = ENG_investments_abroad_2
		cost = 10

		prerequisite = {
			focus = ENG_investments_abroad_2
		}

		search_filters = {FOCUS_FILTER_INDUSTRY}

		completion_reward = {
			log = "[GetDateText]: [Root.GetName]: Focus ENG_develop_infrastructure"
			every_owned_state = {
				limit = {
					OR = {
						region = 1
						region = 2
						region = 3
						region = 4
					}
					free_building_slots = {
						building = infrastructure
						size > 0
					}
				}
				add_building_construction = {
					type = infrastructure
					level = 1
					instant_build = yes
				}
			}
				subtract_from_variable = { treasury = 15.0 }
				custom_effect_tooltip = 15_billion_expense_tt
		}

		ai_will_do = {
			factor = 1
		}
	}

	focus = {
		id = ENG_national_development_3
		icon = construction3
		x = 0
		y = 1
		relative_position_id = ENG_defensive_constructions
		cost = 15

		prerequisite = {
			focus = ENG_defensive_constructions
		}

		search_filters = {FOCUS_FILTER_INDUSTRY FOCUS_FILTER_POLITICAL FOCUS_FILTER_WAR_SUPPORT}

		completion_reward = {
			log = "[GetDateText]: [Root.GetName]: Focus ENG_national_development_3"
			add_political_power = 50
			add_war_support = 0.05
			country_event = britain_md.9
		}

		ai_will_do = {
			factor = 1
		}
	}

	focus = {
		id = ENG_invest_in_resources
		icon = oil_production
		x = 28
		y = 7
		cost = 10

		prerequisite = {
			focus = ENG_universal_employment
		}

		search_filters = {FOCUS_FILTER_RESOURCE}

		completion_reward = {
			log = "[GetDateText]: [Root.GetName]: Focus ENG_invest_in_resources"
			if = {
				limit = {
					tag = ENG
					has_full_control_of_state = 9
				}
				add_resource = { 	#Scotland
					type = oil
					amount = 5
					state = 9
				}
			}
			if = {
				limit = {
					tag = ENG
					has_full_control_of_state = 12
				}
				add_resource = { 	#Midlands
					type = steel
					amount = 5
					state = 12
				}

			}
			subtract_from_variable = { treasury = 7.0 }
			custom_effect_tooltip = 7_billion_expense_tt
		}

		ai_will_do = {
			factor = 1
		}
	}

	focus = {
		id = ENG_establish_a_revolutionary_committee
		icon = communism3
		x = 30
		y = 7
		cost = 10

		prerequisite = {
			focus = ENG_universal_employment
		}

		search_filters = {FOCUS_FILTER_MANPOWER FOCUS_FILTER_POLITICAL}

		completion_reward = {
			log = "[GetDateText]: [Root.GetName]: Focus ENG_establish_a_revolutionary_committee"
			add_ideas = ENG_revolutionary_committee
			every_country = {
				limit = {
					OR = {
						has_idea = EU_member
						has_idea = commonwealth_of_nations_member
						is_in_faction_with = ENG
					}
					NOT = { has_government = communism }
				}
				country_event = britain_md.18
			}
		}

		ai_will_do = {
			factor = 1
		}
	}

	focus = {
		id = ENG_royal_factories
		icon = industry_military
		x = 32
		y = 7
		cost = 10

		prerequisite = {
			focus = ENG_royal_industries
		}

		search_filters = {FOCUS_FILTER_INDUSTRY FOCUS_FILTER_INTERNAL_FACTION}

		completion_reward = {
			log = "[GetDateText]: [Root.GetName]: Focus ENG_royal_factories"
			add_ideas = ENG_royal_military_construction
				if = {
					limit = { has_idea = defense_industry }
						set_country_flag = current_defense_industry
						visually_display_opinion_rise_defense_industry = yes
						increase_internal_faction_opinion = yes
						}
		}

		ai_will_do = {
			factor = 1
		}
	}

	focus = {
		id = ENG_restore_the_cape_colony
		icon = colonial_crackdown
		x = 35
		y = 7
		cost = 10

		prerequisite = {
			focus = ENG_colonial_outposts_in_africa
			focus = ENG_subjugate_ireland
		}

		available = {
			NOT = { is_in_faction_with = SAF }
		}

		search_filters = {FOCUS_FILTER_ANNEXATION}

		completion_reward = {
			log = "[GetDateText]: [Root.GetName]: Focus ENG_restore_the_cape_colony"
			create_wargoal = {
				type = puppet_wargoal_focus
				target = SAF
			}
			every_country = {
				limit = {
					OR = {
						tag = ENG
						is_in_faction_with = ENG
						tag = SAF
						is_in_faction_with = SAF
					}
				}
				news_event = britain_news.62
			}
		}

		ai_will_do = {
			factor = 1
		}
	}

	focus = {
		id = ENG_maintain_a_multiethnic_army
		icon = fascism
		x = 37
		y = 7
		cost = 10

		prerequisite = {
			focus = ENG_reorganize_the_education_system
		}

		mutually_exclusive = {
			focus = ENG_national_office_for_the_colored_workforce
		}

		search_filters = {FOCUS_FILTER_MANPOWER FOCUS_FILTER_POLITICAL FOCUS_FILTER_STABILITY}

		completion_reward = {
			log = "[GetDateText]: [Root.GetName]: Focus ENG_maintain_a_multiethnic_army"
			add_popularity = {
				ideology = nationalist
				popularity = 0.05
			}
			recalculate_party = yes
			add_ideas = ENG_multiethnic_army
		}

		ai_will_do = {
			factor = 15
		}
	}

	focus = {
		id = ENG_national_office_for_the_colored_workforce
		icon = fascism2
		x = 39
		y = 7
		cost = 10

		prerequisite = {
			focus = ENG_reorganize_the_education_system
		}

		mutually_exclusive = {
			focus = ENG_maintain_a_multiethnic_army
		}

		search_filters = {FOCUS_FILTER_INDUSTRY FOCUS_FILTER_POLITICAL}

		completion_reward = {
			log = "[GetDateText]: [Root.GetName]: Focus ENG_national_office_for_the_colored_workforce"
			add_popularity = {
				ideology = nationalist
				popularity = 0.05
			}
			recalculate_party = yes
			add_ideas = ENG_modern_slavery
		}

		ai_will_do = {
			factor = 1
		}
	}

	focus = {
		id = ENG_army_of_quality
		icon = cavalry
		x = 41
		y = 7
		cost = 10

		prerequisite = {
			focus = ENG_army_doctrine_2
		}

		mutually_exclusive = {
			focus = ENG_army_of_quantity
		}

		completion_reward = {
			log = "[GetDateText]: [Root.GetName]: Focus ENG_army_of_quality"
			add_ideas = ENG_army_of_quality_idea
		}

		ai_will_do = {
			factor = 1
		}
	}

	focus = {
		id = ENG_army_of_quantity
		icon = artillery
		x = 43
		y = 7
		cost = 10

		prerequisite = {
			focus = ENG_army_doctrine_2
		}

		mutually_exclusive = {
			focus = ENG_army_of_quality
		}

		search_filters = {FOCUS_FILTER_MANPOWER}

		completion_reward = {
			log = "[GetDateText]: [Root.GetName]: Focus ENG_army_of_quantity"
			add_ideas = ENG_army_of_quantity_idea
		}

		ai_will_do = {
			factor = 1
		}
	}

	focus = {
		id = ENG_improve_our_small_ships
		icon = cruisers
		x = 49
		y = 7
		cost = 20

		prerequisite = {
			focus = ENG_naval_doctrine_2
		}

		completion_reward = {
			log = "[GetDateText]: [Root.GetName]: Focus ENG_improve_our_small_ships"
			add_ideas = ENG_small_ship_project
		}

		ai_will_do = {
			factor = 1
		}
	}

	focus = {
		id = ENG_improve_our_large_ships
		icon = battleships
		x = 51
		y = 7
		cost = 20

		prerequisite = {
			focus = ENG_naval_doctrine_2
		}

		completion_reward = {
			log = "[GetDateText]: [Root.GetName]: Focus ENG_improve_our_large_ships"
			add_ideas = ENG_large_ship_project
		}

		ai_will_do = {
			factor = 1
		}
	}



	focus = {
		id = ENG_investments_abroad_3
		icon = trade
		x = 0
		y = 2
		relative_position_id = ENG_investments_abroad_2
		cost = 10

		prerequisite = {
			focus = ENG_investments_abroad_2
		}

		search_filters = {FOCUS_FILTER_EUROPEAN_UNION FOCUS_FILTER_POLITICAL}

		completion_reward = {
			log = "[GetDateText]: [Root.GetName]: Focus ENG_investments_abroad_3"
			EU_eurosceptic_rise_15_percent = yes
			add_political_power = 15
			every_country = {
				limit = {
					NOT = { tag = ENG }
					capital_scope = {
						OR = {
							is_on_continent = asia
							is_on_continent = south_america
						}
					}

				}
				country_event = britain_md.8
			}
		}

		ai_will_do = {
			factor = 1
		}
	}

	focus = {
		id = ENG_socialist_secret_police
		icon = communist_spies
		x = 29
		y = 8
		cost = 10

		prerequisite = {
			focus = ENG_establish_a_revolutionary_committee
		}

		completion_reward = {
			log = "[GetDateText]: [Root.GetName]: Focus ENG_socialist_secret_police"
			add_ideas = ENG_secret_police
		}

		ai_will_do = {
			factor = 1
		}
	}

	focus = {
		id = ENG_the_throne_of_all_britons
		icon = monarchism2
		x = 32
		y = 8
		cost = 10

		prerequisite = {
			focus = ENG_royal_factories
		}

		search_filters = {FOCUS_FILTER_MANPOWER FOCUS_FILTER_POLITICAL FOCUS_FILTER_STABILITY FOCUS_FILTER_WAR_SUPPORT}

		completion_reward = {
			log = "[GetDateText]: [Root.GetName]: Focus ENG_the_throne_of_all_britons"
			add_war_support = 0.05
			add_political_power = 50
			add_popularity = {
				ideology = nationalist
				popularity = 0.1
			}
			recalculate_party = yes
			add_ideas = ENG_the_great_throne
		}

		ai_will_do = {
			factor = 1
		}
	}

	focus = {
		id = ENG_restore_the_raj
		icon = british_investors_in_india
		x = 34
		y = 8
		cost = 10

		prerequisite = {
			focus = ENG_colonial_outposts_in_africa
		}

		search_filters = {FOCUS_FILTER_ANNEXATION}

		available = {
			NOT = { is_in_faction_with = RAJ }
		}

		completion_reward = {
			log = "[GetDateText]: [Root.GetName]: Focus ENG_restore_the_raj"
			create_wargoal = {
				type = puppet_wargoal_focus
				target = RAJ
			}
			news_event = britain_news.63
		}

		ai_will_do = {
			factor = 1
		}
	}

	focus = {
		id = ENG_revolt_in_quebec
		icon = quebec_conflict
		x = 36
		y = 8
		cost = 10

		prerequisite = {
			focus = ENG_subjugate_ireland
		}

		search_filters = {FOCUS_FILTER_ANNEXATION}

		available = {
			NOT = { is_in_faction_with = CAN }
		}

		completion_reward = {
			log = "[GetDateText]: [Root.GetName]: Focus ENG_revolt_in_quebec"
			country_event = britain_md.19
		}

		ai_will_do = {
			factor = 1
		}
	}

	focus = {
		id = ENG_jingoism
		icon = war
		x = 38
		y = 8
		cost = 10

		prerequisite = {
			focus = ENG_maintain_a_multiethnic_army
			focus = ENG_national_office_for_the_colored_workforce
		}

		search_filters = {FOCUS_FILTER_POLITICAL FOCUS_FILTER_ANNEXATION}

		completion_reward = {
			log = "[GetDateText]: [Root.GetName]: Focus ENG_jingoism"
			add_ideas = ENG_jingoism_idea
		}

		ai_will_do = {
			factor = 1
		}
	}

	focus = {
		id = ENG_army_doctrine_3
		icon = army_doctrine
		x = 42
		y = 8
		cost = 10

		prerequisite = {
			focus = ENG_army_of_quality
			focus = ENG_army_of_quantity
		}

		search_filters = {FOCUS_FILTER_RESEARCH}

		completion_reward = {
			log = "[GetDateText]: [Root.GetName]: Focus ENG_army_doctrine_3"
			army_experience = 25
			add_tech_bonus = {
				name = land_doctrine
				bonus = 0.4
				uses = 1
				category = land_doctrine
			}
		}

		ai_will_do = {
			factor = 1
		}
	}

	focus = {
		id = ENG_naval_doctrine_3
		icon = naval_doctrine
		x = 50
		y = 8
		cost = 10

		prerequisite = {
			focus = ENG_improve_our_large_ships
		}
		prerequisite = {
			focus = ENG_improve_our_small_ships
		}

		search_filters = {FOCUS_FILTER_RESEARCH}

		completion_reward = {
			log = "[GetDateText]: [Root.GetName]: Focus ENG_naval_doctrine_3"
			navy_experience = 25
			add_tech_bonus = {
				name = naval_bonus
				bonus = 0.3
				uses = 1
				category = Cat_NAVAL_EQP
			}
		}

		ai_will_do = {
			factor = 1
		}
	}

	### Revive Churchill's Europe
	focus = {
		id = ENG_one_union ### old name, not changed
		icon = winston_churchill
		x = -2
		y = 1
		relative_position_id = ENG_european_cooperation_3
		cost = 20

		prerequisite = {
			focus = ENG_european_cooperation_3
		}

		search_filters = {FOCUS_FILTER_EUROPEAN_UNION FOCUS_FILTER_POLITICAL}

		available = {
			has_idea = EU_member
		}

		mutually_exclusive = {	}

		completion_reward = {
			log = "[GetDateText]: [Root.GetName]: Focus ENG_one_union"
			EU_eurosceptic_decline_5_percent = yes
			ROOT_eurosceptic_decline_15_percent = yes
			add_political_power = 25
		}

		ai_will_do = {
			factor = 1
			modifier = {
				factor = 0
				is_historical_focus_on = yes
			}
			modifier = {
				factor = 0
				gov_is_eurosceptical = yes
			}
		}

	}



	focus = {
		id = ENG_royal_army
		icon = british_nationalism
		x = 42
		y = 9
		cost = 25

		prerequisite = {
			focus = ENG_army_doctrine_3
		}

		search_filters = {FOCUS_FILTER_MANPOWER}

		completion_reward = {
			log = "[GetDateText]: [Root.GetName]: Focus ENG_royal_army"
			add_ideas = ENG_royal_army_idea
		}

		ai_will_do = {
			factor = 1
		}
	}

	focus = {
		id = ENG_britannia_rules_the_waves
		icon = amphibious_assault
		x = 50
		y = 9
		cost = 25

		prerequisite = {
			focus = ENG_naval_doctrine_3
		}

		completion_reward = {
			log = "[GetDateText]: [Root.GetName]: Focus ENG_britannia_rules_the_waves"
			add_ideas = ENG_rule_the_waves
		}

		ai_will_do = {
			factor = 1
		}
	}

	focus = {
		id = ENG_defensive_assistance
		icon = military_academy
		x = -1
		y = 1
		relative_position_id = ENG_one_union
		cost = 10

		prerequisite = {
			focus = ENG_one_union
		}

		search_filters = {FOCUS_FILTER_EUROPEAN_UNION}

		available = {
			has_idea = EU_member
		}

		completion_reward = {
			log = "[GetDateText]: [Root.GetName]: Focus ENG_defensive_assistance"
			every_country = {
				limit = {
					has_idea = EU_member
					NOT = { tag = ENG }
					NOT = {
						check_variable = { THIS.var_EUpopRatio > 0.05 }
					}
				}
				country_event = britain_md.21
				THIS_eurosceptic_decline_5_percent = yes
			}
		}

		ai_will_do = {
			factor = 1
			modifier = {
				factor = 0
				gov_is_eurosceptical = yes
			}
		}
	}



	focus = {
		id = ENG_european_cooperation_4
		icon = major_alliance
		x = -1
		y = 2
		relative_position_id = ENG_european_cooperation_3
		cost = 15

		prerequisite = {
			focus = ENG_one_union
		}
		prerequisite = {
			focus = ENG_european_cooperation_3
		}
		available = {
			has_idea = EU_member
		}

		search_filters = {FOCUS_FILTER_EUROPEAN_UNION}

		completion_reward = {
			log = "[GetDateText]: [Root.GetName]: Focus ENG_european_cooperation_4"
			random_country = {
				limit = {
					NOT = { tag = GER }
					NOT = { tag = ENG }
					NOT = { tag = FRA }
					NOT = { tag = ITA }
					NOT = { has_country_flag = ENG_european_cooperation_received }
					has_idea = EU_member
				}
				invest_in_EU_single_market_cic = yes
				set_country_flag = ENG_european_cooperation_received
			}
			random_country = {
				limit = {
					NOT = { tag = GER }
					NOT = { tag = ENG }
					NOT = { tag = FRA }
					NOT = { tag = ITA }
					NOT = { has_country_flag = ENG_european_cooperation_received }
					has_idea = EU_member
				}
				invest_in_EU_single_market_cic = yes
				set_country_flag = ENG_european_cooperation_received
			}
			random_country = {
				limit = {
					NOT = { tag = GER }
					NOT = { tag = ENG }
					NOT = { tag = FRA }
					NOT = { tag = ITA }
					NOT = { has_country_flag = ENG_european_cooperation_received }
					has_idea = EU_member
				}
				invest_in_EU_single_market_cic = yes
				set_country_flag = ENG_european_cooperation_received
			}
			random_country = {
				limit = {
					NOT = { tag = GER }
					NOT = { tag = ENG }
					NOT = { tag = FRA }
					NOT = { tag = ITA }
					NOT = { has_country_flag = ENG_european_cooperation_received }
					has_idea = EU_member
				}
				invest_in_EU_single_market_cic = yes
				set_country_flag = ENG_european_cooperation_received
			}
		}

		ai_will_do = {
			factor = 1
		}
	}

	focus = {
		id = ENG_extra_research_slot_2
		icon = research
		x = 1
		y = 1
		relative_position_id = ENG_european_cooperation_4
		cost = 15

		prerequisite = {
			focus = ENG_european_cooperation_4
		}

		search_filters = {FOCUS_FILTER_RESEARCH}

		completion_reward = {
			log = "[GetDateText]: [Root.GetName]: Focus ENG_extra_research_slot_2"
			add_research_slot = 1
			SE_remove_10_treasury = yes
		}

		ai_will_do = {
			factor = 1
		}
	}



	focus = {
		id = ENG_european_cooperation_5
		icon = major_alliance
		x = -1
		y = 1
		relative_position_id = ENG_european_cooperation_4
		cost = 15

		prerequisite = {
			focus = ENG_european_cooperation_4
		}

		search_filters = {FOCUS_FILTER_EUROPEAN_UNION}

		completion_reward = {
			log = "[GetDateText]: [Root.GetName]: Focus ENG_european_cooperation_5"
			random_country = {
				limit = {
					NOT = { tag = GER }
					NOT = { tag = ENG }
					NOT = { tag = FRA }
					NOT = { tag = ITA }
					NOT = { has_country_flag = ENG_european_cooperation_received }
					has_idea = EU_member
				}
				invest_in_EU_single_market_cic = yes
				set_country_flag = ENG_european_cooperation_received
			}
			random_country = {
				limit = {
					NOT = { tag = GER }
					NOT = { tag = ENG }
					NOT = { tag = FRA }
					NOT = { tag = ITA }
					NOT = { has_country_flag = ENG_european_cooperation_received }
					has_idea = EU_member
				}
				invest_in_EU_single_market_cic = yes
				set_country_flag = ENG_european_cooperation_received
			}
			random_country = {
				limit = {
					NOT = { tag = GER }
					NOT = { tag = ENG }
					NOT = { tag = FRA }
					NOT = { tag = ITA }
					NOT = { has_country_flag = ENG_european_cooperation_received }
					has_idea = EU_member
				}
				invest_in_EU_single_market_cic = yes
				set_country_flag = ENG_european_cooperation_received
			}
			random_country = {
				limit = {
					NOT = { tag = GER }
					NOT = { tag = ENG }
					NOT = { tag = FRA }
					NOT = { tag = ITA }
					NOT = { has_country_flag = ENG_european_cooperation_received }
					has_idea = EU_member
				}
				invest_in_EU_single_market_cic = yes
				set_country_flag = ENG_european_cooperation_received
			}
		}

		ai_will_do = {
			factor = 1
			modifier = {
				factor = 0
				gov_is_eurosceptical = yes
			}
		}
	}

##############################
###	Start of EU Focus Tree ###	x = 15 y = 18
##############################

shared_focus = EU001

############################
### End of EU Focus Tree ###
############################
}
