1={13058 }
2={13003 }
3={6361 }
4={6393 }
5={3325 }
6={6364 }
7={12674 }
8={6196 }
9={3150 }
10={9379 }
11={6335 }
12={3241 }
13={13070 }
14={11374 }
15={9484 }
16={3274 }
17={276 }
18={1280 }
19={4135 }
20={2154 }
21={13010 }
22={10995 }
23={13243 }
24={13016 }
25={13013 }
26={12960 }
27={369 }
28={11237 }
29={9369 }
30={11101 }
31={3132 }
32={11037 }
33={9171 }
34={11278 }
35={69 }
36={6258 }
37={11331 }
38={6263 }
39={495 }
40={11547 }
41={6549 }
42={519 }
43={9652 }
44={6441 }
45={3367 }
46={9498 }
47={6500 }
48={6241 }
49={153 }
50={11419 }
51={13068 }
52={9418 }
53={6583 }
54={11548 }
55={9550 }
56={11506 }
57={6529 }
58={3681 }
59={3671 }
60={11565 }
61={752 }
62={6613 }
63={3762 }
64={527 }
65={11804 }
66={13017 }
67={4934 }
68={177 }
69={12148 }
70={2165 }
71={4268 }
72={3612 }
73={9600 }
74={9638 }
75={653 }
76={3684 }
77={3772 }
78={11584 }
79={910 }
80={11734 }
81={11751 }
82={3958 }
83={12047 }
84={11824 }
85={12003 }
86={9797 }
87={813 }
88={740 }
89={11707 }
90={9827 }
91={3938 }
92={6959 }
93={10111 }
94={9793 }
95={13071 }
96={3790 }
97={724 }
98={3118 }
99={1751 }
100={162 }
101={3025 }
102={6108 }
103={37 }
104={9228 }
105={308 }
106={11057 }
107={3298 }
108={11246 }
109={6360 }
110={6407 }
111={11232 }
112={6416 }
113={9263 }
114={402 }
115={9511 }
116={3254 }
117={6470 }
118={6485 }
119={11679 }
120={3565 }
121={6751 }
122={730 }
123={546 }
124={11595 }
125={9596 }
126={11594 }
127={3601 }
128={6942 }
129={11741 }
130={3617 }
131={9599 }
132={9906 }
133={9890 }
134={3922 }
135={867 }
136={907 }
137={11762 }
138={3884 }
139={3973 }
140={936 }
141={11895 }
142={4178 }
143={7003 }
144={9940 }
145={11984 }
146={7193 }
147={3707 }
148={523 }
149={13203 }
150={3663 }
151={3665 }
152={6747 }
153={11813 }
154={6814 }
155={856 }
156={6992 }
157={12016 }
158={12029 }
159={3862 }
160={3967 }
161={6813 }
162={9823 }
163={11853 }
164={11384 }
165={11365 }
166={1938 }
167={11289 }
168={1631 }
169={10876 }
170={7977 }
171={2004 }
172={8085 }
173={11189 }
174={5024 }
175={8118 }
176={10923 }
177={10835 }
178={10786 }
179={3709 }
180={2048 }
181={3728 }
182={3550 }
183={3477 }
184={11095 }
185={11097 }
186={4550 }
187={9322 }
188={6302 }
189={1088 }
190={11127 }
191={3127 }
192={901 }
193={3161 }
194={9201 }
195={10840 }
196={9158 }
197={10752 }
198={9138 }
199={9176 }
200={8000 }
201={11919 }
202={13278 }
203={1108 }
204={4206 }
205={1065 }
206={11970 }
207={1086 }
208={13206 }
209={13207 }
210={7151 }
211={4440 }
212={11976 }
213={10002 }
214={10005 }
215={3996 }
216={9989 }
217={1028 }
218={12099 }
219={12002 }
220={10784 }
221={12725 }
222={11042 }
223={2016 }
224={1960 }
225={12887 }
226={10857 }
227={9378 }
228={12766 }
229={97 }
230={4985 }
231={533 }
232={7944 }
233={350 }
234={297 }
235={315 }
236={8062 }
237={5068 }
238={10921 }
239={11090 }
240={750 }
241={6796 }
242={1939 }
243={9200 }
244={5196 }
245={10976 }
246={8223 }
247={12929 }
248={6566 }
249={6575 }
250={9962 }
251={2220 }
252={9381 }
253={13280 }
254={5180 }
255={9291 }
256={11017 }
257={2196 }
258={9254 }
259={11180 }
260={12986 }
261={11439 }
262={12935 }
263={12971 }
264={2193 }
265={9752 }
266={884 }
267={844 }
268={12956 }
269={13284 }
270={13018 }
271={7900 }
272={475 }
273={1807 }
274={1611 }
275={10400 }
276={1561 }
277={1335 }
278={1312 }
279={1318 }
280={4584 }
281={1239 }
282={2229 }
283={11554 }
284={3076 }
285={9630 }
286={6680 }
287={530 }
288={12963 }
289={11224 }
290={11290 }
291={11205 }
292={7872 }
293={9592 }
294={10930 }
295={9547 }
296={2115 }
297={8054 }
298={9529 }
299={2126 }
300={9426 }
301={7548 }
302={10968 }
303={10025 }
304={1731 }
305={303 }
306={1968 }
307={3465 }
308={4941 }
309={1181 }
310={10858 }
311={6387 }
312={6468 }
313={988 }
314={10883 }
315={3318 }
316={6008 }
317={3316 }
318={8244 }
319={1903 }
320={13015 }
321={11326 }
322={7978 }
323={11393 }
324={11108 }
325={9232 }
326={11461 }
327={4902 }
328={11503 }
329={11314 }
330={8128 }
331={2056 }
332={11175 }
333={3701 }
334={11216 }
335={3407 }
336={1992 }
337={11238 }
338={12817 }
339={1969 }
340={5028 }
341={12843 }
342={1951 }
343={9731 }
344={10919 }
345={12785 }
346={12742 }
347={13270 }
348={9672 }
349={7950 }
350={9872 }
351={9769 }
352={9336 }
353={9405 }
354={9362 }
355={13237 }
356={13241 }
357={1897 }
358={2038 }
359={6957 }
360={12802 }
361={12747 }
362={12834 }
363={8015 }
364={6771 }
365={4199 }
366={10868 }
367={5045 }
368={9231 }
369={7992 }
370={6697 }
371={10779 }
372={13234 }
373={5012 }
374={12100 }
375={1207 }
376={7908 }
377={4139 }
378={13231 }
379={4903 }
380={1141 }
381={5095 }
382={10731 }
383={13074 }
384={1058 }
385={7166 }
386={1145 }
387={7132 }
388={3964 }
389={7005 }
390={12000 }
391={10067 }
392={12082 }
393={9136 }
394={7041 }
395={1062 }
396={4060 }
397={10785 }
398={13014 }
399={7953 }
400={10797 }
401={2070 }
402={8009 }
403={10768 }
404={10922 }
405={7969 }
406={829 }
407={4825 }
408={4943 }
409={10476 }
410={6186 }
411={10826 }
412={10852 }
413={7943 }
414={8090 }
415={2101 }
416={8013 }
417={7847 }
418={6856 }
419={12717 }
420={1910 }
421={6921 }
422={6379 }
423={13208 }
424={13247 }
425={3573 }
426={1147 }
427={103 }
428={9122 }
429={89 }
430={13275 }
431={12868 }
432={12844 }
433={493 }
434={3900 }
435={10000 }
436={1144 }
437={11161 }
438={4953 }
439={363 }
440={4915 }
441={373 }
442={9083 }
443={2179 }
444={8114 }
445={10751 }
446={4369 }
447={10878 }
448={10515 }
449={4262 }
450={10975 }
451={1444 }
452={7565 }
453={1568 }
454={3502 }
455={10389 }
456={12063 }
457={11009 }
458={4472 }
459={9325 }
460={1228 }
461={12779 }
462={10149 }
463={2161 }
464={12247 }
465={1238 }
466={3653 }
467={1359 }
468={4441 }
469={10270 }
470={7619 }
471={7013 }
472={4658 }
473={1553 }
474={6309 }
475={1996 }
476={12025 }
477={11449 }
478={9819 }
479={12251 }
480={4967 }
481={6954 }
482={10287 }
483={7260 }
484={12860 }
485={7139 }
486={11179 }
487={10993 }
488={11178 }
489={10825 }
490={9993 }
491={11162 }
492={11968 }
493={2843 }
494={10416 }
495={13228 }
496={4425 }
497={140 }
498={1607 }
499={4019 }
500={12090 }
501={4654 }
502={3651 }
503={4336 }
504={10267 }
505={1333 }
506={1535 }
507={8045 }
508={4348 }
509={12201 }
510={7236 }
511={7645 }
512={4251 }
513={7432 }
514={164 }
515={190 }
516={7356 }
517={175 }
518={7303 }
519={10162 }
520={12150 }
521={7280 }
522={12048 }
523={12065 }
524={12008 }
525={4216 }
526={11167 }
527={10313 }
528={3382 }
529={6022 }
530={12299 }
531={1038 }
532={4189 }
533={1085 }
534={11941 }
535={4286 }
536={11913 }
537={1110 }
538={10101 }
539={321 }
540={7014 }
541={7181 }
542={6041 }
543={1237 }
544={9987 }
545={3500 }
546={7393 }
547={11761 }
548={3156 }
549={4032 }
550={3307 }
551={13053 }
552={3934 }
553={6206 }
554={3949 }
555={6811 }
556={1796 }
557={11187 }
558={1438 }
559={517 }
560={5025 }
561={7513 }
562={9984 }
563={9084 }
564={7104 }
565={2188 }
566={6308 }
567={4066 }
568={13055 }
569={7290 }
570={10474 }
571={7671 }
572={12310 }
573={4024 }
574={1023 }
575={6370 }
576={7987 }
577={12733 }
578={344 }
579={4191 }
580={4961 }
581={11014 }
582={10616 }
583={7948 }
584={8164 }
585={10787 }
586={12141 }
587={13205 }
588={10865 }
589={8029 }
590={13227 }
591={3144 }
592={1844 }
593={5081 }
594={13265 }
595={10062 }
596={4873 }
597={12579 }
598={11959 }
599={11914 }
600={9955 }
601={6922 }
602={11770 }
603={3176 }
604={3303 }
605={1081 }
606={11992 }
607={4126 }
608={1177 }
609={1183 }
610={7197 }
611={9968 }
612={12031 }
613={10100 }
614={11076 }
615={7157 }
616={1117 }
617={10512 }
618={13281 }
619={10011 }
620={13026 }
621={13025 }
622={12488 }
623={6106 }
624={11181 }
625={3572 }
626={6595 }
627={12113 }
628={11466 }
629={10294 }
630={3302 }
631={10279 }
632={13229 }
633={10811 }
634={10479 }
635={12234 }
636={7369 }
637={10141 }
638={4524 }
639={1589 }
640={12955 }
641={10804 }
642={3384 }
643={6175 }
644={11080 }
645={11304 }
646={11110 }
647={10207 }
648={6040 }
649={11084 }
650={3056 }
651={9257 }
652={3391 }
653={371 }
654={3263 }
655={9266 }
656={6553 }
657={3291 }
658={3000 }
659={31 }
660={11394 }
661={9401 }
662={9276 }
663={6502 }
664={4322 }
665={544 }
666={9735 }
667={11559 }
668={3760 }
669={9677 }
670={9742 }
671={728 }
672={683 }
673={670 }
674={9649 }
675={11223 }
676={10314 }
677={10670 }
678={7768 }
679={10536 }
680={7274 }
681={7655 }
682={10649 }
683={13065 }
684={7804 }
685={1803 }
686={1666 }
687={10598 }
688={1745 }
689={4744 }
690={1399 }
691={855 }
692={6686 }
693={9446 }
694={9433 }
695={3755 }
696={6554 }
697={11462 }
698={11557 }
699={6480 }
700={11550 }
701={11536 }
702={3393 }
703={699 }
704={9371 }
705={11609 }
706={672 }
707={3658 }
708={4534 }
709={1210 }
710={1610 }
711={6997 }
712={1539 }
713={1305 }
714={12266 }
715={7890 }
716={12635 }
717={12329 }
718={12383 }
719={10619 }
720={1675 }
721={2058 }
722={4923 }
723={12430 }
724={12218 }
725={10660 }
726={4629 }
727={10395 }
728={10357 }
729={7563 }
730={10231 }
731={10954 }
732={10423 }
733={4304 }
734={13001 }
735={1288 }
736={1372 }
737={4373 }
738={6055 }
739={10328 }
740={10145 }
741={8230 }
742={7533 }
743={10581 }
744={5181 }
745={12918 }
746={12962 }
747={11013 }
748={13005 }
749={13002 }
750={12664 }
751={7839 }
752={7387 }
753={13075 }
754={1737 }
755={1262 }
756={10611 }
757={1873 }
758={2947 }
759={4787 }
760={4360 }
761={4362 }
762={12147 }
763={761 }
764={12221 }
765={3715 }
766={9675 }
767={718 }
768={6909 }
769={6795 }
770={3863 }
771={880 }
772={3957 }
773={10412 }
774={4627 }
775={4442 }
776={12437 }
777={695 }
778={12368 }
779={4834 }
780={12597 }
781={12646 }
782={1445 }
783={1621 }
784={4811 }
785={7852 }
786={7745 }
787={1870 }
788={12572 }
789={12651 }
790={10051 }
791={4491 }
792={7612 }
793={7797 }
794={7640 }
795={1913 }
796={12429 }
797={4535 }
798={12489 }
799={4919 }
800={10337 }
801={11134 }
802={11138 }
803={8070 }
804={9792 }
805={4742 }
806={8115 }
807={7756 }
808={12607 }
809={4296 }
810={12281 }
811={12374 }
812={11128 }
813={11131 }
814={7855 }
815={1440 }
816={11133 }
817={4180 }
818={13024 }
819={12103 }
820={13040 }
821={2489 }
822={13052 }
823={13047 }
824={13019 }
825={13051 }
826={13080 }
827={7115 }
828={1904 }
829={8033 }
830={10809 }
831={4946 }
832={2060 }
833={128 }
834={10738 }
835={1965 }
836={12873 }
837={12712 }
838={12810 }
839={1900 }
840={11710 }
841={9896 }
842={13085 }
843={12823 }
844={13093 }
845={2077 }
846={9867 }
847={9870 }
848={2075 }
849={9800 }
850={9736 }
851={13092 }
852={1633 }
853={7617 }
854={7622 }
855={7590 }
856={7245 }
857={764 }
858={12477 }
859={1594 }
860={9587 }
861={9507 }
862={4598 }
863={4450 }
864={13009 }
865={11350 }
866={379 }
867={7123 }
868={11106 }
869={3284 }
870={10974 }
871={8056 }
872={10348 }
873={12825 }
874={12261 }
875={10855 }
876={10736 }
877={12339 }
878={10912 }
879={4575 }
880={8181 }
881={6093 }
882={7553 }
883={2153 }
884={7476 }
885={3751 }
886={2142 }
887={5194 }
888={8227 }
889={2227 }
890={3931 }
891={4095 }
892={6979 }
893={4457 }
894={12481 }
895={6017 }
896={6119 }
897={7378 }
898={7412 }
899={2160 }
900={9639 }
901={9469 }
902={5166 }
903={12969 }
904={7486 }
905={8047 }
906={10235 }
907={8075 }
908={5023 }
909={713 }
910={693 }
911={10747 }
912={12872 }
913={7993 }
914={10518 }
915={12154 }
916={10823 }
917={12107 }
918={6311 }
919={7076 }
920={7209 }
921={5084 }
922={11534 }
923={11033 }
924={10200 }
925={9366 }
926={9360 }
927={11049 }
928={765 }
929={13276 }
930={7400 }
931={13242 }
932={12455 }
933={3467 }
934={9833 }
935={11880 }
936={6198 }
937={10777 }
938={3035 }
939={13282 }
940={13285 }
941={10234 }
942={13286 }
943={1370 }
944={11692 }
945={13287 }
946={13288 }
947={13289 }
948={13290 }
949={4829 }
950={4847 }
951={9217 }
952={9207 }
953={1529 }
954={2181 }
955={3311 }
956={10027 }
957={883 }
958={6648 }
959={11616 }
960={925 }
961={11877 }
962={3594 }
963={6698 }
964={9572 }
965={3488 }
966={9522 }
967={9575 }
968={9917 }
969={10024 }
970={12083 }
971={918 }
972={6487 }
973={6526 }
974={11905 }
975={13291 }
976={3936 }
977={1963 }
978={3744 }
979={1822 }
