
state = {
	id = 135
	name = "STATE_135"
	resources = {
		steel = 4.000
		aluminium = 2.000
	}

	history = {
		owner = FYR
		victory_points = {
			867 1
		}
		buildings = {
			infrastructure = 3
			internet_station = 1

		}
		add_core_of = FYR
		2017.1.1 = {
			buildings = {
				internet_station = 2
			}
			add_manpower = 18590
		}
	}

	provinces = {
		867 11856
	}
	manpower = 526007
	buildings_max_level_factor = 1.000
	state_category = state_01
}
