
state = {
	id = 187
	name = "STATE_187"

	impassable = yes

	history = {
		owner = MAL
		add_core_of = MAL
		add_core_of = TUA
		2017.1.1 = {
			add_manpower = 8964

		}

	}

	provinces = {
		9322
	}
	manpower = 11862
	buildings_max_level_factor = 1.000
	state_category = state_00
}
