
state = {
	id = 238
	name = "STATE_238"

	history = {
		owner = PUN
		victory_points = {
			10921 1
		}
		buildings = {
			infrastructure = 1
			internet_station = 0

		}
		add_claim_by = SML
		add_core_of = PUN
		add_core_of = SOM
		add_core_of = SNA
		2017.1.1 = {
			buildings = {
				internet_station = 0
			}
			remove_core_of = SNA
			add_manpower = 160320
		}
	}

	provinces = {
		10921 12814
	}
	manpower = 277187
	buildings_max_level_factor = 1.000
	state_category = state_01
}
