state = {
	id = 296
	name = "STATE_296"
	manpower = 377282
	state_category = state_01
	
	resources = {
		oil = 30
	}

	history = {
		owner = AGL
		victory_points = { 2115 5 } #Cabinda
		
		buildings = {
			infrastructure = 4
			internet_station = 1
			
			2115 = {
				naval_base = 2
			}
			
		}
		add_core_of = AGL 
		add_core_of = UNI
		2017.1.1 = {
			buildings = {
				internet_station = 3
			}
			remove_core_of = UNI
			add_manpower = 368345
		}
	}

	provinces = {
		2115
	}
}