state = {
	id = 319
	name = "STATE_319"
	manpower = 147623
	state_category = state_00
	
	resources = {
	oil = 5 #Petroleum
}


	history = {
		owner = EGU
		victory_points = { 1903 5 } #Malabo
		
		buildings = {
			infrastructure = 5
			internet_station = 2
			air_base = 2
			
			1903 = {
				naval_base = 2
			}
			
		}
		add_core_of = EGU 
		2017.1.1 = {
			buildings = {
				internet_station = 4
			}
			add_manpower = 226840
		}
	}

	provinces = {
		1903
	}
}