
state = {
	id = 333
	name = "STATE_333"

	history = {
		owner = UKR
		victory_points = {
			6727 1 
		}
		victory_points = {
			3701 3 
		}
		buildings = {
			infrastructure = 3
			internet_station = 1
		}
		add_core_of = UKR
		add_core_of = ROM
		add_core_of = NOV
		2017.1.1 = {
			buildings = {
				internet_station = 2
			}
			#add_manpower = -92900
		}

	}

	provinces = {
		3701 3704 6727 9683 
	}
	manpower = 257000
	buildings_max_level_factor = 1.000
	state_category = state_00
}
