
state = {
	id = 337
	name = "STATE_337"
	resources = {
		steel = 14
		aluminium = 4
	}
	history = {
		owner = NIG
		victory_points = {
			2025 10
		}
		buildings = {
			infrastructure = 2
			internet_station = 0
			industrial_complex = 1
			air_base = 2

		}
		add_core_of = NIG
		2017.1.1 = {
			buildings = {
				internet_station = 1
			}
			add_manpower = 2000000
			add_manpower = 1830391
		}
	}

	provinces = {
		2025 8021 11226 11238
	}
	manpower = 6464992
	buildings_max_level_factor = 1.000
	state_category = state_06
}
