state = {
	id = 386
	name = "STATE_386" #Algérois
	manpower = 6687032
	state_category = state_06

	resources = {
		steel = 28
		aluminium = 9
	}
	history = {
		owner = ALG
		victory_points = { 1145 15 } #Algiers
		victory_points = { 1013 1 } #Chlef
		victory_points = { 4146 1 } #Médéa

		buildings = {
			infrastructure = 4
			internet_station = 1
			industrial_complex = 1
			arms_factory = 1
			air_base = 10

			1145 = {
				naval_base = 6
			}

		}
		add_core_of = ALG
		2017.1.1 = {
			add_manpower = 2000000
			add_manpower = 453154
			buildings = {
				internet_station = 3
				industrial_complex = 2
			}
		}
	}

	provinces = {
		1013 12760 9964 1145 4146 4131 11939
	}
}