
state = {
	id = 418
	name = "STATE_418"

	resources = {
		oil = 2
	}

	history = {
		owner = PAK
		victory_points = {
			6492 5
		}
		victory_points = {
			12763 1
		}
		victory_points = {
			6856 1
		}
		buildings = {
			infrastructure = 1
			internet_station = 0
			industrial_complex = 1
			arms_factory = 2

		}
		add_core_of = PAK
		2017.1.1 = {
			add_manpower = 2000000
			add_manpower = 2000000
			add_manpower = 2000000
			add_manpower = 1283594
			add_core_of = TTP
			buildings = {
				industrial_complex = 2
				internet_station = 0
			}
		}

	}

	provinces = {
		4558 4998 12763 6097 6492 6746 6818 6856
	}
	manpower = 18614774
	buildings_max_level_factor = 1.000
	state_category = state_11
}
