
state = {
	id = 626
	name = "STATE_626"

	resources = {
		steel = 7
		aluminium = 3
	}
	history = {
		owner = POL
		buildings = {
			infrastructure = 4
			internet_station = 1
			industrial_complex = 1
			synthetic_refinery = 1
		}
		add_core_of = POL
		2017.1.1 = {
			buildings = {
				internet_station = 4
			}
			add_manpower = 2264
		}
	}

	provinces = {
		552 3283 3485 3510 3545 6595 9570 11517
	}
	manpower = 2901446
	buildings_max_level_factor = 1.000
	state_category = state_04
}
