
state = {
	id = 67
	name = "STATE_67"

	history = {
		owner = FRA
		victory_points = {
			12885 1
		}
		buildings = {
			infrastructure = 4
			internet_station = 1
			12885 = {
				naval_base = 1

			}

		}
		add_core_of = FRA
		add_core_of = FGU
		2017.1.1 = {
			buildings = {
				internet_station = 0
			}
			add_manpower = 24578
		}
	}

	provinces = {
		4934 12885 12569
	}
	manpower = 265422
	buildings_max_level_factor = 1.000
	state_category = state_00
}
