state = {
	id = 710
	name = "STATE_710"
	manpower = 134400 
	state_category = state_00
	
	resources = {
		steel = 2
	}

	history = {
		owner = NKR
		victory_points = { 1610 3 } #Stepanakert
		
		buildings = {
			infrastructure = 2
			internet_station = 0
		}
		add_core_of = ARM
		add_core_of = NKR
		add_claim_by = AZE
		2017.1.1 = {
			buildings = {
				internet_station = 1
			}
			add_manpower = 11600
		}
	}

	provinces = {
		1610 9715 1467
	}
}
