state = {
	id = 766
	name = "STATE_766"
	manpower = 608827
	state_category = state_01

	history = {
		owner = USA
		victory_points = { 7629 3 } #Burlington
		victory_points = { 4445 1 } #Rutland

		buildings = {
			infrastructure = 5
			internet_station = 2
			air_base = 4
			industrial_complex = 1
		}
		add_core_of = USA
		add_core_of = NEN
		2017.1.1 = {
			add_manpower = 19581
			buildings = {
				internet_station = 4
				industrial_complex = 1
			}
		}
	}

	provinces = {
		9675 4445 7629 13158
	}
}