state = {
	id = 806
	name = "STATE_806"
	manpower = 5130632
	state_category = state_05
	
	resources = {
		tungsten = 6
	}

	history = {
		owner = USA
		victory_points = { 853 10 } #Phoenix
		victory_points = { 3834 5 } #Tucson
		victory_points = { 12765 1 } #Flagstaff
		victory_points = { 10783 3 } #Yuma
		victory_points = { 7920 1 } #Sierra Vista
		victory_points = { 11814 1 } #Lake Havasu City
		victory_points = { 1793 1 } #Prescott
		
		buildings = {
			infrastructure = 6
			internet_station = 2
			arms_factory = 4
			air_base = 5
			industrial_complex = 2
		}
		add_core_of = USA
		2017.1.1 = {
			add_manpower = 1957620
			buildings = {
				internet_station = 4
				industrial_complex = 5
			}
		}
	}

	provinces = {
		  850 853 1793 3834 4796 6897 7747 7821 7920 8115 10573 10783 11814 12765
	}
}