state = {
	id = 813
	name = "STATE_813"
	
	history = {
		owner = CHI
		add_claim_by = VIE
		add_claim_by = TAI
		buildings = {
			11131 = {
				naval_base = 2
			}
			air_base = 1
		}
		2017.1.1 = {
			add_manpower = 92
			buildings = {
				air_base = 3
			}
		}
	}
	
	provinces = {
		11131 
	}
	manpower = 908
	state_category = state_00
	buildings_max_level_factor = 1.000
}