
state = {
	id = 855
	name = "STATE_855"

	resources = {
		steel = 5
		tungsten = 10
	}

	history = {
		owner = CUB
		victory_points = {
			9603 5
		}
		victory_points = {
			4476 3
		}
		victory_points = {
			12347 3
		}
		victory_points = {
			7590 3
		}
		victory_points = {
			7546 1
		}
		victory_points = {
			10374 1
		}
		buildings = {
			infrastructure = 3
			internet_station = 1
			arms_factory = 1
			industrial_complex = 2
			air_base = 3
			1550 = {
				naval_base = 3

			}
			7590 = {
				naval_base = 2

			}

		}
		add_core_of = CUB
		2017.1.1 = {
			add_manpower = 119059
			buildings = {
				internet_station = 2
				industrial_complex = 2
			}
		}
	}

	provinces = {
		1550 4476 7546 7590 10374 12347 9603 9607
	}
	manpower = 4557059
	buildings_max_level_factor = 1.000
	state_category = state_05
}
