
state = {
	id = 901
	name = "STATE_901"

	history = {
		owner = PRU
		victory_points = {
			2226 3 
		}
		victory_points = {
			8191 1 
		}
		buildings = {
			infrastructure = 1
			internet_station = 0

		}
		add_core_of = PRU
		2017.1.1 = {
			buildings = {
				internet_station = 0
			}
			add_manpower = 133491
		}
	}

	provinces = {
		2162 2226 8160 8191 12983 7608 7641 7666 9469 
	}
	manpower = 527836
	buildings_max_level_factor = 1.000
	state_category = state_01
}
