
state = {
	id = 907
	name = "STATE_907"
	
	resources = {
		oil = 13
	}

	history = {
		owner = ECU
		victory_points = {
			8075 1 
		}
		victory_points = {
			10888 1 
		}
		buildings = {
			infrastructure = 1
			internet_station = 0

		}
		add_core_of = ECU
		2017.1.1 = {
			buildings = {
				internet_station = 0
			}
			add_manpower = 239695
		}
	}

	provinces = {
		8075 10888 10166 10179 
	}
	manpower = 650599
	buildings_max_level_factor = 1.000
	state_category = state_01
}
