state = {
	id = 948
	name = "STATE_948"
	history = {
		owner = SMA
		add_core_of = SMA
		buildings = {
			infrastructure = 2
			internet_station = 2

		}
		2017.1.1 = {
			buildings = {
				internet_station = 2
			}
			add_manpower = 6299
		}
		victory_points = {
			13290 1
		}
	}
	provinces = {
		13290
	}
	manpower = 27462
	buildings_max_level_factor = 1.000
	state_category = state_00
}
