
state = {
	id = 974
	name = "STATE_974"
	resources = {
		steel = 10
	}

	history = {
		owner = GRE
		victory_points = {
			11905 5
		}
		buildings = {
			infrastructure = 4
			internet_station = 1
			arms_factory = 1
			air_base = 2

		}
		add_core_of = GRE
		2017.1.1 = {
			buildings = {
				internet_station = 4
			}
			#add_manpower = -4761
		}
	}

	provinces = {
		11774 11905
	}
	manpower = 371208
	buildings_max_level_factor = 1.000
	state_category = state_01
}
