#Written by Hiddengearz, balanced by bird
##Rebalanced as of 08/17/2020 due to resource
equipments = {
	transport_helicopter_equipment = {
		is_archetype = yes
		is_buildable = no
		type = {
			infantry
			motorized
		}
		
		group_by = archetype
		# air_map_icon_frame = 11
		interface_category = interface_category_land
		
		upgrades = { }
		
		maximum_speed = 40
		
		build_cost_ic = 8
		fuel_consumption = 0.1
		resources = {
			oil = 1
			steel = 1
		}
	}

	#1965
	transport_helicopter1 = {
		year = 1965
		
		archetype = transport_helicopter_equipment
		priority = 5
		
		#Misc Abilities
		maximum_speed = 20
		reliability = 0.9
		
		#Offensive Abilities
		soft_attack = 0
		hard_attack = 1
		ap_attack = 0
		air_attack = 0
		
		#Defensive Abilities
		defense = 1
		breakthrough = 2
		hardness = 0.3
		armor_value = 0
		
		build_cost_ic = 8

		#Space taken in convoy
		lend_lease_cost = 5
		fuel_consumption = 3.5
		resources = {
			oil = 1
			steel = 2
		}
	}
	#1995
	transport_helicopter2 = {
		year = 1995
		
		archetype = transport_helicopter_equipment
		parent = transport_helicopter1
		priority = 5
		
		#Misc Abilities
		maximum_speed = 25
		reliability = 0.9
		
		#Offensive Abilities
		soft_attack = 0
		hard_attack = 4 #+1
		ap_attack = 0
		air_attack = 0
		
		#Defensive Abilities
		defense = 4
		breakthrough = 5
		hardness = 0.3
		armor_value = 0
		
		build_cost_ic = 13.52

		#Space taken in convoy
		lend_lease_cost = 5
		fuel_consumption = 3.5
		resources = {
			oil = 1
			steel = 3
		}
		
	}
	#2005
	transport_helicopter3 = {
		year = 2005
		
		archetype = transport_helicopter_equipment
		parent = transport_helicopter2
		priority = 5
		
		#Misc Abilities
		maximum_speed = 30
		reliability = 0.9
		
		#Offensive Abilities
		soft_attack = 0
		hard_attack = 5 #+1
		ap_attack = 0
		air_attack = 0
		
		#Defensive Abilities
		defense = 5
		breakthrough = 6
		hardness = 0.3
		armor_value = 0
		
		build_cost_ic = 19.85
		
		#Space taken in convoy
		lend_lease_cost = 5
		fuel_consumption = 5.5
		resources = {
			oil = 1
			steel = 3
		}
		
	}
	#2015
	transport_helicopter4 = {
		year = 2015
		
		archetype = transport_helicopter_equipment
		parent = transport_helicopter3
		priority = 5	
		
		#Misc Abilities
		maximum_speed = 35
		reliability = 0.9
		
		#Offensive Abilities
		soft_attack = 0
		hard_attack = 6 #+1
		ap_attack = 0
		air_attack = 0
		
		build_cost_ic = 29.70
		
		#Defensive Abilities
		defense = 6
		breakthrough = 7
		hardness = 0.3
		armor_value = 0
		fuel_consumption = 7.0
		resources = {
			oil = 2
			steel = 3
		}
		
	}
	#2035
	transport_helicopter5 = {
		year = 2035
		
		archetype = transport_helicopter_equipment
		parent = transport_helicopter4
		priority = 5
		
		#Misc Abilities
		maximum_speed = 45
		reliability = 0.9
		
		#Offensive Abilities
		soft_attack = 0
		hard_attack = 8 #+1
		ap_attack = 0
		air_attack = 0
		
		#Defensive Abilities
		defense = 8
		breakthrough = 9
		hardness = 0.3
		armor_value = 0
		
		build_cost_ic = 50.20

		#Space taken in convoy
		lend_lease_cost = 5
		fuel_consumption = 9.0
		resources = {
			oil = 2
			steel = 4
		}
	}
}
