add_namespace = EU_news ### next free #57
add_namespace = EU_tutorial
add_namespace = EU_info

###################	
### EU Tutorial ### old
###################

### Introduction - Main Menu ###
country_event = { 
	id = EU_tutorial.1
	immediate = { log = "[GetDateText]: [Root.GetName]: event EU_tutorial.1" }
	title = EU_tutorial.1.t
	desc = EU_tutorial.1.d
	#picture = GFX_eu
	major = no
	is_triggered_only = yes
	option = {
		name = EU_tutorial.1.a
		log = "[GetDateText]: [Root.GetName]: event EU_tutorial.1.a" 
		ROOT = {
			news_event = {
				id = EU_tutorial.10
			}
		}
	}
	option = {
		name = EU_tutorial.1.b
		log = "[GetDateText]: [Root.GetName]: event EU_tutorial.1.b" 
		ROOT = {
			news_event = {
				id = EU_tutorial.20
			}
		}
	}
	option = {
		name = EU_tutorial.1.c
		log = "[GetDateText]: [Root.GetName]: event EU_tutorial.1.c" 
		ROOT = {
			news_event = {
				id = EU_tutorial.30
			}
		}
	}	
	option = {
		name = EU_tutorial.1.e
		log = "[GetDateText]: [Root.GetName]: event EU_tutorial.1.e" 
		ROOT = {
			news_event = {
				id = EU_tutorial.2
			}
		}
	}
}

country_event = { 
	id = EU_tutorial.2
	immediate = { log = "[GetDateText]: [Root.GetName]: event EU_tutorial.2" }
	title = EU_tutorial.2.t
	desc = EU_tutorial.2.d
	#picture = GFX_eu
	major = no
	is_triggered_only = yes
	option = {
		name = EU_tutorial.2.a
		log = "[GetDateText]: [Root.GetName]: event EU_tutorial.2.a" 
		ROOT = {
			news_event = {
				id = EU_tutorial.40
			}
		}
	}
	option = {
		name = EU_tutorial.2.b
		log = "[GetDateText]: [Root.GetName]: event EU_tutorial.2.b" 
		ROOT = {
			news_event = {
				id = EU_tutorial.50
			}
		}
	}
	option = {
		name = EU_tutorial.2.c
		log = "[GetDateText]: [Root.GetName]: event EU_tutorial.2.c" 
		ROOT = {
			news_event = {
				id = EU_tutorial.60
			}
		}
	}	
	option = {
		name = EU_tutorial.2.e
		log = "[GetDateText]: [Root.GetName]: event EU_tutorial.2.e" 
		ROOT = {
			news_event = {
				id = EU_tutorial.3
			}
		}
	}
}

country_event = { 
	id = EU_tutorial.3
	immediate = { log = "[GetDateText]: [Root.GetName]: event EU_tutorial.3" }
	title = EU_tutorial.3.t
	desc = EU_tutorial.3.d
	#picture = GFX_eu
	major = no
	is_triggered_only = yes
	option = {
		name = EU_tutorial.3.a
		log = "[GetDateText]: [Root.GetName]: event EU_tutorial.3.a" 
		ROOT = {
			news_event = {
				id = EU_tutorial.70
			}
		}
	}
	option = {
		name = EU_tutorial.3.b
		log = "[GetDateText]: [Root.GetName]: event EU_tutorial.3.b" 
		ROOT = {
			news_event = {
				id = EU_tutorial.80
			}
		}
	}
	option = {
		name = EU_tutorial.3.c
		log = "[GetDateText]: [Root.GetName]: event EU_tutorial.3.c" 
		ROOT = {
			news_event = {
				id = EU_tutorial.90
			}
		}
	}	
	option = {
		name = EU_tutorial.3.e
		log = "[GetDateText]: [Root.GetName]: event EU_tutorial.3.e" 
		ROOT = {
			news_event = {
				id = EU_tutorial.4
			}
		}
	}
}

country_event = { 
	id = EU_tutorial.4
	immediate = { log = "[GetDateText]: [Root.GetName]: event EU_tutorial.4" }
	title = EU_tutorial.4.t
	desc = EU_tutorial.4.d
	#picture = GFX_eu
	major = no
	is_triggered_only = yes
	option = {
		name = EU_tutorial.4.a
		log = "[GetDateText]: [Root.GetName]: event EU_tutorial.4.a" 
		ROOT = {
			news_event = {
				id = EU_tutorial.100
			}
		}
	}
	option = {
		name = EU_tutorial.4.b
		log = "[GetDateText]: [Root.GetName]: event EU_tutorial.4.b" 
		ROOT = {
			news_event = {
				id = EU_tutorial.110
			}
		}
	}
	option = {
		name = EU_tutorial.4.c
		log = "[GetDateText]: [Root.GetName]: event EU_tutorial.4.c" 
		ROOT = {
			news_event = {
				id = EU_tutorial.120
			}
		}
	}	
	option = {
		name = EU_tutorial.4.e
		log = "[GetDateText]: [Root.GetName]: event EU_tutorial.4.e" 
	}
}

### Chapter 1 - The European Union ###
country_event = { 
	id = EU_tutorial.10
	immediate = { log = "[GetDateText]: [Root.GetName]: event EU_tutorial.10" }
	title = EU_tutorial.10.t
	desc = EU_tutorial.10.d
	#picture = GFX_eu_help
	major = no
	is_triggered_only = yes
	option = {
		name = EU_tutorial.10.a
		log = "[GetDateText]: [Root.GetName]: event EU_tutorial.10.a" 
		ROOT = {
			news_event = {
				id = EU_tutorial.11
			}
		}
	}
	option = {
		name = EU_tutorial.10.b
		log = "[GetDateText]: [Root.GetName]: event EU_tutorial.10.b" 
		ROOT = {
			news_event = {
				id = EU_tutorial.12
			}
		}
	}
	option = {
		name = EU_tutorial.10.c
		log = "[GetDateText]: [Root.GetName]: event EU_tutorial.10.c" 
		ROOT = {
			news_event = {
				id = EU_tutorial.13
			}
		}
	}	
	option = {
		name = EU_tutorial.10.e
		log = "[GetDateText]: [Root.GetName]: event EU_tutorial.10.e" 
		ROOT = {
			news_event = {
				id = EU_tutorial.1
			}
		}
	}
}

news_event = { 
	id = EU_tutorial.11
	immediate = { log = "[GetDateText]: [Root.GetName]: event EU_tutorial.11" }
	title = EU_tutorial.11.t
	desc = EU_tutorial.11.d
	picture = GFX_EU_help
	major = no
	is_triggered_only = yes
	option = {
		name = EU_tutorial.11.a
		log = "[GetDateText]: [Root.GetName]: event EU_tutorial.11.a" 
		#ROOT = {
		#	news_event = {
		#		id = EU_tutorial.12
		#	}
		#}
	}
}

news_event = { 
	id = EU_tutorial.12
	immediate = { log = "[GetDateText]: [Root.GetName]: event EU_tutorial.12" }
	title = EU_tutorial.12.t
	desc = EU_tutorial.12.d
	picture = GFX_eu
	major = no
	is_triggered_only = yes
	option = {
		name = EU_tutorial.12.a
		log = "[GetDateText]: [Root.GetName]: event EU_tutorial.12.a" 
		ROOT = {
			news_event = {
				id = EU_tutorial.13
			}
		}
	}
}

news_event = { 
	id = EU_tutorial.13
	immediate = { log = "[GetDateText]: [Root.GetName]: event EU_tutorial.13" }
	title = EU_tutorial.13.t
	desc = EU_tutorial.13.d
	picture = GFX_eu
	major = no
	is_triggered_only = yes
	option = {
		name = EU_tutorial.13.a
		log = "[GetDateText]: [Root.GetName]: event EU_tutorial.13.a" 
		ROOT = {
			news_event = {
				id = EU_tutorial.14
			}
		}
	}
}

news_event = { 
	id = EU_tutorial.14
	immediate = { log = "[GetDateText]: [Root.GetName]: event EU_tutorial.14" }
	title = EU_tutorial.14.t
	desc = EU_tutorial.14.d
	picture = GFX_eu
	major = no
	is_triggered_only = yes
	option = {
		name = EU_tutorial.14.a
		log = "[GetDateText]: [Root.GetName]: event EU_tutorial.14.a" 
		ROOT = {
			news_event = {
				id = EU_tutorial.15
			}
		}
	}
}

news_event = { 
	id = EU_tutorial.15
	immediate = { log = "[GetDateText]: [Root.GetName]: event EU_tutorial.15" }
	title = EU_tutorial.15.t
	desc = EU_tutorial.15.d
	picture = GFX_eu
	major = no
	is_triggered_only = yes
	option = {
		name = EU_tutorial.15.a
		log = "[GetDateText]: [Root.GetName]: event EU_tutorial.15.a" 
		ROOT = {
			news_event = {
				id = EU_tutorial.16
			}
		}
	}
}

news_event = { 
	id = EU_tutorial.16
	immediate = { log = "[GetDateText]: [Root.GetName]: event EU_tutorial.16" }
	title = EU_tutorial.16.t
	desc = EU_tutorial.16.d
	picture = GFX_eu
	major = no
	is_triggered_only = yes
	option = {
		name = EU_tutorial.16.a
		log = "[GetDateText]: [Root.GetName]: event EU_tutorial.16.a" 
		ROOT = {
			news_event = {
				id = EU_tutorial.17
			}
		}
	}
}

news_event = { 
	id = EU_tutorial.17
	immediate = { log = "[GetDateText]: [Root.GetName]: event EU_tutorial.17" }
	title = EU_tutorial.17.t
	desc = EU_tutorial.17.d
	picture = GFX_eu
	major = no
	is_triggered_only = yes
	option = {
		name = EU_tutorial.17.a
		log = "[GetDateText]: [Root.GetName]: event EU_tutorial.17.a" 
		ROOT = {
			country_event = {
				id = EU_tutorial.20
			}
		}
	}
}

### Chapter 2 - The EU Focus Tree ###
country_event = { 
	id = EU_tutorial.20
	immediate = { log = "[GetDateText]: [Root.GetName]: event EU_tutorial.20" }
	title = EU_tutorial.20.t
	desc = EU_tutorial.20.d
	#picture = GFX_eu
	major = no
	is_triggered_only = yes
	option = {
		name = EU_tutorial.20.a
		log = "[GetDateText]: [Root.GetName]: event EU_tutorial.20.a" 
		ROOT = {
			news_event = {
				id = EU_tutorial.21
			}
		}
	}
	option = {
		name = EU_tutorial.20.b
		log = "[GetDateText]: [Root.GetName]: event EU_tutorial.20.b" 
		ROOT = {
			news_event = {
				id = EU_tutorial.22
			}
		}
	}
	option = {
		name = EU_tutorial.20.c
		log = "[GetDateText]: [Root.GetName]: event EU_tutorial.20.c" 
		ROOT = {
			news_event = {
				id = EU_tutorial.23
			}
		}
	}	
	option = {
		name = EU_tutorial.20.e
		log = "[GetDateText]: [Root.GetName]: event EU_tutorial.20.e" 
		ROOT = {
			news_event = {
				id = EU_tutorial.1
			}
		}
	}
}

news_event = { 
	id = EU_tutorial.21
	immediate = { log = "[GetDateText]: [Root.GetName]: event EU_tutorial.21" }
	title = EU_tutorial.21.t
	desc = EU_tutorial.21.d
	picture = GFX_eu
	major = no
	is_triggered_only = yes
	option = {
		name = EU_tutorial.21.a
		log = "[GetDateText]: [Root.GetName]: event EU_tutorial.21.a" 
		ROOT = {
			news_event = {
				id = EU_tutorial.22
			}
		}
	}
}

news_event = { 
	id = EU_tutorial.22
	immediate = { log = "[GetDateText]: [Root.GetName]: event EU_tutorial.22" }
	title = EU_tutorial.22.t
	desc = EU_tutorial.22.d
	picture = GFX_eu
	major = no
	is_triggered_only = yes
	option = {
		name = EU_tutorial.22.a
		log = "[GetDateText]: [Root.GetName]: event EU_tutorial.22.a" 
		ROOT = {
			news_event = {
				id = EU_tutorial.23
			}
		}
	}
}

news_event = { 
	id = EU_tutorial.23
	immediate = { log = "[GetDateText]: [Root.GetName]: event EU_tutorial.23" }
	title = EU_tutorial.23.t
	desc = EU_tutorial.23.d
	picture = GFX_eu
	major = no
	is_triggered_only = yes
	option = {
		name = EU_tutorial.23.a
		log = "[GetDateText]: [Root.GetName]: event EU_tutorial.23.a" 
		ROOT = {
			news_event = {
				id = EU_tutorial.30
			}
		}
	}
}

### Chapter 3 - The EU Voting ###
country_event = { 
	id = EU_tutorial.30
	immediate = { log = "[GetDateText]: [Root.GetName]: event EU_tutorial.30" }
	title = EU_tutorial.30.t
	desc = EU_tutorial.30.d
	#picture = GFX_eu
	major = no
	is_triggered_only = yes
	option = {
		name = EU_tutorial.30.a
		log = "[GetDateText]: [Root.GetName]: event EU_tutorial.30.a" 
		ROOT = {
			news_event = {
				id = EU_tutorial.31
			}
		}
	}
	option = {
		name = EU_tutorial.30.b
		log = "[GetDateText]: [Root.GetName]: event EU_tutorial.30.b" 
		ROOT = {
			news_event = {
				id = EU_tutorial.34
			}
		}
	}
	option = {
		name = EU_tutorial.30.c
		log = "[GetDateText]: [Root.GetName]: event EU_tutorial.30.c" 
		ROOT = {
			news_event = {
				id = EU_tutorial.35
			}
		}
	}	
	option = {
		name = EU_tutorial.30.e
		log = "[GetDateText]: [Root.GetName]: event EU_tutorial.30.e" 
		ROOT = {
			news_event = {
				id = EU_tutorial.1
			}
		}
	}
}


news_event = { 
	id = EU_tutorial.31
	immediate = { log = "[GetDateText]: [Root.GetName]: event EU_tutorial.31" }
	title = EU_tutorial.31.t
	desc = EU_tutorial.31.d
	picture = GFX_eu
	major = no
	is_triggered_only = yes
	option = {
		name = EU_tutorial.31.a
		log = "[GetDateText]: [Root.GetName]: event EU_tutorial.31.a" 
		ROOT = {
			news_event = {
				id = EU_tutorial.32
			}
		}
	}
}

news_event = { 
	id = EU_tutorial.32
	immediate = { log = "[GetDateText]: [Root.GetName]: event EU_tutorial.32" }
	title = EU_tutorial.32.t
	desc = EU_tutorial.32.d
	picture = GFX_eu
	major = no
	is_triggered_only = yes
	option = {
		name = EU_tutorial.32.a
		log = "[GetDateText]: [Root.GetName]: event EU_tutorial.32.a" 
		ROOT = {
			news_event = {
				id = EU_tutorial.33
			}
		}
	}
}

news_event = { 
	id = EU_tutorial.33
	immediate = { log = "[GetDateText]: [Root.GetName]: event EU_tutorial.33" }
	title = EU_tutorial.33.t
	desc = EU_tutorial.33.d
	picture = GFX_eu
	major = no
	is_triggered_only = yes
	option = {
		name = EU_tutorial.33.a
		log = "[GetDateText]: [Root.GetName]: event EU_tutorial.33.a" 
		ROOT = {
			news_event = {
				id = EU_tutorial.34
			}
		}
	}
}

news_event = { 
	id = EU_tutorial.34
	immediate = { log = "[GetDateText]: [Root.GetName]: event EU_tutorial.34" }
	title = EU_tutorial.34.t
	desc = EU_tutorial.34.d
	picture = GFX_eu
	major = no
	is_triggered_only = yes
	option = {
		name = EU_tutorial.34.a
		log = "[GetDateText]: [Root.GetName]: event EU_tutorial.34.a" 
		ROOT = {
			news_event = {
				id = EU_tutorial.35
			}
		}
	}
}

news_event = { 
	id = EU_tutorial.35
	immediate = { log = "[GetDateText]: [Root.GetName]: event EU_tutorial.35" }
	title = EU_tutorial.35.t
	desc = EU_tutorial.35.d
	picture = GFX_eu
	major = no
	is_triggered_only = yes
	option = {
		name = EU_tutorial.35.a
		log = "[GetDateText]: [Root.GetName]: event EU_tutorial.35.a" 
		ROOT = {
			news_event = {
				id = EU_tutorial.36
			}
		}
	}
}

news_event = { 
	id = EU_tutorial.36
	immediate = { log = "[GetDateText]: [Root.GetName]: event EU_tutorial.36" }
	title = EU_tutorial.36.t
	desc = EU_tutorial.36.d
	picture = GFX_eu
	major = no
	is_triggered_only = yes
	option = {
		name = EU_tutorial.36.a
		log = "[GetDateText]: [Root.GetName]: event EU_tutorial.36.a" 
		ROOT = {
			news_event = {
				id = EU_tutorial.37
			}
		}
	}
}

news_event = { 
	id = EU_tutorial.37
	immediate = { log = "[GetDateText]: [Root.GetName]: event EU_tutorial.37" }
	title = EU_tutorial.37.t
	desc = EU_tutorial.37.d
	picture = GFX_eu
	major = no
	is_triggered_only = yes
	option = {
		name = EU_tutorial.37.a
		log = "[GetDateText]: [Root.GetName]: event EU_tutorial.37.a" 
		ROOT = {
			news_event = {
				id = EU_tutorial.38
			}
		}
	}
}

news_event = { 
	id = EU_tutorial.38
	immediate = { log = "[GetDateText]: [Root.GetName]: event EU_tutorial.38" }
	title = EU_tutorial.38.t
	desc = EU_tutorial.38.d
	picture = GFX_eu
	major = no
	is_triggered_only = yes
	option = {
		name = EU_tutorial.38.a
		log = "[GetDateText]: [Root.GetName]: event EU_tutorial.38.a" 
		ROOT = {
			news_event = {
				id = EU_tutorial.40
			}
		}
	}
}


### Chapter 4 - The EU Laws and Ideas ###
country_event = { 
	id = EU_tutorial.40
	immediate = { log = "[GetDateText]: [Root.GetName]: event EU_tutorial.40" }
	title = EU_tutorial.40.t
	desc = EU_tutorial.40.d
	#picture = GFX_eu
	major = no
	is_triggered_only = yes
	option = {
		name = EU_tutorial.40.a
		log = "[GetDateText]: [Root.GetName]: event EU_tutorial.40.a" 
		ROOT = {
			news_event = {
				id = EU_tutorial.41
			}
		}
	}
	option = {
		name = EU_tutorial.40.b
		log = "[GetDateText]: [Root.GetName]: event EU_tutorial.40.b" 
		ROOT = {
			news_event = {
				id = EU_tutorial.42
			}
		}
	}
	option = {
		name = EU_tutorial.40.c
		log = "[GetDateText]: [Root.GetName]: event EU_tutorial.40.c" 
		ROOT = {
			news_event = {
				id = EU_tutorial.43
			}
		}
	}	
	option = {
		name = EU_tutorial.40.e
		log = "[GetDateText]: [Root.GetName]: event EU_tutorial.40.e" 
		ROOT = {
			news_event = {
				id = EU_tutorial.1
			}
		}
	}
}


news_event = { 
	id = EU_tutorial.41
	immediate = { log = "[GetDateText]: [Root.GetName]: event EU_tutorial.41" }
	title = EU_tutorial.41.t
	desc = EU_tutorial.41.d
	picture = GFX_eu
	major = no
	is_triggered_only = yes
	option = {
		name = EU_tutorial.41.a
		log = "[GetDateText]: [Root.GetName]: event EU_tutorial.41.a" 
		ROOT = {
			news_event = {
				id = EU_tutorial.42
			}
		}
	}
}

news_event = { 
	id = EU_tutorial.42
	immediate = { log = "[GetDateText]: [Root.GetName]: event EU_tutorial.42" }
	title = EU_tutorial.42.t
	desc = EU_tutorial.42.d
	picture = GFX_eu
	major = no
	is_triggered_only = yes
	option = {
		name = EU_tutorial.42.a
		log = "[GetDateText]: [Root.GetName]: event EU_tutorial.42.a" 
		ROOT = {
			news_event = {
				id = EU_tutorial.43
			}
		}
	}
}

news_event = { 
	id = EU_tutorial.43
	immediate = { log = "[GetDateText]: [Root.GetName]: event EU_tutorial.43" }
	title = EU_tutorial.43.t
	desc = EU_tutorial.43.d
	picture = GFX_eu
	major = no
	is_triggered_only = yes
	option = {
		name = EU_tutorial.43.a
		log = "[GetDateText]: [Root.GetName]: event EU_tutorial.43.a" 
		ROOT = {
			news_event = {
				id = EU_tutorial.50
			}
		}
	}
}


### Chapter 5 - The EU Offices ###
country_event = { 
	id = EU_tutorial.50
	immediate = { log = "[GetDateText]: [Root.GetName]: event EU_tutorial.50" }
	title = EU_tutorial.50.t
	desc = EU_tutorial.50.d
	#picture = GFX_eu
	major = no
	is_triggered_only = yes
	option = {
		name = EU_tutorial.50.a
		log = "[GetDateText]: [Root.GetName]: event EU_tutorial.50.a" 
		ROOT = {
			news_event = {
				id = EU_tutorial.51
			}
		}
	}
	option = {
		name = EU_tutorial.50.b
		log = "[GetDateText]: [Root.GetName]: event EU_tutorial.50.b" 
		ROOT = {
			news_event = {
				id = EU_tutorial.54
			}
		}
	}
	option = {
		name = EU_tutorial.50.c
		log = "[GetDateText]: [Root.GetName]: event EU_tutorial.50.c" 
		ROOT = {
			news_event = {
				id = EU_tutorial.57
			}
		}
	}	
	option = {
		name = EU_tutorial.50.e
		log = "[GetDateText]: [Root.GetName]: event EU_tutorial.50.e" 
		ROOT = {
			news_event = {
				id = EU_tutorial.1
			}
		}
	}
}


news_event = { 
	id = EU_tutorial.51
	immediate = { log = "[GetDateText]: [Root.GetName]: event EU_tutorial.51" }
	title = EU_tutorial.51.t
	desc = EU_tutorial.51.d
	picture = GFX_eu
	major = no
	is_triggered_only = yes
	option = {
		name = EU_tutorial.51.a
		log = "[GetDateText]: [Root.GetName]: event EU_tutorial.51.a" 
		ROOT = {
			news_event = {
				id = EU_tutorial.52
			}
		}
	}
}

news_event = { 
	id = EU_tutorial.52
	immediate = { log = "[GetDateText]: [Root.GetName]: event EU_tutorial.52" }
	title = EU_tutorial.52.t
	desc = EU_tutorial.52.d
	picture = GFX_eu
	major = no
	is_triggered_only = yes
	option = {
		name = EU_tutorial.52.a
		log = "[GetDateText]: [Root.GetName]: event EU_tutorial.52.a" 
		ROOT = {
			news_event = {
				id = EU_tutorial.53
			}
		}
	}
}

news_event = { 
	id = EU_tutorial.53
	immediate = { log = "[GetDateText]: [Root.GetName]: event EU_tutorial.53" }
	title = EU_tutorial.53.t
	desc = EU_tutorial.53.d
	picture = GFX_eu
	major = no
	is_triggered_only = yes
	option = {
		name = EU_tutorial.53.a
		log = "[GetDateText]: [Root.GetName]: event EU_tutorial.53.a" 
		ROOT = {
			news_event = {
				id = EU_tutorial.54
			}
		}
	}
}

news_event = { 
	id = EU_tutorial.54
	immediate = { log = "[GetDateText]: [Root.GetName]: event EU_tutorial.54" }
	title = EU_tutorial.54.t
	desc = EU_tutorial.54.d
	picture = GFX_eu
	major = no
	is_triggered_only = yes
	option = {
		name = EU_tutorial.54.a
		log = "[GetDateText]: [Root.GetName]: event EU_tutorial.54.a" 
		ROOT = {
			news_event = {
				id = EU_tutorial.55
			}
		}
	}
}

news_event = { 
	id = EU_tutorial.55
	immediate = { log = "[GetDateText]: [Root.GetName]: event EU_tutorial.55" }
	title = EU_tutorial.55.t
	desc = EU_tutorial.55.d
	picture = GFX_eu
	major = no
	is_triggered_only = yes
	option = {
		name = EU_tutorial.55.a
		log = "[GetDateText]: [Root.GetName]: event EU_tutorial.55.a" 
		ROOT = {
			news_event = {
				id = EU_tutorial.56
			}
		}
	}
}

news_event = { 
	id = EU_tutorial.56
	immediate = { log = "[GetDateText]: [Root.GetName]: event EU_tutorial.56" }
	title = EU_tutorial.56.t
	desc = EU_tutorial.56.d
	picture = GFX_eu
	major = no
	is_triggered_only = yes
	option = {
		name = EU_tutorial.56.a
		log = "[GetDateText]: [Root.GetName]: event EU_tutorial.56.a" 
		ROOT = {
			news_event = {
				id = EU_tutorial.57
			}
		}
	}
}

news_event = { 
	id = EU_tutorial.57
	immediate = { log = "[GetDateText]: [Root.GetName]: event EU_tutorial.57" }
	title = EU_tutorial.57.t
	desc = EU_tutorial.57.d
	picture = GFX_eu
	major = no
	is_triggered_only = yes
	option = {
		name = EU_tutorial.57.a
		log = "[GetDateText]: [Root.GetName]: event EU_tutorial.57.a" 
		ROOT = {
			news_event = {
				id = EU_tutorial.60
			}
		}
	}
}

### Chapter 6 - Euroscepticism ###
country_event = { 
	id = EU_tutorial.60
	immediate = { log = "[GetDateText]: [Root.GetName]: event EU_tutorial.60" }
	title = EU_tutorial.60.t
	desc = EU_tutorial.60.d
	#picture = GFX_eu
	major = no
	is_triggered_only = yes
	option = {
		name = EU_tutorial.60.a
		log = "[GetDateText]: [Root.GetName]: event EU_tutorial.60.a" 
		ROOT = {
			news_event = {
				id = EU_tutorial.61
			}
		}
	}
	option = {
		name = EU_tutorial.60.b
		log = "[GetDateText]: [Root.GetName]: event EU_tutorial.60.b" 
		ROOT = {
			news_event = {
				id = EU_tutorial.62
			}
		}
	}
	option = {
		name = EU_tutorial.60.c
		log = "[GetDateText]: [Root.GetName]: event EU_tutorial.60.c" 
		ROOT = {
			news_event = {
				id = EU_tutorial.63
			}
		}
	}	
	option = {
		name = EU_tutorial.60.e
		log = "[GetDateText]: [Root.GetName]: event EU_tutorial.60.e" 
		ROOT = {
			news_event = {
				id = EU_tutorial.1
			}
		}
	}
}


news_event = { 
	id = EU_tutorial.61
	immediate = { log = "[GetDateText]: [Root.GetName]: event EU_tutorial.61" }
	title = EU_tutorial.61.t
	desc = EU_tutorial.61.d
	picture = GFX_eu
	major = no
	is_triggered_only = yes
	option = {
		name = EU_tutorial.61.a
		log = "[GetDateText]: [Root.GetName]: event EU_tutorial.61.a" 
		ROOT = {
			news_event = {
				id = EU_tutorial.62
			}
		}
	}
}

news_event = { 
	id = EU_tutorial.62
	immediate = { log = "[GetDateText]: [Root.GetName]: event EU_tutorial.62" }
	title = EU_tutorial.62.t
	desc = EU_tutorial.62.d
	picture = GFX_eu
	major = no
	is_triggered_only = yes
	option = {
		name = EU_tutorial.62.a
		log = "[GetDateText]: [Root.GetName]: event EU_tutorial.62.a" 
		ROOT = {
			news_event = {
				id = EU_tutorial.63
			}
		}
	}
}

news_event = { 
	id = EU_tutorial.63
	immediate = { log = "[GetDateText]: [Root.GetName]: event EU_tutorial.63" }
	title = EU_tutorial.63.t
	desc = EU_tutorial.63.d
	picture = GFX_eu
	major = no
	is_triggered_only = yes
	option = {
		name = EU_tutorial.63.a
		log = "[GetDateText]: [Root.GetName]: event EU_tutorial.63.a" 
		ROOT = {
			news_event = {
				id = EU_tutorial.70
			}
		}
	}
}


### Chapter 7 - Leaving the EU ###
country_event = { 
	id = EU_tutorial.70
	immediate = { log = "[GetDateText]: [Root.GetName]: event EU_tutorial.70" }
	title = EU_tutorial.70.t
	desc = EU_tutorial.70.d
	#picture = GFX_eu
	major = no
	is_triggered_only = yes
	option = {
		name = EU_tutorial.70.a
		log = "[GetDateText]: [Root.GetName]: event EU_tutorial.70.a" 
		ROOT = {
			news_event = {
				id = EU_tutorial.71
			}
		}
	}
	option = {
		name = EU_tutorial.70.b
		log = "[GetDateText]: [Root.GetName]: event EU_tutorial.70.b" 
		ROOT = {
			news_event = {
				id = EU_tutorial.72
			}
		}
	}
	option = {
		name = EU_tutorial.70.c
		log = "[GetDateText]: [Root.GetName]: event EU_tutorial.70.c" 
		ROOT = {
			news_event = {
				id = EU_tutorial.73
			}
		}
	}	
	option = {
		name = EU_tutorial.70.e
		log = "[GetDateText]: [Root.GetName]: event EU_tutorial.70.e" 
		ROOT = {
			news_event = {
				id = EU_tutorial.1
			}
		}
	}
}

news_event = { 
	id = EU_tutorial.71
	immediate = { log = "[GetDateText]: [Root.GetName]: event EU_tutorial.71" }
	title = EU_tutorial.71.t
	desc = EU_tutorial.71.d
	picture = GFX_eu
	major = no
	is_triggered_only = yes
	option = {
		name = EU_tutorial.71.a
		log = "[GetDateText]: [Root.GetName]: event EU_tutorial.71.a" 
		ROOT = {
			news_event = {
				id = EU_tutorial.72
			}
		}
	}
}

news_event = { 
	id = EU_tutorial.72
	immediate = { log = "[GetDateText]: [Root.GetName]: event EU_tutorial.72" }
	title = EU_tutorial.72.t
	desc = EU_tutorial.72.d
	picture = GFX_eu
	major = no
	is_triggered_only = yes
	option = {
		name = EU_tutorial.72.a
		log = "[GetDateText]: [Root.GetName]: event EU_tutorial.72.a" 
		ROOT = {
			news_event = {
				id = EU_tutorial.73
			}
		}
	}
}

news_event = { 
	id = EU_tutorial.73
	immediate = { log = "[GetDateText]: [Root.GetName]: event EU_tutorial.73" }
	title = EU_tutorial.73.t
	desc = EU_tutorial.73.d
	picture = GFX_eu
	major = no
	is_triggered_only = yes
	option = {
		name = EU_tutorial.73.a
		log = "[GetDateText]: [Root.GetName]: event EU_tutorial.73.a" 
		ROOT = {
			news_event = {
				id = EU_tutorial.80
			}
		}
	}
}


### Chapter 8 - Enlargement and Joining the EU ###
country_event = { 
	id = EU_tutorial.80
	immediate = { log = "[GetDateText]: [Root.GetName]: event EU_tutorial.80" }
	title = EU_tutorial.80.t
	desc = EU_tutorial.80.d
	#picture = GFX_eu
	major = no
	is_triggered_only = yes
	option = {
		name = EU_tutorial.80.a
		log = "[GetDateText]: [Root.GetName]: event EU_tutorial.80.a" 
		ROOT = {
			news_event = {
				id = EU_tutorial.81
			}
		}
	}
	option = {
		name = EU_tutorial.80.b
		log = "[GetDateText]: [Root.GetName]: event EU_tutorial.80.b" 
		ROOT = {
			news_event = {
				id = EU_tutorial.82
			}
		}
	}
	option = {
		name = EU_tutorial.80.c
		log = "[GetDateText]: [Root.GetName]: event EU_tutorial.80.c" 
		ROOT = {
			news_event = {
				id = EU_tutorial.83
			}
		}
	}	
	option = {
		name = EU_tutorial.80.e
		log = "[GetDateText]: [Root.GetName]: event EU_tutorial.80.e" 
		ROOT = {
			news_event = {
				id = EU_tutorial.1
			}
		}
	}
}

news_event = { 
	id = EU_tutorial.81
	immediate = { log = "[GetDateText]: [Root.GetName]: event EU_tutorial.81" }
	title = EU_tutorial.81.t
	desc = EU_tutorial.81.d
	picture = GFX_eu
	major = no
	is_triggered_only = yes
	option = {
		name = EU_tutorial.81.a
		log = "[GetDateText]: [Root.GetName]: event EU_tutorial.81.a" 
		ROOT = {
			news_event = {
				id = EU_tutorial.82
			}
		}
	}
}

news_event = { 
	id = EU_tutorial.82
	immediate = { log = "[GetDateText]: [Root.GetName]: event EU_tutorial.82" }
	title = EU_tutorial.82.t
	desc = EU_tutorial.82.d
	picture = GFX_eu
	major = no
	is_triggered_only = yes
	option = {
		name = EU_tutorial.82.a
		log = "[GetDateText]: [Root.GetName]: event EU_tutorial.82.a" 
		ROOT = {
			news_event = {
				id = EU_tutorial.83
			}
		}
	}
}

news_event = { 
	id = EU_tutorial.83
	immediate = { log = "[GetDateText]: [Root.GetName]: event EU_tutorial.83" }
	title = EU_tutorial.83.t
	desc = EU_tutorial.83.d
	picture = GFX_eu
	major = no
	is_triggered_only = yes
	option = {
		name = EU_tutorial.83.a
		log = "[GetDateText]: [Root.GetName]: event EU_tutorial.83.a" 
		ROOT = {
			news_event = {
				id = EU_tutorial.90
			}
		}
	}
}


### Chapter 9 - EU Events ###
country_event = { 
	id = EU_tutorial.90
	immediate = { log = "[GetDateText]: [Root.GetName]: event EU_tutorial.90" }
	title = EU_tutorial.90.t
	desc = EU_tutorial.90.d
	#picture = GFX_eu
	major = no
	is_triggered_only = yes
	option = {
		name = EU_tutorial.90.a
		log = "[GetDateText]: [Root.GetName]: event EU_tutorial.90.a" 
		ROOT = {
			news_event = {
				id = EU_tutorial.91
			}
		}
	}
	option = {
		name = EU_tutorial.90.b
		log = "[GetDateText]: [Root.GetName]: event EU_tutorial.90.b" 
		ROOT = {
			news_event = {
				id = EU_tutorial.92
			}
		}
	}
	option = {
		name = EU_tutorial.90.c
		log = "[GetDateText]: [Root.GetName]: event EU_tutorial.90.c" 
		ROOT = {
			news_event = {
				id = EU_tutorial.93
			}
		}
	}	
	option = {
		name = EU_tutorial.90.e
		log = "[GetDateText]: [Root.GetName]: event EU_tutorial.90.e" 
		ROOT = {
			news_event = {
				id = EU_tutorial.1
			}
		}
	}
}

news_event = { 
	id = EU_tutorial.91
	immediate = { log = "[GetDateText]: [Root.GetName]: event EU_tutorial.91" }
	title = EU_tutorial.91.t
	desc = EU_tutorial.91.d
	picture = GFX_eu
	major = no
	is_triggered_only = yes
	option = {
		name = EU_tutorial.91.a
		log = "[GetDateText]: [Root.GetName]: event EU_tutorial.91.a" 
		ROOT = {
			news_event = {
				id = EU_tutorial.92
			}
		}
	}
}

news_event = { 
	id = EU_tutorial.92
	immediate = { log = "[GetDateText]: [Root.GetName]: event EU_tutorial.92" }
	title = EU_tutorial.92.t
	desc = EU_tutorial.92.d
	picture = GFX_eu
	major = no
	is_triggered_only = yes
	option = {
		name = EU_tutorial.92.a
		log = "[GetDateText]: [Root.GetName]: event EU_tutorial.92.a" 
		ROOT = {
			news_event = {
				id = EU_tutorial.93
			}
		}
	}
}

news_event = { 
	id = EU_tutorial.93
	immediate = { log = "[GetDateText]: [Root.GetName]: event EU_tutorial.93" }
	title = EU_tutorial.93.t
	desc = EU_tutorial.93.d
	picture = GFX_eu
	major = no
	is_triggered_only = yes
	option = {
		name = EU_tutorial.93.a
		log = "[GetDateText]: [Root.GetName]: event EU_tutorial.93.a" 
		ROOT = {
			news_event = {
				id = EU_tutorial.100
			}
		}
	}
}


### Chapter 10 - Uniting the EU ###
country_event = { 
	id = EU_tutorial.100
	immediate = { log = "[GetDateText]: [Root.GetName]: event EU_tutorial.100" }
	title = EU_tutorial.100.t
	desc = EU_tutorial.100.d
	#picture = GFX_eu
	major = no
	is_triggered_only = yes
	option = {
		name = EU_tutorial.100.a
		log = "[GetDateText]: [Root.GetName]: event EU_tutorial.100.a" 
		ROOT = {
			news_event = {
				id = EU_tutorial.101
			}
		}
	}
	option = {
		name = EU_tutorial.100.b
		log = "[GetDateText]: [Root.GetName]: event EU_tutorial.100.b" 
		ROOT = {
			news_event = {
				id = EU_tutorial.102
			}
		}
	}
	option = {
		name = EU_tutorial.100.c
		log = "[GetDateText]: [Root.GetName]: event EU_tutorial.100.c" 
		ROOT = {
			news_event = {
				id = EU_tutorial.103
			}
		}
	}	
	option = {
		name = EU_tutorial.100.e
		log = "[GetDateText]: [Root.GetName]: event EU_tutorial.100.e" 
		ROOT = {
			news_event = {
				id = EU_tutorial.1
			}
		}
	}
}

news_event = { 
	id = EU_tutorial.101
	immediate = { log = "[GetDateText]: [Root.GetName]: event EU_tutorial.101" }
	title = EU_tutorial.101.t
	desc = EU_tutorial.101.d
	picture = GFX_eu
	major = no
	is_triggered_only = yes
	option = {
		name = EU_tutorial.101.a
		log = "[GetDateText]: [Root.GetName]: event EU_tutorial.101.a" 
		ROOT = {
			news_event = {
				id = EU_tutorial.102
			}
		}
	}
}

news_event = { 
	id = EU_tutorial.102
	immediate = { log = "[GetDateText]: [Root.GetName]: event EU_tutorial.102" }
	title = EU_tutorial.102.t
	desc = EU_tutorial.102.d
	picture = GFX_eu
	major = no
	is_triggered_only = yes
	option = {
		name = EU_tutorial.102.a
		log = "[GetDateText]: [Root.GetName]: event EU_tutorial.102.a" 
		ROOT = {
			news_event = {
				id = EU_tutorial.103
			}
		}
	}
}

news_event = { 
	id = EU_tutorial.103
	immediate = { log = "[GetDateText]: [Root.GetName]: event EU_tutorial.103" }
	title = EU_tutorial.103.t
	desc = EU_tutorial.103.d
	picture = GFX_eu
	major = no
	is_triggered_only = yes
	option = {
		name = EU_tutorial.103.a
		log = "[GetDateText]: [Root.GetName]: event EU_tutorial.103.a" 
		ROOT = {
			news_event = {
				id = EU_tutorial.110
			}
		}
	}
}

### Chapter 11 - EU AI ###
country_event = { 
	id = EU_tutorial.110
	immediate = { log = "[GetDateText]: [Root.GetName]: event EU_tutorial.110" }
	title = EU_tutorial.110.t
	desc = EU_tutorial.110.d
	#picture = GFX_eu
	major = no
	is_triggered_only = yes
	option = {
		name = EU_tutorial.110.a
		log = "[GetDateText]: [Root.GetName]: event EU_tutorial.110.a" 
		ROOT = {
			news_event = {
				id = EU_tutorial.111
			}
		}
	}
	option = {
		name = EU_tutorial.110.b
		log = "[GetDateText]: [Root.GetName]: event EU_tutorial.110.b" 
		ROOT = {
			news_event = {
				id = EU_tutorial.112
			}
		}
	}
	option = {
		name = EU_tutorial.110.c
		log = "[GetDateText]: [Root.GetName]: event EU_tutorial.110.c" 
		ROOT = {
			news_event = {
				id = EU_tutorial.113
			}
		}
	}	
	option = {
		name = EU_tutorial.110.e
		log = "[GetDateText]: [Root.GetName]: event EU_tutorial.110.e" 
		ROOT = {
			news_event = {
				id = EU_tutorial.1
			}
		}
	}
}

news_event = { 
	id = EU_tutorial.111
	immediate = { log = "[GetDateText]: [Root.GetName]: event EU_tutorial.111" }
	title = EU_tutorial.111.t
	desc = EU_tutorial.111.d
	picture = GFX_eu
	major = no
	is_triggered_only = yes
	option = {
		name = EU_tutorial.111.a
		log = "[GetDateText]: [Root.GetName]: event EU_tutorial.111.a" 
		ROOT = {
			news_event = {
				id = EU_tutorial.112
			}
		}
	}
}

news_event = { 
	id = EU_tutorial.112
	immediate = { log = "[GetDateText]: [Root.GetName]: event EU_tutorial.112" }
	title = EU_tutorial.112.t
	desc = EU_tutorial.112.d
	picture = GFX_eu
	major = no
	is_triggered_only = yes
	option = {
		name = EU_tutorial.112.a
		log = "[GetDateText]: [Root.GetName]: event EU_tutorial.112.a" 
		ROOT = {
			news_event = {
				id = EU_tutorial.113
			}
		}
	}
}

news_event = { 
	id = EU_tutorial.113
	immediate = { log = "[GetDateText]: [Root.GetName]: event EU_tutorial.113" }
	title = EU_tutorial.113.t
	desc = EU_tutorial.113.d
	picture = GFX_eu
	major = no
	is_triggered_only = yes
	option = {
		name = EU_tutorial.113.a
		log = "[GetDateText]: [Root.GetName]: event EU_tutorial.113.a" 
		ROOT = {
			news_event = {
				id = EU_tutorial.120
			}
		}
	}
}

### Chapter 12 - Hints and Cheats ###
country_event = { 
	id = EU_tutorial.120
	immediate = { log = "[GetDateText]: [Root.GetName]: event EU_tutorial.120" }
	title = EU_tutorial.120.t
	desc = EU_tutorial.120.d
	#picture = GFX_eu
	major = no
	is_triggered_only = yes
	option = {
		name = EU_tutorial.120.a
		log = "[GetDateText]: [Root.GetName]: event EU_tutorial.120.a" 
		ROOT = {
			news_event = {
				id = EU_tutorial.121
			}
		}
	}
	option = {
		name = EU_tutorial.120.b
		log = "[GetDateText]: [Root.GetName]: event EU_tutorial.120.b" 
		ROOT = {
			news_event = {
				id = EU_tutorial.122
			}
		}
	}
	option = {
		name = EU_tutorial.120.c
		log = "[GetDateText]: [Root.GetName]: event EU_tutorial.120.c" 
		ROOT = {
			news_event = {
				id = EU_tutorial.123
			}
		}
	}	
	option = {
		name = EU_tutorial.120.e
		log = "[GetDateText]: [Root.GetName]: event EU_tutorial.120.e" 
		ROOT = {
			news_event = {
				id = EU_tutorial.1
			}
		}
	}
}

news_event = { 
	id = EU_tutorial.121
	immediate = { log = "[GetDateText]: [Root.GetName]: event EU_tutorial.121" }
	title = EU_tutorial.121.t
	desc = EU_tutorial.121.d
	picture = GFX_eu
	major = no
	is_triggered_only = yes
	option = {
		name = EU_tutorial.121.a
		log = "[GetDateText]: [Root.GetName]: event EU_tutorial.121.a" 
		ROOT = {
			news_event = {
				id = EU_tutorial.122
			}
		}
	}
}

news_event = { 
	id = EU_tutorial.122
	immediate = { log = "[GetDateText]: [Root.GetName]: event EU_tutorial.122" }
	title = EU_tutorial.122.t
	desc = EU_tutorial.122.d
	picture = GFX_eu
	major = no
	is_triggered_only = yes
	option = {
		name = EU_tutorial.122.a
		log = "[GetDateText]: [Root.GetName]: event EU_tutorial.122.a" 
		ROOT = {
			news_event = {
				id = EU_tutorial.123
			}
		}
	}
}

news_event = { 
	id = EU_tutorial.123
	immediate = { log = "[GetDateText]: [Root.GetName]: event EU_tutorial.123" }
	title = EU_tutorial.123.t
	desc = EU_tutorial.123.d
	picture = GFX_eu
	major = no
	is_triggered_only = yes
	option = {
		name = EU_tutorial.123.a
		log = "[GetDateText]: [Root.GetName]: event EU_tutorial.123.a" 
		ROOT = {
			news_event = {
				id = EU_tutorial.1
			}
		}
	}
}


##########################
### End of EU Tutorial ###
##########################

### EU Info ###

country_event = { 
	id = EU_info.1
	immediate = { log = "[GetDateText]: [Root.GetName]: event EU_info.1" }
	title = EU_info.1.t
	desc = EU_info.1.d
	#picture = GFX_eu
	major = no
	is_triggered_only = yes
	option = {
		name = EU_info.1.a
		log = "[GetDateText]: [Root.GetName]: event EU_info.1.a" 
		
	}
}





#State of the European Union
news_event = { 
	id = EU_news.1
	immediate = { log = "[GetDateText]: [Root.GetName]: event EU_news.1" }
	title = EU_news.1.t
	desc = EU_news.1.d
#	picture = GFX_news_EU
	
	major = no
	is_triggered_only = yes
	
	option = {
		name = EU_news.1.a
		log = "[GetDateText]: [Root.GetName]: event EU_news.1.a" 
	}
}

#####################################	
### Offices of the European Union ###
#####################################


### President of the European Commission ###
news_event = { 
	id = EU_news.2
	immediate = { log = "[GetDateText]: [Root.GetName]: event EU_news.2" }
	title = EU_news.2.t
	desc = EU_news.2.d
	picture = GFX_eu
	major = no
	is_triggered_only = yes
	option = {
		name = EU_news.2.a
		log = "[GetDateText]: [Root.GetName]: event EU_news.2.a" 
	}
}
### President of the European Council ###
news_event = { 
	id = EU_news.3
	immediate = { log = "[GetDateText]: [Root.GetName]: event EU_news.3" }
	title = EU_news.3.t
	desc = EU_news.3.d
	picture = GFX_eu
	major = no
	is_triggered_only = yes
	option = {
		name = EU_news.3.a
		log = "[GetDateText]: [Root.GetName]: event EU_news.3.a" 
	}
}
### High Representative of the Union for Foreign Affairs and Security Policy ###
news_event = { 
	id = EU_news.4
	immediate = { log = "[GetDateText]: [Root.GetName]: event EU_news.4" }
	title = EU_news.4.t
	desc = EU_news.4.d
	picture = GFX_eu
	major = no
	is_triggered_only = yes
	option = {
		name = EU_news.4.a
		log = "[GetDateText]: [Root.GetName]: event EU_news.4.a" 
	}
}
### President of the European Parliament ###
news_event = { 
	id = EU_news.5
	immediate = { log = "[GetDateText]: [Root.GetName]: event EU_news.5" }
	title = EU_news.5.t
	desc = EU_news.5.d
	picture = GFX_eu
	major = no
	is_triggered_only = yes
	option = {
		name = EU_news.5.a
		log = "[GetDateText]: [Root.GetName]: event EU_news.5.a" 
	}
}
### President of the European Central Bank ###
news_event = { 
	id = EU_news.6
	immediate = { log = "[GetDateText]: [Root.GetName]: event EU_news.6" }
	title = EU_news.6.t
	desc = EU_news.6.d
	picture = GFX_eu
	major = no
	is_triggered_only = yes
	option = {
		name = EU_news.6.a
		log = "[GetDateText]: [Root.GetName]: event EU_news.6.a" 
	}
}
### European Minister of Economy and Finance ###
news_event = { 
	id = EU_news.7
	immediate = { log = "[GetDateText]: [Root.GetName]: event EU_news.7" }
	title = EU_news.7.t
	desc = EU_news.7.d
	picture = GFX_eu
	major = no
	is_triggered_only = yes
	option = {
		name = EU_news.7.a
		log = "[GetDateText]: [Root.GetName]: event EU_news.7.a" 
	}
}
### Frontex Executive Director ###
news_event = { 
	id = EU_news.8
	immediate = { log = "[GetDateText]: [Root.GetName]: event EU_news.8" }
	title = EU_news.8.t
	desc = EU_news.8.d
	picture = GFX_eu
	major = no
	is_triggered_only = yes
	option = {
		name = EU_news.8.a
		log = "[GetDateText]: [Root.GetName]: event EU_news.8.a" 
	}
}
### Secretary General of EuroArmy ###
news_event = { 
	id = EU_news.9
	immediate = { log = "[GetDateText]: [Root.GetName]: event EU_news.9" }
	title = EU_news.9.t
	desc = EU_news.9.d
	picture = GFX_eu
	major = no
	is_triggered_only = yes
	option = {
		name = EU_news.9.a
		log = "[GetDateText]: [Root.GetName]: event EU_news.9.a" 
	}
}
### Secretary General of EuroNavy ###
news_event = { 
	id = EU_news.10
	immediate = { log = "[GetDateText]: [Root.GetName]: event EU_news.10" }
	title = EU_news.10.t
	desc = EU_news.10.d
	picture = GFX_eu
	major = no
	is_triggered_only = yes
	option = {
		name = EU_news.10.a
		log = "[GetDateText]: [Root.GetName]: event EU_news.10.a" 
	}
}
### Ambassador of the Union to the United Nations ###
news_event = { 
	id = EU_news.11
	immediate = { log = "[GetDateText]: [Root.GetName]: event EU_news.11" }
	title = EU_news.11.t
	desc = EU_news.11.d
	picture = GFX_eu
	major = no
	is_triggered_only = yes
	option = {
		name = EU_news.11.a
		log = "[GetDateText]: [Root.GetName]: event EU_news.11.a" 
	}
}
### President of the European Federation ###
news_event = { 
	id = EU_news.12
	immediate = { log = "[GetDateText]: [Root.GetName]: event EU_news.12" }
	title = EU_news.12.t
	desc = EU_news.12.d
	picture = GFX_eu
	major = no
	is_triggered_only = yes
	option = {
		name = EU_news.12.a
		log = "[GetDateText]: [Root.GetName]: event EU_news.12.a" 
	}
}

### EU_news.13 - EU_news.19 reserved for additional offices

############################################	
### End of Offices of the European Union ###
############################################

### EU Exit by accident (troika reforms) ###
news_event = { 
	id = EU_news.20
	immediate = { log = "[GetDateText]: [Root.GetName]: event EU_news.20" }
	title = EU_news.20.t
	desc = EU_news.20.d
	picture = GFX_eu
	major = yes
	is_triggered_only = yes ### EUevent.9
	option = {
		name = EU_news.20.a
		log = "[GetDateText]: [Root.GetName]: event EU_news.20.a" 
	}
}

### EU Exit by accident (no deal exit) ###
news_event = { 
	id = EU_news.21
	immediate = { log = "[GetDateText]: [Root.GetName]: event EU_news.21" }
	title = EU_news.21.t
	desc = EU_news.21.d
	picture = GFX_eu
	major = yes
	is_triggered_only = yes ### EU_exit
	option = {
		name = EU_news.21.a
		log = "[GetDateText]: [Root.GetName]: event EU_news.21.a" 
	}
}

### Article 50 is revoked ###
news_event = { 
	id = EU_news.22
	immediate = { log = "[GetDateText]: [Root.GetName]: event EU_news.22" }
	title = EU_news.22.t
	desc = EU_news.22.d
	picture = GFX_eu
	major = yes
	is_triggered_only = yes ### EU_exit
	option = {
		name = EU_news.22.a
		log = "[GetDateText]: [Root.GetName]: event EU_news.22.a" 
	}
}

### withdrawal_treaty ###
news_event = { 
	id = EU_news.23
	immediate = { log = "[GetDateText]: [Root.GetName]: event EU_news.23" }
	title = EU_news.23.t
	desc = EU_news.23.d
	picture = GFX_eu
	major = yes
	is_triggered_only = yes ### EU_exit
	option = {
		name = EU_news.23.a
		log = "[GetDateText]: [Root.GetName]: event EU_news.23.a" 
	}
}

### Article 50 Extension ###
news_event = { 
	id = EU_news.24
	immediate = { log = "[GetDateText]: [Root.GetName]: event EU_news.24" }
	title = EU_news.24.t
	desc = EU_news.24.d
	picture = GFX_eu
	major = yes
	is_triggered_only = yes ### EU_extend_Article_50
	option = {
		name = EU_news.24.a
		log = "[GetDateText]: [Root.GetName]: event EU_news.24.a" 
	}
}

### Article 50 is triggered ###
news_event = { 
	id = EU_news.34
	immediate = { log = "[GetDateText]: [Root.GetName]: event EU_news.34" }
	title = EU_news.34.t
	desc = EU_news.34.d
	picture = GFX_eu
	major = yes
	is_triggered_only = yes ### EU_Article_50
	option = {
		name = EU_news.34.a
		log = "[GetDateText]: [Root.GetName]: event EU_news.34.a" 
	}
}




### EuroNavy Transfer ###
news_event = { 
	id = EU_news.25
	immediate = { log = "[GetDateText]: [Root.GetName]: event EU_news.25" }
	title = EU_news.25.t
	desc = EU_news.25.d
	picture = GFX_eu
	major = no
	is_triggered_only = yes ### EuroNavy Transfer Navy
	option = {
		name = EU_news.25.a
		log = "[GetDateText]: [Root.GetName]: event EU_news.25.a" 
	}
}

### EuroNavy Transfer denied ###
news_event = { 
	id = EU_news.26
	immediate = { log = "[GetDateText]: [Root.GetName]: event EU_news.26" }
	title = EU_news.26.t
	desc = EU_news.26.d
	picture = GFX_eu
	major = no
	is_triggered_only = yes ### EuroNavy Transfer Navy 
	option = {
		name = EU_news.26.a
		log = "[GetDateText]: [Root.GetName]: event EU_news.26.a" 
	}
}

### Country joins EU ###
news_event = { 
	id = EU_news.27
	immediate = { log = "[GetDateText]: [Root.GetName]: event EU_news.27" }
	title = EU_news.27.t
	desc = EU_news.27.d
	picture = GFX_eu
	major = no
	is_triggered_only = yes ### EU_apply_for_membership
	option = {
		name = EU_news.27.a
		log = "[GetDateText]: [Root.GetName]: event EU_news.27.a" 
	}
}

### euroscepticism decline -3% ###
news_event = { 
	id = EU_news.28
	immediate = { log = "[GetDateText]: [Root.GetName]: event EU_news.28" }
	title = EU_news.28.t
	desc = EU_news.28.d
	picture = GFX_eu
	major = no
	is_triggered_only = yes ### pro_european_campaign
	option = {
		name = EU_news.28.a
		log = "[GetDateText]: [Root.GetName]: event EU_news.28.a" 
	}
}

### euroscepticism decline -5% ###
news_event = { 
	id = EU_news.29
	immediate = { log = "[GetDateText]: [Root.GetName]: event EU_news.29" }
	title = EU_news.29.t
	desc = EU_news.29.d
	picture = GFX_eu
	major = no
	is_triggered_only = yes ### pro_european_campaign
	option = {
		name = EU_news.29.a
		log = "[GetDateText]: [Root.GetName]: event EU_news.29.a" 
	}
}

### euroscepticism rise 3% ###
news_event = { 
	id = EU_news.30
	immediate = { log = "[GetDateText]: [Root.GetName]: event EU_news.30" }
	title = EU_news.30.t
	desc = EU_news.30.d
	picture = GFX_eu
	major = no
	is_triggered_only = yes ### euroscepticism_campaign
	option = {
		name = EU_news.30.a
		log = "[GetDateText]: [Root.GetName]: event EU_news.30.a" 
	}
}

### euroscepticism rise 5% ###
news_event = { 
	id = EU_news.31
	immediate = { log = "[GetDateText]: [Root.GetName]: event EU_news.31" }
	title = EU_news.31.t
	desc = EU_news.31.d
	picture = GFX_eu
	major = no
	is_triggered_only = yes ### euroscepticism_campaign
	option = {
		name = EU_news.31.a
		log = "[GetDateText]: [Root.GetName]: event EU_news.31.a" 
	}
}


### ECB_Outright_Monetary_Transactions ###

### OMT Start ###
news_event = { 
	id = EU_news.32
	immediate = { log = "[GetDateText]: [Root.GetName]: event EU_news.32" }
	title = EU_news.32.t
	desc = EU_news.32.d
	picture = GFX_eu
	major = no
	is_triggered_only = yes ###
	option = {
		name = EU_news.32.a
		log = "[GetDateText]: [Root.GetName]: event EU_news.32.a" 
	}
}

### OMT End ###
news_event = { 
	id = EU_news.33
	immediate = { log = "[GetDateText]: [Root.GetName]: event EU_news.33" }
	title = EU_news.33.t
	desc = EU_news.33.d
	picture = GFX_eu
	major = no
	is_triggered_only = yes ###
	option = {
		name = EU_news.33.a
		log = "[GetDateText]: [Root.GetName]: event EU_news.33.a" 
	}
}

### Reduce OMT ###
news_event = { 
	id = EU_news.45
	immediate = { log = "[GetDateText]: [Root.GetName]: event EU_news.45" }
	title = EU_news.45.t
	desc = EU_news.45.d
	picture = GFX_eu
	major = no
	is_triggered_only = yes ###
	option = {
		name = EU_news.45.a
		log = "[GetDateText]: [Root.GetName]: event EU_news.45.a" 
	}
}

### Expand OMT ###
news_event = { 
	id = EU_news.46
	immediate = { log = "[GetDateText]: [Root.GetName]: event EU_news.46" }
	title = EU_news.46.t
	desc = EU_news.46.d
	picture = GFX_eu
	major = no
	is_triggered_only = yes ###
	option = {
		name = EU_news.46.a
		log = "[GetDateText]: [Root.GetName]: event EU_news.46.a" 
	}
}


### End of ECB_Outright_Monetary_Transactions ###


### new euro campaign events ### 

### pro_european_campaign success
news_event = { 
	id = EU_news.35
	immediate = { log = "[GetDateText]: [Root.GetName]: event EU_news.35" }
	title = EU_news.35.t
	desc = EU_news.35.d
	picture = GFX_eu
	major = no
	is_triggered_only = yes ###
	option = {
		name = EU_news.35.a
		log = "[GetDateText]: [Root.GetName]: event EU_news.35.a" 
	}
}

### pro_european_campaign greate success
news_event = { 
	id = EU_news.36
	immediate = { log = "[GetDateText]: [Root.GetName]: event EU_news.36" }
	title = EU_news.36.t
	desc = EU_news.36.d
	picture = GFX_eu
	major = no
	is_triggered_only = yes ###
	option = {
		name = EU_news.36.a
		log = "[GetDateText]: [Root.GetName]: event EU_news.36.a" 
	}
}

### pro_european_campaign failure
news_event = { 
	id = EU_news.37
	immediate = { log = "[GetDateText]: [Root.GetName]: event EU_news.37" }
	title = EU_news.37.t
	desc = EU_news.37.d
	picture = GFX_eu
	major = no
	is_triggered_only = yes ###
	option = {
		name = EU_news.37.a
		log = "[GetDateText]: [Root.GetName]: event EU_news.37.a" 
	}
}


### euroscepticism_campaign success
news_event = { 
	id = EU_news.38
	immediate = { log = "[GetDateText]: [Root.GetName]: event EU_news.38" }
	title = EU_news.38.t
	desc = EU_news.38.d
	picture = GFX_eu
	major = no
	is_triggered_only = yes ###
	option = {
		name = EU_news.38.a
		log = "[GetDateText]: [Root.GetName]: event EU_news.38.a" 
	}
}

### euroscepticism_campaign greate success
news_event = { 
	id = EU_news.39
	immediate = { log = "[GetDateText]: [Root.GetName]: event EU_news.39" }
	title = EU_news.39.t
	desc = EU_news.39.d
	picture = GFX_eu
	major = no
	is_triggered_only = yes ###
	option = {
		name = EU_news.39.a
		log = "[GetDateText]: [Root.GetName]: event EU_news.39.a" 
	}
}

### euroscepticism_campaign failure
news_event = { 
	id = EU_news.40
	immediate = { log = "[GetDateText]: [Root.GetName]: event EU_news.40" }
	title = EU_news.40.t
	desc = EU_news.40.d
	picture = GFX_eu
	major = no
	is_triggered_only = yes ###
	option = {
		name = EU_news.40.a
		log = "[GetDateText]: [Root.GetName]: event EU_news.40.a" 
	}
}

### root_pro_european_campaign success
news_event = { 
	id = EU_news.41
	immediate = { log = "[GetDateText]: [Root.GetName]: event EU_news.41" }
	title = EU_news.41.t
	desc = EU_news.41.d
	picture = GFX_eu
	major = no
	is_triggered_only = yes ###
	option = {
		name = EU_news.41.a
		log = "[GetDateText]: [Root.GetName]: event EU_news.41.a" 
	}
}

### root_pro_european_campaign failure
news_event = { 
	id = EU_news.42
	immediate = { log = "[GetDateText]: [Root.GetName]: event EU_news.42" }
	title = EU_news.42.t
	desc = EU_news.42.d
	picture = GFX_eu
	major = no
	is_triggered_only = yes ###
	option = {
		name = EU_news.42.a
		log = "[GetDateText]: [Root.GetName]: event EU_news.42.a" 
	}
}

### root_euroscepticism_campaign success
news_event = { 
	id = EU_news.43
	immediate = { log = "[GetDateText]: [Root.GetName]: event EU_news.43" }
	title = EU_news.43.t
	desc = EU_news.43.d
	picture = GFX_eu
	major = no
	is_triggered_only = yes ###
	option = {
		name = EU_news.43.a
		log = "[GetDateText]: [Root.GetName]: event EU_news.43.a" 
	}
}

### euroscepticism_campaign failure
news_event = { 
	id = EU_news.44
	immediate = { log = "[GetDateText]: [Root.GetName]: event EU_news.44" }
	title = EU_news.44.t
	desc = EU_news.44.d
	picture = GFX_eu
	major = no
	is_triggered_only = yes ###
	option = {
		name = EU_news.44.a
		log = "[GetDateText]: [Root.GetName]: event EU_news.44.a" 
	}
}

### EDU
news_event = { 
	id = EU_news.47
	immediate = { log = "[GetDateText]: [Root.GetName]: event EU_news.47" }
	title = EU_news.47.t
	desc = EU_news.47.d
	picture = GFX_eu
	major = no
	is_triggered_only = yes ###
	option = {
		name = EU_news.47.a
		log = "[GetDateText]: [Root.GetName]: event EU_news.47.a" 
	}
}

### non-EU NATO members notification of EDU
news_event = { 
	id = EU_news.48
	immediate = { log = "[GetDateText]: [Root.GetName]: event EU_news.48" }
	title = EU_news.48.t
	desc = EU_news.48.d
	picture = GFX_news_nato
	major = yes
	is_triggered_only = yes ###
	option = {
		name = EU_news.48.a
		log = "[GetDateText]: [Root.GetName]: event EU_news.48.a" 
	}
}

### NATO members leaves and joins EU and EDU
news_event = { 
	id = EU_news.49
	immediate = { log = "[GetDateText]: [Root.GetName]: event EU_news.49" }
	title = EU_news.49.t
	desc = EU_news.49.d
	picture = GFX_news_nato
	major = no
	is_triggered_only = yes ###
	option = {
		name = EU_news.49.a
		log = "[GetDateText]: [Root.GetName]: event EU_news.49.a" 
	}
}
### Military Exercise at border
news_event = { 
	id = EU_news.50
	immediate = { log = "[GetDateText]: [Root.GetName]: event EU_news.50" }
	title = EU_news.50.t
	desc = EU_news.50.d
	picture = GFX_generic_soldiers
	major = no
	is_triggered_only = yes ###
	option = {
		name = EU_news.50.a
		log = "[GetDateText]: [Root.GetName]: event EU_news.50.a" 
	}
}

### Military Exercise countered
news_event = { 
	id = EU_news.51
	immediate = { log = "[GetDateText]: [Root.GetName]: event EU_news.51" }
	title = EU_news.51.t
	desc = EU_news.51.d
	picture = GFX_news_event_war
	major = no
	is_triggered_only = yes ###
	option = {
		name = EU_news.51.a
		log = "[GetDateText]: [Root.GetName]: event EU_news.51.a" 
	}
}
### Result of EU Parliament elections
news_event = { 
	id = EU_news.52
	immediate = { log = "[GetDateText]: [Root.GetName]: event EU_news.52" }
	title = EU_news.52.t
	desc = EU_news.52.d
	picture = GFX_eu
	major = no
	is_triggered_only = yes ### EUelection.1.a
	option = {
		name = EU_news.52.a
		log = "[GetDateText]: [Root.GetName]: event EU_news.52.a" 
	}
}

### Result of EU Parliament elections
news_event = { 
	id = EU_news.53
	immediate = { log = "[GetDateText]: [Root.GetName]: event EU_news.53" }
	title = EU_news.53.t
	desc = EU_news.53.d
	picture = GFX_eu
	major = no
	is_triggered_only = yes ### EUelection.1.a
	option = {
		name = EU_news.53.a
		log = "[GetDateText]: [Root.GetName]: event EU_news.53.a" 
	}
}

### Result of EU Parliament elections
news_event = { 
	id = EU_news.54
	immediate = { log = "[GetDateText]: [Root.GetName]: event EU_news.54" }
	title = EU_news.54.t
	desc = EU_news.54.d
	picture = GFX_eu
	major = no
	is_triggered_only = yes ### EUelection.1.a
	option = {
		name = EU_news.54.a
		log = "[GetDateText]: [Root.GetName]: event EU_news.54.a" 
	}
}


### EU Budget
news_event = { 
	id = EU_news.55
	immediate = { log = "[GetDateText]: [Root.GetName]: event EU_news.55" }
	title = EU_news.55.t
	desc = EU_news.55.d
	picture = GFX_eu
	major = no
	is_triggered_only = yes ### on_startup / on_yearly
	option = {
		name = EU_news.55.a
		log = "[GetDateText]: [Root.GetName]: event EU_news.55.a"
		add_to_variable = { THIS.treasury = THIS.EU_budget_total_gain }	
		subtract_from_variable = { THIS.treasury = THIS.EU_budget_contribution }
		ingame_calculate_size_modifier = yes
		update_military_rate = yes
		calculate_interest_rate = yes
		calculate_debt_rate = yes		 
	}
}

### EU Budget
news_event = { 
	id = EU_news.56
	immediate = { log = "[GetDateText]: [Root.GetName]: event EU_news.56" }
	title = EU_news.56.t
	desc = EU_news.56.d
	picture = GFX_eu
	major = no
	is_triggered_only = yes ### on_startup / on_yearly 
	option = {
		name = EU_news.56.a
		log = "[GetDateText]: [Root.GetName]: event EU_news.56.a"		
		subtract_from_variable = { THIS.treasury = THIS.EU_budget_contribution }
		ingame_calculate_size_modifier = yes
		update_military_rate = yes
		calculate_interest_rate = yes
		calculate_debt_rate = yes		 
	}
}

