﻿add_namespace = poland
add_namespace = poland_news

### 2000 Independence March - Nationalism ###
###Jonneh####
country_event = { #Return Of Monarchy
	id = poland.1
	immediate = { }
	title = poland.1.t
	desc = poland.1.d
	picture = GFX_monarch_event 
	
	fire_only_once = yes
	is_triggered_only = yes 
	
	option = {
		name = poland.1.a
		hidden_effect = { POL = { set_cosmetic_tag = POL_AUTH_S } }
		create_country_leader = {
			name = " Rydygier Książę Saski"
			picture = "rudiger_saski.dds"
			ideology = Monarchist
			traits = {
			nationalist_Monarchist
				likeable
				businessman
			}
		}
	}
}
country_event = { #Offer To Lithuania
	id = poland.2
	immediate = { }
	title = poland.2.t
	desc = poland.2.d
	picture = GFX_plc_proposal
	
	fire_only_once = yes
	is_triggered_only = yes 
	
	option = { # LIT accepts
	name = poland.2.a
	POL = { add_to_faction = LIT 
	puppet = LIT
	country_event = poland.3 }
	LIT = { hidden_effect = {
		clear_array = ruling_party
		clear_array = gov_coalition_array
		add_to_array = { ruling_party = 23 }
		update_government_coalition_strength = yes
		update_party_name = yes
		set_coalition_drift = yes
		meta_effect = {
		text = {
						set_country_flag = [META_SET_RULING_PARTY]
					}
					META_SET_RULING_PARTY = "[meta_set_ruling_leader]"
				}
				set_leader = yes
				
				set_politics = {
					ruling_party = nationalist
					elections_allowed = no
				} }
				add_popularity = {
					ideology = nationalist
					popularity = 0.05
				}
				add_to_variable = { party_pop_array^23 = 0.70 }
				recalculate_party = yes
	set_cosmetic_tag = LIT_AUTH_S }
	
		ai_chance = {
	base = 10
	modifier = {
		POL_base_lit_chance = yes
		add = -5 
	}
	modifier = {
		add = 40
		POL_more_than_25_less_than_40_trigger = yes 
	}
	modifier = {
		add = 90
		POL_more_than_40_factor = yes
		}
	  }
	}
	option = { #LIT rejects
		name = poland.2.b
		log = "[GetDateText]: [This.GetName]: poland.2.b executed"
		POL = { add_political_power = -50 country_event = poland.4 }
		name = poland.2.b
		POL = { add_political_power = -50
		country_event = poland.4 }
		
		ai_chance = {
			base = 40
		} 	
	}  
}
   
country_event = { #news of lit accepting
	id = poland.3
	immediate = { }
	title = poland.3.t
	desc = poland.3.d
	picture = GFX_plc_proposal 
	
	fire_only_once = yes
	is_triggered_only = yes 
	
	option = { 
		name = poland.3.a
		log = "[GetDateText]: [This.GetName]: poland.3.a executed"
		add_political_power = 50
		add_political_power = 50
			}
		}
country_event = { #news of lit declining
	id = poland.4
	immediate = { }
	title = poland.4.t
	desc = poland.4.d
	picture = GFX_treaty_rejected
	
	fire_only_once = yes
	is_triggered_only = yes 
	
	option = { 
		name = poland.4.a
		log = "[GetDateText]: [This.GetName]: poland.4.a executed"
		add_political_power = -50
			}
		
	option = { 
		name = poland.4.b
		log = "[GetDateText]: [This.GetName]: poland.4.b executed"
		create_wargoal = { type = puppet_wargoal_focus target = LIT } 110 = { add_core_of = POL } 109 = { add_core_of = POL }
			}
	}
