ROM;Ruling Cabinet - Start;Name;Pool;Ideology;Personality;Loyalty;Picturename;x
68501;Head of State;Ion Iliescu;2003;SL;Autocratic Charmer;High;M_ROM_ion_iliescu;x
68502;Head of Government;Adrian Nastase;2003;SL;Political Protege;High;M_ROM_adrian_nastase;x
68503;Foreign Minister;Mircea Geoana;2003;SL;Biased Intellectual;High;M_ROM_mircea_geoana;x
68504;Minister of Armament;Mihai Tanasescu;2003;SL;Laissez Faire Capitalist;High;M_ROM_mihai_tanasescu;x
68505;Minister of Security;Mihaela Rodica Stanoiu;2003;SL;Crooked Kleptocrat;High;M_ROM_mihaela_rodica_staniou;x
68506;Head of Military Intelligence;Gheorghe Fulga;2003;SL;Logistics Specialist;High;M_ROM_gheorghe_fulga;x
68507;Chief of Staff;Mihail Popescu;2003;NA;School of Defence;High;M_ROM_mihail_popescu;x
68508;Chief of Army;Eugen Badalan;2003;NA;Elastic Defence Doctrine;High;M_ROM_badalan_eugen;x
68509;Chief of Navy;Corneliu Rudencu;2003;NA;Indirect Approach Doctrine;High;M_ROM_corneliu_rudencu;x
68510;Chief of Air Force;Gheorghe Catrina;2003;NA;Air Superiority Doctrine;High;M_ROM_gheorghe_catrina;x
;Replacements;;;;;;;x
68511;Head of State;Traian Basescu;2004;ML;Autocratic Charmer;High;M_ROM_traian_basescu;x
68512;Head of State;Adrian Nastase;2003;SL;Weary Stiffneck;High;M_ROM_adrian_nastase;x
68513;Head of State;Corneliu Vadim Tudor;2003;NS;Barking Buffon;High;M_ROM_corneliu_vadim_tudor;x
68514;Head of State;Ion Iliescu;2003;ST;Autocratic Charmer;High;M_ROM_ion_iliescu;x
68515;Head of Government;Calin Popescu-Tariceanu;2004;ML;Corporate Suit;High;M_ROM_calin_popescu-tariceanu;x
68516;Head of Government;Mircea Geoana;2003;SL;Happy Amateur;High;M_ROM_mircea_geoana;x
68517;Head of Government;Lucian Bolcas;2003;NS;Happy Amateur;High;M_ROM_lucian_bolcas;x
68518;Head of Government;Nicolae Vacaroiu;2008;SL;Naive Optimist;High;M_ROM_nicolae_vacaroiu;x
68519;Foreign Minister;Mihai-Razvan Ungureanu;2004;ML;Great Compromiser;High;M_ROM_mihai-razvan_ungureanu;x
68520;Foreign Minister;Lia Vasilescu;2003;NS;Great Compromiser;High;M_ROM_lia_vasilescu;x
68521;Foreign Minister;Adrian Severin;2003;ST;Iron Fisted Brute;High;M_ROM_adrian_severin;x
68522;Minister of Armament;Ionut Popescu;2003;ML;Corrupt Kleptocrat;High;M_ROM_ionut_popescu;x
68523;Minister of Armament;Sebastian Vladescu;2003;ML;Resource Industrialist;High;M_ROM_sebastian_vladescu;x
68524;Minister of Armament;Gheorghe Funar;2003;NS;Resource Industrialist;High;M_ROM_gheorghe_funar;x
68525;Minister of Armament;Viorel Hrebenciuc;2003;ST;Corrupt Kleptocrat;High;M_ROM_viorel_hrebenciuc;x
68526;Minister of Security;Monica Luisa Macovei;2004;ML;Crooked Kleptocrat;High;M_ROM_monica_luisa_macovei;x
68527;Minister of Security;Dumitru Dragomir;2003;NS;Crooked Kleptocrat;High;M_ROM_dumitru_dragomir;x
68528;Minister of Security;Octav Cozmanca;2003;ST;Prince of Terror;High;M_ROM_octav_cozmanca;x
68529;Head of Military Intelligence;Claudiu Saftoiu;2003;ML;Political Specialist;High;M_ROM_claudiu_saftoiu;x
68530;Head of Military Intelligence;Daniela Buruiana;2003;NS;Political Specialist;High;M_ROM_daniela_buruiana;x
68531;Head of Military Intelligence;Virgil Magureanu;2003;ST;Dismal Enigma;High;M_ROM_virgil_magureanu;x
68532;Chief of Staff;Eugen Badalan;2003;NA;School of Defence;High;M_ROM_badalan_eugen;x
68533;Chief of Staff;Gheorghe Marin;2003;NA;School of Psychology;High;Unknown;x
68534;Chief of Army;Teodor Frunzeti;2004;NA;Guns and Butter Doctrine;High;M_ROM_teodor_frunzeti;x
68535;Chief of Army;Neculai Mihai Bahnareanu;2003;NA;Static Defence Doctrine;High;M_ROM_neculai_mihai_bahnareanu;x
68536;Chief of Navy;Dorin Danila;2004;NA;Indirect Approach Doctrine;High;M_ROM_dorin_danila;x
68537;Chief of Navy;Gheorghe Petria;2003;NA;Indirect Approach Doctrine;High;M_ROM_gheorghe_petria;x
68538;Chief of Air Force;Constantin Croitoru;2004;NA;Air Superiority Doctrine;High;M_ROM_constantin_croitoru;x
68539;Chief of Air Force;Laurentiu Maftei;2003;NA;Vertical Envelopment Doctrine;High;M_ROM_laurenti_maftei;x
68540;Minister of Armament;Sorin Oprescu;2003;SL;Administrative Genius;High;M_ROM_sorin_oprescu;x
68541;Minister of Security;Christian Diaconescu;2003;SL;Silent Lawyer;High;M_ROM_christian_diaconescu;x
68542;Minister of Armament;Codrut Seres;2004;ML;Corrupt Kleptocrat;High;M_ROM_codrut_seres;x
68543;Head of Military Intelligence;Vasile Blaga;2004;NA;Dismal Enigma;High;M_ROM_vasile_blaga;x
68544;Chief of Army;Sorin Ioan;2004;NA;Elastic Defence Doctrine;High;M_ROM_sorin_ioan;x
68545;Chief of Navy;Gheorghe Marin;2003;NA;Decisive Naval Battle Doctrine;High;Unknown;x
68546;Minister of Armament;Ludovic Orban;2004;ML;Laissez Faire Capitalist;High;M_ROM_ludovic_orban;x
68547;Minister of Security;Crin Antonescu;2004;ML;Silent Lawyer;High;M_ROM_crin_antonescu;x
68548;Head of State;Mircea Geoana;2008;SL;Barking Buffon;High;M_ROM_mircea_geoana;x
68549;Foreign Minister;Adrian Nastase;2003;SL;Great Compromiser;High;M_ROM_adrian_nastase;x
68550;Minister of Armament;Dan Ioan Popescu;2003;SC;Corrupt Kleptocrat;High;M_ROM_dan_ioan_popescu;x
68551;Head of Military Intelligence;Ioan Rus;2003;SL;Dismal Enigma;High;M_ROM_ioan_rus;x
68552;Head of Government;Emil Boc;2008;ML;Political Protege;High;M_ROM_emil_boc;x
68553;Foreign Minister;Theodor Stolojan;2003;ML;Great Compromiser;High;M_ROM_theodor_stolojan;x
68554;Minister of Armament;Radu Berceanu;2008;ML;Corrupt Kleptocrat;High;M_ROM_radu_berceanu;x
68555;Minister of Security;Elena Udrea;2008;ML;Crooked Kleptocrat;High;M_ROM_elena_udrea;x
68556;Head of Government;Ludovic Orban;2008;ML;Silent Workhorse;High;M_ROM_ludovic_orban;x
68557;Foreign Minister;Lazar Comanescu;2008;ML;Great Compromiser;High;M_ROM_lazar_comanescu;x
68558;Minister of Armament;Varujan Vosganian;2008;ML;Laissez Faire Capitalist;High;M_ROM_varujan_vosganian;x
68559;Head of Military Intelligence;Teodor Melescanu;2008;ML;Dismal Enigma;High;M_ROM_teodor_melescanu;x
68560;Minister of Armament;Vasile Puscas;2008;SL;Administrative Genius;High;M_ROM_vasile_puscas;x
68561;Foreign Minister;Vasile Puscas;2008;SL;Great Compromiser;High;M_ROM_vasile_puscas;x
68562;Chief of Staff;Dorin Danila;2009;NA;School of Psychology;High;M_ROM_dorin_danila;x
