﻿division_template = {
	name = "Liwa Moudar'a"

	regiments = {
		armor_Bat = { x = 0 y = 0 }
		armor_Bat = { x = 0 y = 1 }
		armor_Recce_Bat = { x = 0 y = 2 }
		SP_Arty_Bat = { x = 0 y = 3 }
	}

	support = {
		SP_AA_Battery = { x = 0 y = 0 }
	}

}

division_template = {
	name = "Liwa Mushat Mechaniqui"

	regiments = {
		Mech_Inf_Bat = { x = 0 y = 0 }
		Mech_Inf_Bat = { x = 0 y = 1 }
		Mot_Inf_Bat = { x = 0 y = 2 }
		SP_Arty_Bat = { x = 0 y = 3 }
	}

	support = {
		SP_AA_Battery = { x = 0 y = 0 }
	}

}

division_template = {
	name = "Katiba Alquwwat Alkhasa"

	regiments = {
		Special_Forces = { x = 0 y = 0 }
	}

	support = {
	}

	priority = 2
}

units = {

	division = {
		name = "Liwa Moudar'a"
		location = 13208		#
		division_template = "Liwa Moudar'a"
		start_experience_factor = 0.3
		start_equipment_factor = 0.01
	}

	division = {
		name = "Liwa Mushat Mechaniqui"
		location = 13208		#
		division_template = "Liwa Mushat Mechaniqui"
		start_experience_factor = 0.3
		start_equipment_factor = 0.01
	}

	division = {
		name = "Katiba Alquwwat Alkhasa"
		location = 13208		#
		division_template = "Katiba Alquwwat Alkhasa"
		start_experience_factor = 0.75
		start_equipment_factor = 0.01
	}

}

instant_effect = {

	add_equipment_to_stockpile = {
		type = command_control_equipment2
		amount = 200
		producer = GER
	}

	add_equipment_to_stockpile = {
		type = infantry_weapons			#G3
		amount = 500
		producer = GER
	}

	add_equipment_to_stockpile = {
		type = infantry_weapons			#FN FAL
		amount = 500
		producer = BEL
	}

	add_equipment_to_stockpile = {
		type = infantry_weapons1		#M16
		amount = 500
		producer = USA
	}

	add_equipment_to_stockpile = {
		type = infantry_weapons4			#M4
		amount = 100
		producer = USA
	}

	add_equipment_to_stockpile = {
		type = IFV_2			#AIFV
		#version_name = "AIFV"
		amount = 75
		producer = USA
	}

	add_equipment_to_stockpile = {
		type = APC_2			#M113
		amount = 339
		producer = USA
	}

	add_equipment_to_stockpile = {
		type = APC_1			#Panhard M3
		amount = 110
		producer = FRA
	}

	add_equipment_to_stockpile = {
		type = APC_6			#Otokar Arma
		amount = 73
		producer = TUR
	}

	add_equipment_to_stockpile = {
		type = APC_3			#Saxon
		#version_name = "Saxon"
		amount = 10
		producer = ENG
	}

	add_equipment_to_stockpile = {
		type = Rec_tank_0			#Panhard AML
		#version_name = "Panhard AML"
		amount = 73
		producer = FRA
	}

	add_equipment_to_stockpile = {
		type = util_vehicle_2			#Otokar Akrep
		amount = 21
		producer = TUR
	}

	add_equipment_to_stockpile = {
		type = Rec_tank_0			#Lynx
		amount = 35
		producer = CAN
	}

	add_equipment_to_stockpile = {
		type = MBT_1			#M60A3
		#version_name = "M60A3"
		amount = 180
		producer = USA
	}

	add_equipment_to_stockpile = {
		type = util_vehicle_3			#Otokar Cobra
		amount = 148
		producer = TUR
	}

	add_equipment_to_stockpile = {
		type = util_vehicle_2			#Humvee
		amount = 200
		producer = USA
	}

	add_equipment_to_stockpile = {
		type = util_vehicle_4			#Nimer-1
		amount = 6
		producer = OMA
	}

	add_equipment_to_stockpile = {
		type = Heavy_Anti_tank_2			#Kornet
		amount = 10
		producer = SOV
	}

	add_equipment_to_stockpile = {
		type = Heavy_Anti_tank_2			#Javelin
		amount = 60
		producer = USA
	}

	add_equipment_to_stockpile = {
		type = Heavy_Anti_tank_0			#TOW
		amount = 15
		producer = USA
	}

	add_equipment_to_stockpile = {
		type = Anti_tank_0
		amount = 50
		producer = USA
	}

	add_equipment_to_stockpile = {
		type = SP_arty_0			#M110
		#version_name = "M110"
		amount = 13
		producer = USA
	}

	add_equipment_to_stockpile = {
		type = SP_arty_0			#M109
		amount = 20
		producer = USA
	}

	add_equipment_to_stockpile = {
		type = artillery_0			#M102
		#version_name = "M198 Howitzer"
		amount = 18
		producer = USA
	}

	add_equipment_to_stockpile = {
		type = artillery_1			#L118
		amount = 8
		producer = ENG
	}

	add_equipment_to_stockpile = {
		type = SP_R_arty_1			#M270
		amount = 9
		producer = USA
	}

	add_equipment_to_stockpile = {
		type = Anti_Air_1			#Stinger
		amount = 18
		producer = USA
	}

	add_equipment_to_stockpile = {
		type = Anti_Air_1			#RBS 70
		amount = 60
		producer = SWE
	}

	add_equipment_to_stockpile = {
		type = SP_Anti_Air_0			#Crotale
		amount = 7
		producer = FRA
	}

	add_equipment_to_stockpile = {
		type = SP_Anti_Air_0			#MIM-23 Hawk
		amount = 8
		producer = USA
	}

	add_equipment_to_stockpile = {
		type = SP_Anti_Air_1			#Avenger
		amount = 5
		producer = USA
	}

	add_equipment_to_stockpile = {
		type = transport_helicopter1			#UH-1
		amount = 18
		producer = USA
	}

	add_equipment_to_stockpile = {
		type = transport_helicopter2			#UH-60
		amount = 8
		producer = USA
	}

	add_equipment_to_stockpile = {
		type = attack_helicopter1			#AH-1 Cobra
		amount = 22
		producer = USA
	}

	add_equipment_to_stockpile = {
		type = MR_Fighter1			#F-5
		amount = 8
		producer = USA
	}

	add_equipment_to_stockpile = {
		type = MR_Fighter3			#F-16C
		amount = 15
		producer = USA
	}

	if = {		#F-16C
		limit = { has_dlc = "Death or Dishonor" }
		USA = {
			create_production_license = {
				target = BHR
				equipment = {
					type = MR_Fighter3
				}
				cost_factor = 0
			}
		}
		else = {
			add_equipment_production = {
				equipment = {
					type = MR_Fighter3
					creator = "USA"
				}
				requested_factories = 1
				progress = 0.2
				efficiency = 50
			}
		}
	}

}