﻿division_template = {
	name = "Briged Infantri"
	regiments = {
		Mech_Inf_Bat = { x = 0 y = 0 }
		Mech_Inf_Bat = { x = 0 y = 1 }
		Mot_Inf_Bat = { x = 0 y = 2 }
	}
	support = {
		H_Engi_Comp = { x = 0 y = 0 }
		armor_Recce_Comp = { x = 0 y = 1 }
		Arty_Battery = { x = 0 y = 2 }
	}
}

units = {
	division = {
		name = "Tentera Darat Diraja Brunei"
		location = 6034
		division_template = "Briged Infantri"
		start_experience_factor = 0.3
		start_equipment_factor = 0.01
	}
}


instant_effect = {

	add_equipment_to_stockpile = {
		type = infantry_weapons1		#M16
		amount = 500
		producer = USA
	}

	add_equipment_to_stockpile = {
		type = infantry_weapons3		#SAR 21
		amount = 100
		producer = SIN
	}

	add_equipment_to_stockpile = {
		type = infantry_weapons2		#Pindad SS2
		amount = 100
		producer = IND
	}

	add_equipment_to_stockpile = {
		type = command_control_equipment
		amount = 365
		producer = ENG
	}

	add_equipment_to_stockpile = {
		type = Rec_tank_1		#Scorpion
		amount = 16
		producer = ENG
	}

	add_equipment_to_stockpile = {
		type = APC_2		#VAB
		amount = 45
		producer = FRA
	}

	add_equipment_to_stockpile = {
		type = APC_2		#Pindad APS-3
		amount = 42
		producer = IND
	}

	add_equipment_to_stockpile = {
		type = artillery_1		#L118
		amount = 6
		producer = ENG
	}

	add_equipment_to_stockpile = {
		type = util_vehicle_2		#Land Rover Defender
		amount = 60
		producer = ENG
	}

}