division_template = {
	name = "Brigada de Infantería" 	#Infantry Brigade

	regiments = {
		Mech_Inf_Bat = { x = 0 y = 0 }
		Mot_Inf_Bat = { x = 0 y = 1 }
		Mot_Inf_Bat = { x = 0 y = 2 }
		Arty_Bat = { x = 1 y = 0 }
	}
	support = {
		L_Engi_Comp = { x = 0 y = 0 }
	}

}

division_template = {
	name = "Brigada de Blindada" 	#Armoured Brigade

	regiments = {
		armor_Recce_Bat = { x = 0 y = 0 }
		armor_Recce_Bat = { x = 0 y = 1 }
		Arm_Inf_Bat = { x = 1 y = 0 }
		Arty_Bat = { x = 2 y = 0 }
	}
	support = {
		L_Engi_Comp = { x = 0 y = 0 }
	}

}

units = {
	division = {
		name = "1. Brigada de Infantería de Chihuahua"
		location = 7935
		division_template = "Brigada de Infantería"
		start_experience_factor = 0.1
		start_equipment_factor = 1.0
	}
	division = {
		name = "2. Brigada de Infantería de Chihuahua"
		location = 4898
		division_template = "Brigada de Infantería"
		start_experience_factor = 0.1
		start_equipment_factor = 1.0
	}
	division = {
		name = "3. Brigada de Infantería de Chihuahua"
		location = 10916
		division_template = "Brigada de Infantería"
		start_experience_factor = 0.1
		start_equipment_factor = 1.0
	}
	division = {
		name = "4. Brigada de Infantería de Chihuahua"
		location = 12850
		division_template = "Brigada de Infantería"
		start_experience_factor = 0.1
		start_equipment_factor = 1.0
	}
	division = {
		name = "Brigada de Blindada de Chihuahua"
		location = 12897
		division_template = "Brigada de Blindada"
		start_experience_factor = 0.1
		start_equipment_factor = 1.0
	}
}